{
	"__comment": "Designed by Neo2057 with Cubik Studio - https://cubik.studio",
	"textures": {
		"particle": "blocks/e_particle",
		"texture": "items/9"
	},
	"elements": [
		{
			"__comment": "Cube2",
			"from": [ 7.5, 13, -10 ],
			"to": [ 8.5, 13.5, 26 ],
			"faces": {
				"down": { "uv": [ 7.5, 0, 8.5, 16 ], "texture": "#texture" },
				"up": { "uv": [ 7.5, 0, 8.5, 16 ], "texture": "#texture" },
				"north": { "uv": [ 7.5, 2.5, 8.5, 3 ], "texture": "#texture" },
				"south": { "uv": [ 7.5, 2.5, 8.5, 3 ], "texture": "#texture" },
				"west": { "uv": [ 0, 2.5, 16, 3 ], "texture": "#texture" },
				"east": { "uv": [ 0, 2.5, 16, 3 ], "texture": "#texture" }
			}
		},
		{
			"__comment": "Cube2",
			"from": [ 8.5, 13, -10 ],
			"to": [ 9.5, 13.5, 26 ],
			"rotation": { "origin": [ 8.5, 13, -10 ], "axis": "z", "angle": 22.5 },
			"faces": {
				"down": { "uv": [ 7.5, 0, 8.5, 16 ], "texture": "#texture" },
				"up": { "uv": [ 7.5, 0, 8.5, 16 ], "texture": "#texture" },
				"north": { "uv": [ 7.5, 2.5, 8.5, 3 ], "texture": "#texture" },
				"south": { "uv": [ 7.5, 2.5, 8.5, 3 ], "texture": "#texture" },
				"west": { "uv": [ 0, 2.5, 16, 3 ], "texture": "#texture" },
				"east": { "uv": [ 0, 2.5, 16, 3 ], "texture": "#texture" }
			}
		},
		{
			"__comment": "Cube2",
			"from": [ 6.5, 13, -10 ],
			"to": [ 7.5, 13.5, 26 ],
			"rotation": { "origin": [ 7.5, 13, -10 ], "axis": "z", "angle": -22.5 },
			"faces": {
				"down": { "uv": [ 7.5, 0, 8.5, 16 ], "texture": "#texture", "rotation": 180 },
				"up": { "uv": [ 7.5, 0, 8.5, 16 ], "texture": "#texture", "rotation": 180 },
				"north": { "uv": [ 7.5, 2.5, 8.5, 3 ], "texture": "#texture", "rotation": 180 },
				"south": { "uv": [ 7.5, 2.5, 8.5, 3 ], "texture": "#texture", "rotation": 180 },
				"west": { "uv": [ 16, 3, 0, 2.5 ], "texture": "#texture" },
				"east": { "uv": [ 16, 3, 0, 2.5 ], "texture": "#texture" }
			}
		},
		{
			"__comment": "Cube2",
			"from": [ 10, 14, -10 ],
			"to": [ 10.5, 15, 26 ],
			"rotation": { "origin": [ 10.5, 15, -10 ], "axis": "z", "angle": -22.5 },
			"faces": {
				"down": { "uv": [ 16, 3, 0, 2.5 ], "texture": "#texture", "rotation": 270 },
				"up": { "uv": [ 0, 2.5, 16, 3 ], "texture": "#texture", "rotation": 90 },
				"north": { "uv": [ 7.5, 2.5, 8.5, 3 ], "texture": "#texture", "rotation": 270 },
				"south": { "uv": [ 7.5, 2.5, 8.5, 3 ], "texture": "#texture", "rotation": 90 },
				"west": { "uv": [ 8.5, 16, 7.5, 0 ], "texture": "#texture", "rotation": 270 },
				"east": { "uv": [ 7.5, 0, 8.5, 16 ], "texture": "#texture", "rotation": 90 }
			}
		},
		{
			"__comment": "Cube2",
			"from": [ 10, 15, -10 ],
			"to": [ 10.5, 16, 26 ],
			"faces": {
				"down": { "uv": [ 0, 2.5, 16, 3 ], "texture": "#texture", "rotation": 270 },
				"up": { "uv": [ 16, 3, 0, 2.5 ], "texture": "#texture", "rotation": 90 },
				"north": { "uv": [ 7.5, 2.5, 8.5, 3 ], "texture": "#texture", "rotation": 90 },
				"south": { "uv": [ 7.5, 2.5, 8.5, 3 ], "texture": "#texture", "rotation": 270 },
				"west": { "uv": [ 8.5, 16, 7.5, 0 ], "texture": "#texture", "rotation": 90 },
				"east": { "uv": [ 7.5, 0, 8.5, 16 ], "texture": "#texture", "rotation": 270 }
			}
		},
		{
			"__comment": "Cube2",
			"from": [ 10.3827, 15.9239, -10 ],
			"to": [ 10.8827, 16.9239, 26 ],
			"rotation": { "origin": [ 10.5, 15, -10 ], "axis": "z", "angle": 22.5 },
			"faces": {
				"down": { "uv": [ 0, 2.5, 16, 3 ], "texture": "#texture", "rotation": 270 },
				"up": { "uv": [ 16, 3, 0, 2.5 ], "texture": "#texture", "rotation": 90 },
				"north": { "uv": [ 7.5, 2.5, 8.5, 3 ], "texture": "#texture", "rotation": 90 },
				"south": { "uv": [ 7.5, 2.5, 8.5, 3 ], "texture": "#texture", "rotation": 270 },
				"west": { "uv": [ 8.5, 16, 7.5, 0 ], "texture": "#texture", "rotation": 90 },
				"east": { "uv": [ 7.5, 0, 8.5, 16 ], "texture": "#texture", "rotation": 270 }
			}
		},
		{
			"__comment": "Cube2",
			"from": [ 9.2157, 13.1217, -10 ],
			"to": [ 10.2157, 13.6217, 26 ],
			"rotation": { "origin": [ 9, 13.5, -10 ], "axis": "z", "angle": 45 },
			"faces": {
				"down": { "uv": [ 7.5, 0, 8.5, 16 ], "texture": "#texture" },
				"up": { "uv": [ 7.5, 0, 8.5, 16 ], "texture": "#texture" },
				"north": { "uv": [ 7.5, 2.5, 8.5, 3 ], "texture": "#texture" },
				"south": { "uv": [ 7.5, 2.5, 8.5, 3 ], "texture": "#texture" },
				"west": { "uv": [ 0, 2.5, 16, 3 ], "texture": "#texture" },
				"east": { "uv": [ 0, 2.5, 16, 3 ], "texture": "#texture" }
			}
		},
		{
			"__comment": "Cube2",
			"from": [ 6.6143, 17.6213, -10 ],
			"to": [ 7.6143, 18.1213, 26 ],
			"rotation": { "origin": [ 7.83, 17.743, -10 ], "axis": "z", "angle": 22.5 },
			"faces": {
				"down": { "uv": [ 7.5, 0, 8.5, 16 ], "texture": "#texture", "rotation": 180 },
				"up": { "uv": [ 7.5, 0, 8.5, 16 ], "texture": "#texture", "rotation": 180 },
				"north": { "uv": [ 8.5, 3, 7.5, 2.5 ], "texture": "#texture" },
				"south": { "uv": [ 8.5, 3, 7.5, 2.5 ], "texture": "#texture" },
				"west": { "uv": [ 0, 2.5, 16, 3 ], "texture": "#texture", "rotation": 180 },
				"east": { "uv": [ 0, 2.5, 16, 3 ], "texture": "#texture", "rotation": 180 }
			}
		},
		{
			"__comment": "Cube2",
			"from": [ 8.33, 17.743, -10 ],
			"to": [ 9.33, 18.243, 26 ],
			"rotation": { "origin": [ 7.83, 17.743, -10 ], "axis": "z", "angle": -22.5 },
			"faces": {
				"down": { "uv": [ 7.5, 0, 8.5, 16 ], "texture": "#texture", "rotation": 180 },
				"up": { "uv": [ 7.5, 0, 8.5, 16 ], "texture": "#texture", "rotation": 180 },
				"north": { "uv": [ 8.5, 3, 7.5, 2.5 ], "texture": "#texture" },
				"south": { "uv": [ 8.5, 3, 7.5, 2.5 ], "texture": "#texture" },
				"west": { "uv": [ 0, 2.5, 16, 3 ], "texture": "#texture", "rotation": 180 },
				"east": { "uv": [ 0, 2.5, 16, 3 ], "texture": "#texture", "rotation": 180 }
			}
		},
		{
			"__comment": "Cube2",
			"from": [ 7.4833, 17.5136, -10 ],
			"to": [ 8.483299, 18.0136, 26 ],
			"faces": {
				"down": { "uv": [ 7.5, 0, 8.5, 16 ], "texture": "#texture", "rotation": 180 },
				"up": { "uv": [ 7.5, 0, 8.5, 16 ], "texture": "#texture", "rotation": 180 },
				"north": { "uv": [ 8.5, 3, 7.5, 2.5 ], "texture": "#texture" },
				"south": { "uv": [ 8.5, 3, 7.5, 2.5 ], "texture": "#texture" },
				"west": { "uv": [ 0, 2.5, 16, 3 ], "texture": "#texture", "rotation": 180 },
				"east": { "uv": [ 0, 2.5, 16, 3 ], "texture": "#texture", "rotation": 180 }
			}
		},
		{
			"__comment": "Cube2",
			"from": [ 9.0245, 18.279, -10 ],
			"to": [ 10.0245, 18.779, 26 ],
			"rotation": { "origin": [ 7.83, 17.743, -10 ], "axis": "z", "angle": -45 },
			"faces": {
				"down": { "uv": [ 7.5, 0, 8.5, 16 ], "texture": "#texture" },
				"up": { "uv": [ 7.5, 0, 8.5, 16 ], "texture": "#texture" },
				"north": { "uv": [ 8.5, 3, 7.5, 2.5 ], "texture": "#texture", "rotation": 180 },
				"south": { "uv": [ 8.5, 3, 7.5, 2.5 ], "texture": "#texture", "rotation": 180 },
				"west": { "uv": [ 16, 3, 0, 2.5 ], "texture": "#texture", "rotation": 180 },
				"east": { "uv": [ 16, 3, 0, 2.5 ], "texture": "#texture", "rotation": 180 }
			}
		},
		{
			"__comment": "Cube2",
			"from": [ 7.0182, 15.7832, -10 ],
			"to": [ 7.5182, 16.7832, 26 ],
			"rotation": { "origin": [ 7.83, 17.743, -10 ], "axis": "z", "angle": -45 },
			"faces": {
				"down": { "uv": [ 0, 2.5, 16, 3 ], "texture": "#texture", "rotation": 270 },
				"up": { "uv": [ 16, 3, 0, 2.5 ], "texture": "#texture", "rotation": 90 },
				"north": { "uv": [ 8.5, 3, 7.5, 2.5 ], "texture": "#texture", "rotation": 270 },
				"south": { "uv": [ 8.5, 3, 7.5, 2.5 ], "texture": "#texture", "rotation": 90 },
				"west": { "uv": [ 7.5, 0, 8.5, 16 ], "texture": "#texture", "rotation": 270 },
				"east": { "uv": [ 8.5, 16, 7.5, 0 ], "texture": "#texture", "rotation": 90 }
			}
		},
		{
			"__comment": "Cube2",
			"from": [ 6.33, 15.243, -10 ],
			"to": [ 6.83, 16.243, 26 ],
			"rotation": { "origin": [ 7.83, 17.743, -10 ], "axis": "z", "angle": -22.5 },
			"faces": {
				"down": { "uv": [ 16, 3, 0, 2.5 ], "texture": "#texture", "rotation": 270 },
				"up": { "uv": [ 0, 2.5, 16, 3 ], "texture": "#texture", "rotation": 90 },
				"north": { "uv": [ 8.5, 3, 7.5, 2.5 ], "texture": "#texture", "rotation": 90 },
				"south": { "uv": [ 8.5, 3, 7.5, 2.5 ], "texture": "#texture", "rotation": 270 },
				"west": { "uv": [ 7.5, 0, 8.5, 16 ], "texture": "#texture", "rotation": 90 },
				"east": { "uv": [ 8.5, 16, 7.5, 0 ], "texture": "#texture", "rotation": 270 }
			}
		},
		{
			"__comment": "Cube2",
			"from": [ 5.4875, 15.0073, -10 ],
			"to": [ 5.9875, 16.0073, 26 ],
			"faces": {
				"down": { "uv": [ 16, 3, 0, 2.5 ], "texture": "#texture", "rotation": 270 },
				"up": { "uv": [ 0, 2.5, 16, 3 ], "texture": "#texture", "rotation": 90 },
				"north": { "uv": [ 8.5, 3, 7.5, 2.5 ], "texture": "#texture", "rotation": 90 },
				"south": { "uv": [ 8.5, 3, 7.5, 2.5 ], "texture": "#texture", "rotation": 270 },
				"west": { "uv": [ 7.5, 0, 8.5, 16 ], "texture": "#texture", "rotation": 90 },
				"east": { "uv": [ 8.5, 16, 7.5, 0 ], "texture": "#texture", "rotation": 270 }
			}
		},
		{
			"__comment": "Cube2",
			"from": [ 3.9625, 14.2343, -10 ],
			"to": [ 4.4625, 15.2343, 26 ],
			"rotation": { "origin": [ 6.305001, 16.97, -10 ], "axis": "z", "angle": 45 },
			"faces": {
				"down": { "uv": [ 16, 3, 0, 2.5 ], "texture": "#texture", "rotation": 270 },
				"up": { "uv": [ 0, 2.5, 16, 3 ], "texture": "#texture", "rotation": 90 },
				"north": { "uv": [ 8.5, 3, 7.5, 2.5 ], "texture": "#texture", "rotation": 90 },
				"south": { "uv": [ 8.5, 3, 7.5, 2.5 ], "texture": "#texture", "rotation": 270 },
				"west": { "uv": [ 7.5, 0, 8.5, 16 ], "texture": "#texture", "rotation": 90 },
				"east": { "uv": [ 8.5, 16, 7.5, 0 ], "texture": "#texture", "rotation": 270 }
			}
		},
		{
			"__comment": "Cube2",
			"from": [ 4.805, 14.47, -10 ],
			"to": [ 5.305, 15.47, 26 ],
			"rotation": { "origin": [ 6.305001, 16.97, -10 ], "axis": "z", "angle": 22.5 },
			"faces": {
				"down": { "uv": [ 16, 3, 0, 2.5 ], "texture": "#texture", "rotation": 270 },
				"up": { "uv": [ 0, 2.5, 16, 3 ], "texture": "#texture", "rotation": 90 },
				"north": { "uv": [ 8.5, 3, 7.5, 2.5 ], "texture": "#texture", "rotation": 90 },
				"south": { "uv": [ 8.5, 3, 7.5, 2.5 ], "texture": "#texture", "rotation": 270 },
				"west": { "uv": [ 7.5, 0, 8.5, 16 ], "texture": "#texture", "rotation": 90 },
				"east": { "uv": [ 8.5, 16, 7.5, 0 ], "texture": "#texture", "rotation": 270 }
			}
		},
		{
			"__comment": "Cube17",
			"from": [ 6.5, 13.5, -10 ],
			"to": [ 9.5, 14.5, 26 ],
			"faces": {
				"down": { "uv": [ 6.5, 0, 9.5, 16 ], "texture": "#texture" },
				"up": { "uv": [ 6.5, 0, 9.5, 16 ], "texture": "#texture" },
				"north": { "uv": [ 6.5, 1.5, 9.5, 2.5 ], "texture": "#texture" },
				"south": { "uv": [ 6.5, 1.5, 9.5, 2.5 ], "texture": "#texture" },
				"west": { "uv": [ 0, 1.5, 16, 2.5 ], "texture": "#texture" },
				"east": { "uv": [ 0, 1.5, 16, 2.5 ], "texture": "#texture" }
			}
		},
		{
			"__comment": "Cube17",
			"from": [ 5.98, 14, -10 ],
			"to": [ 6.98, 17, 26 ],
			"faces": {
				"down": { "uv": [ 6.5, 0, 9.5, 16 ], "texture": "#texture" },
				"up": { "uv": [ 6.5, 0, 9.5, 16 ], "texture": "#texture" },
				"north": { "uv": [ 6.5, 0, 9.5, 2.5 ], "texture": "#texture" },
				"south": { "uv": [ 6.5, 0, 9.5, 2.5 ], "texture": "#texture" },
				"west": { "uv": [ 0, 0, 16, 2.5 ], "texture": "#texture" },
				"east": { "uv": [ 0, 0, 16, 2.5 ], "texture": "#texture" }
			}
		},
		{
			"__comment": "Cube17",
			"from": [ 9, 14, -10 ],
			"to": [ 10, 17, 26 ],
			"faces": {
				"down": { "uv": [ 6.5, 0, 9.5, 16 ], "texture": "#texture" },
				"up": { "uv": [ 6.5, 0, 9.5, 16 ], "texture": "#texture" },
				"north": { "uv": [ 6.5, 0, 9.5, 2.5 ], "texture": "#texture" },
				"south": { "uv": [ 6.5, 0, 9.5, 2.5 ], "texture": "#texture" },
				"west": { "uv": [ 0, 0, 16, 2.5 ], "texture": "#texture" },
				"east": { "uv": [ 0, 0, 16, 2.5 ], "texture": "#texture" }
			}
		},
		{
			"__comment": "Cube17",
			"from": [ 6.5, 16.52, -10 ],
			"to": [ 9.5, 17.52, 26 ],
			"faces": {
				"down": { "uv": [ 6.5, 0, 9.5, 16 ], "texture": "#texture" },
				"up": { "uv": [ 6.5, 0, 9.5, 16 ], "texture": "#texture" },
				"north": { "uv": [ 6.5, 1, 9.5, 2.5 ], "texture": "#texture" },
				"south": { "uv": [ 6.5, 1, 9.5, 2.5 ], "texture": "#texture" },
				"west": { "uv": [ 0, 1, 16, 2.5 ], "texture": "#texture" },
				"east": { "uv": [ 0, 1, 16, 2.5 ], "texture": "#texture" }
			}
		},
		{
			"__comment": "Cube21",
			"from": [ 6.1768, 14.6768, -10.4 ],
			"to": [ 7.1768, 15.6768, 25.6 ],
			"rotation": { "origin": [ 6, 14.5, -10 ], "axis": "z", "angle": -45 },
			"faces": {
				"down": { "uv": [ 7, 0, 8, 16 ], "texture": "#texture" },
				"up": { "uv": [ 7, 0, 8, 16 ], "texture": "#texture" },
				"north": { "uv": [ 8, 1, 9, 2 ], "texture": "#texture" },
				"south": { "uv": [ 7, 1, 8, 2 ], "texture": "#texture" },
				"west": { "uv": [ 0, 1, 16, 2 ], "texture": "#texture" },
				"east": { "uv": [ 0, 1, 16, 2 ], "texture": "#texture" }
			}
		},
		{
			"__comment": "Cube21",
			"from": [ 8.2121, 14.7121, -10.4 ],
			"to": [ 9.2121, 15.7121, 25.6 ],
			"rotation": { "origin": [ 8, 14.5, -10 ], "axis": "z", "angle": -45 },
			"faces": {
				"down": { "uv": [ 7, 0, 8, 16 ], "texture": "#texture" },
				"up": { "uv": [ 7, 0, 8, 16 ], "texture": "#texture" },
				"north": { "uv": [ 8, 1, 9, 2 ], "texture": "#texture" },
				"south": { "uv": [ 7, 1, 8, 2 ], "texture": "#texture" },
				"west": { "uv": [ 0, 1, 16, 2 ], "texture": "#texture" },
				"east": { "uv": [ 0, 1, 16, 2 ], "texture": "#texture" }
			}
		},
		{
			"__comment": "Cube21",
			"from": [ 8.198, 16.7263, -10.4 ],
			"to": [ 9.198, 17.7263, 25.6 ],
			"rotation": { "origin": [ 8, 16.5, -10 ], "axis": "z", "angle": -45 },
			"faces": {
				"down": { "uv": [ 7, 0, 8, 16 ], "texture": "#texture" },
				"up": { "uv": [ 7, 0, 8, 16 ], "texture": "#texture" },
				"north": { "uv": [ 8, 1, 9, 2 ], "texture": "#texture" },
				"south": { "uv": [ 7, 1, 8, 2 ], "texture": "#texture" },
				"west": { "uv": [ 0, 1, 16, 2 ], "texture": "#texture" },
				"east": { "uv": [ 0, 1, 16, 2 ], "texture": "#texture" }
			}
		},
		{
			"__comment": "Cube21",
			"from": [ 6.1768, 16.7051, -10.4 ],
			"to": [ 7.1768, 17.7051, 25.6 ],
			"rotation": { "origin": [ 6, 16.5, -10 ], "axis": "z", "angle": -45 },
			"faces": {
				"down": { "uv": [ 7, 0, 8, 16 ], "texture": "#texture" },
				"up": { "uv": [ 7, 0, 8, 16 ], "texture": "#texture" },
				"north": { "uv": [ 8, 1, 9, 2 ], "texture": "#texture" },
				"south": { "uv": [ 7, 1, 8, 2 ], "texture": "#texture" },
				"west": { "uv": [ 0, 1, 16, 2 ], "texture": "#texture" },
				"east": { "uv": [ 0, 1, 16, 2 ], "texture": "#texture" }
			}
		},
		{
			"__comment": "Cube21",
			"from": [ 7, 16.5, -10.4 ],
			"to": [ 9, 17.25, -9.9 ],
			"faces": {
				"down": { "uv": [ 7, 0, 8, 16 ], "texture": "#texture" },
				"up": { "uv": [ 7, 0, 8, 16 ], "texture": "#texture" },
				"north": { "uv": [ 8, 1, 9, 2 ], "texture": "#texture" },
				"south": { "uv": [ 7, 1, 8, 2 ], "texture": "#texture" },
				"west": { "uv": [ 0, 1, 16, 2 ], "texture": "#texture" },
				"east": { "uv": [ 0, 1, 16, 2 ], "texture": "#texture" }
			}
		},
		{
			"__comment": "Cube21",
			"from": [ 9, 14.5, -10.4 ],
			"to": [ 9.75, 16.5, -9.9 ],
			"faces": {
				"down": { "uv": [ 0, 1, 16, 2 ], "texture": "#texture", "rotation": 90 },
				"up": { "uv": [ 16, 2, 0, 1 ], "texture": "#texture", "rotation": 270 },
				"north": { "uv": [ 8, 1, 9, 2 ], "texture": "#texture", "rotation": 270 },
				"south": { "uv": [ 7, 1, 8, 2 ], "texture": "#texture", "rotation": 90 },
				"west": { "uv": [ 7, 0, 8, 16 ], "texture": "#texture", "rotation": 90 },
				"east": { "uv": [ 8, 16, 7, 0 ], "texture": "#texture", "rotation": 270 }
			}
		},
		{
			"__comment": "Cube21",
			"from": [ 7, 13.75, -10.4 ],
			"to": [ 9, 14.5, -9.9 ],
			"faces": {
				"down": { "uv": [ 0, 1, 16, 2 ], "texture": "#texture", "rotation": 90 },
				"up": { "uv": [ 16, 2, 0, 1 ], "texture": "#texture", "rotation": 270 },
				"north": { "uv": [ 8, 1, 9, 2 ], "texture": "#texture", "rotation": 270 },
				"south": { "uv": [ 7, 1, 8, 2 ], "texture": "#texture", "rotation": 90 },
				"west": { "uv": [ 7, 0, 8, 16 ], "texture": "#texture", "rotation": 90 },
				"east": { "uv": [ 8, 16, 7, 0 ], "texture": "#texture", "rotation": 270 }
			}
		},
		{
			"__comment": "Cube21",
			"from": [ 6.25, 14.5, -10.4 ],
			"to": [ 7, 16.5, -9.9 ],
			"faces": {
				"down": { "uv": [ 0, 1, 16, 2 ], "texture": "#texture", "rotation": 90 },
				"up": { "uv": [ 16, 2, 0, 1 ], "texture": "#texture", "rotation": 270 },
				"north": { "uv": [ 8, 1, 9, 2 ], "texture": "#texture", "rotation": 270 },
				"south": { "uv": [ 7, 1, 8, 2 ], "texture": "#texture", "rotation": 90 },
				"west": { "uv": [ 7, 0, 8, 16 ], "texture": "#texture", "rotation": 90 },
				"east": { "uv": [ 8, 16, 7, 0 ], "texture": "#texture", "rotation": 270 }
			}
		}
	],
	"display": {
		"thirdperson_righthand": {
			"rotation":  [ 60, 0, 0 ],
			"scale":  [ 0.3, 0.3, 0.3 ]
		},
		"thirdperson_lefthand": {
			"rotation":  [ 60, 0, 0 ],
			"scale":  [ 0.3, 0.3, 0.3 ]
		},
		"firstperson_righthand": {
			"rotation":  [ 33, 0, 0 ],
			"scale":  [ 0.3, 0.3, 0.3 ]
		},
		"firstperson_lefthand": {
			"rotation":  [ 33, 0, 0 ],
			"scale":  [ 0.3, 0.3, 0.3 ]
		},
		"gui": {
			"rotation":  [ 90, -135, 90 ],
			"translation":  [ -2.78, -2.782, 0 ],
			"scale":  [ 0.5, 0.5, 0.5 ]
		},
		"ground": {
			"translation":  [ 0, -3.478, 0 ],
			"scale":  [ 0.3, 0.3, 0.3 ]
		},
		"fixed": {
			"rotation":  [ 90, -45, 90 ],
			"translation":  [ 2.0869, -2.782, 0 ],
			"scale":  [ 0.5, 0.5, 0.5 ]
		}
	}
}