{
	"__comment": "Designed by Neo2057 with Cubik Studio - https://cubik.studio",
	"textures": {
		"particle": "blocks/e_particle",
		"texture": "items/6",
		"texture1": "items/14"
	},
	"elements": [
		{
			"__comment": "Cube18",
			"from": [ 7.5, 11.5, 0 ],
			"to": [ 8, 12, 2 ],
			"faces": {
				"down": { "uv": [ 7.5, 15, 8, 16 ], "texture": "#texture" },
				"up": { "uv": [ 7.5, 0, 8, 1 ], "texture": "#texture" },
				"north": { "uv": [ 8, 4, 8.5, 4.5 ], "texture": "#texture" },
				"south": { "uv": [ 7.5, 4, 8, 4.5 ], "texture": "#texture" },
				"west": { "uv": [ 0, 4, 1, 4.5 ], "texture": "#texture" },
				"east": { "uv": [ 15, 4, 16, 4.5 ], "texture": "#texture" }
			}
		},
		{
			"__comment": "Cube18",
			"from": [ 7.5, 11.5, 0 ],
			"to": [ 8, 12, 2 ],
			"rotation": { "origin": [ 7.75, 12.75, 0 ], "axis": "z", "angle": 22.5 },
			"faces": {
				"down": { "uv": [ 15, 4, 16, 4.5 ], "texture": "#texture", "rotation": 90 },
				"up": { "uv": [ 1, 4.5, 0, 4 ], "texture": "#texture", "rotation": 270 },
				"north": { "uv": [ 8, 4, 8.5, 4.5 ], "texture": "#texture", "rotation": 270 },
				"south": { "uv": [ 7.5, 4, 8, 4.5 ], "texture": "#texture", "rotation": 90 },
				"west": { "uv": [ 7.5, 15, 8, 16 ], "texture": "#texture", "rotation": 90 },
				"east": { "uv": [ 8, 1, 7.5, 0 ], "texture": "#texture", "rotation": 270 }
			}
		},
		{
			"__comment": "Cube18",
			"from": [ 7.5, 11.5, 0 ],
			"to": [ 8, 12, 2 ],
			"rotation": { "origin": [ 7.75, 12.75, 0 ], "axis": "z", "angle": 45 },
			"faces": {
				"down": { "uv": [ 15, 4, 16, 4.5 ], "texture": "#texture", "rotation": 90 },
				"up": { "uv": [ 1, 4.5, 0, 4 ], "texture": "#texture", "rotation": 270 },
				"north": { "uv": [ 8, 4, 8.5, 4.5 ], "texture": "#texture", "rotation": 270 },
				"south": { "uv": [ 7.5, 4, 8, 4.5 ], "texture": "#texture", "rotation": 90 },
				"west": { "uv": [ 7.5, 15, 8, 16 ], "texture": "#texture", "rotation": 90 },
				"east": { "uv": [ 8, 1, 7.5, 0 ], "texture": "#texture", "rotation": 270 }
			}
		},
		{
			"__comment": "Cube18",
			"from": [ 8.5, 12.5, 0 ],
			"to": [ 9, 13, 7 ],
			"rotation": { "origin": [ 7.75, 12.75, 0 ], "axis": "z", "angle": -22.5 },
			"faces": {
				"down": { "uv": [ 1, 4.5, 0, 4 ], "texture": "#texture", "rotation": 90 },
				"up": { "uv": [ 15, 4, 16, 4.5 ], "texture": "#texture", "rotation": 270 },
				"north": { "uv": [ 8.5, 4.5, 8, 4 ], "texture": "#texture", "rotation": 270 },
				"south": { "uv": [ 8, 4.5, 7.5, 4 ], "texture": "#texture", "rotation": 90 },
				"west": { "uv": [ 8, 1, 7.5, 0 ], "texture": "#texture", "rotation": 90 },
				"east": { "uv": [ 7.5, 15, 8, 16 ], "texture": "#texture", "rotation": 270 }
			}
		},
		{
			"__comment": "Cube18",
			"from": [ 6.5, 12.5, 0 ],
			"to": [ 7, 13, 7 ],
			"rotation": { "origin": [ 7.75, 12.75, 0 ], "axis": "z", "angle": -22.5 },
			"faces": {
				"down": { "uv": [ 8, 1, 7.5, 0 ], "texture": "#texture" },
				"up": { "uv": [ 8, 16, 7.5, 15 ], "texture": "#texture" },
				"north": { "uv": [ 8, 4, 8.5, 4.5 ], "texture": "#texture", "rotation": 180 },
				"south": { "uv": [ 7.5, 4, 8, 4.5 ], "texture": "#texture", "rotation": 180 },
				"west": { "uv": [ 15, 4, 16, 4.5 ], "texture": "#texture", "rotation": 180 },
				"east": { "uv": [ 0, 4, 1, 4.5 ], "texture": "#texture", "rotation": 180 }
			}
		},
		{
			"__comment": "Cube18",
			"from": [ 6.5, 12.5, 0 ],
			"to": [ 7, 13, 7 ],
			"faces": {
				"down": { "uv": [ 8, 1, 7.5, 0 ], "texture": "#texture" },
				"up": { "uv": [ 8, 16, 7.5, 15 ], "texture": "#texture" },
				"north": { "uv": [ 8, 4, 8.5, 4.5 ], "texture": "#texture", "rotation": 180 },
				"south": { "uv": [ 7.5, 4, 8, 4.5 ], "texture": "#texture", "rotation": 180 },
				"west": { "uv": [ 15, 4, 16, 4.5 ], "texture": "#texture", "rotation": 180 },
				"east": { "uv": [ 0, 4, 1, 4.5 ], "texture": "#texture", "rotation": 180 }
			}
		},
		{
			"__comment": "Cube18",
			"from": [ 6.5, 12.5, 0 ],
			"to": [ 7, 13, 7 ],
			"rotation": { "origin": [ 7.75, 12.75, 0 ], "axis": "z", "angle": 22.5 },
			"faces": {
				"down": { "uv": [ 8, 1, 7.5, 0 ], "texture": "#texture" },
				"up": { "uv": [ 8, 16, 7.5, 15 ], "texture": "#texture" },
				"north": { "uv": [ 8, 4, 8.5, 4.5 ], "texture": "#texture", "rotation": 180 },
				"south": { "uv": [ 7.5, 4, 8, 4.5 ], "texture": "#texture", "rotation": 180 },
				"west": { "uv": [ 15, 4, 16, 4.5 ], "texture": "#texture", "rotation": 180 },
				"east": { "uv": [ 0, 4, 1, 4.5 ], "texture": "#texture", "rotation": 180 }
			}
		},
		{
			"__comment": "Cube18",
			"from": [ 7.5, 13.5, 0 ],
			"to": [ 8, 14, 7 ],
			"rotation": { "origin": [ 7.75, 12.75, 0 ], "axis": "z", "angle": -45 },
			"faces": {
				"down": { "uv": [ 1, 4.5, 0, 4 ], "texture": "#texture", "rotation": 90 },
				"up": { "uv": [ 15, 4, 16, 4.5 ], "texture": "#texture", "rotation": 270 },
				"north": { "uv": [ 8.5, 4.5, 8, 4 ], "texture": "#texture", "rotation": 270 },
				"south": { "uv": [ 8, 4.5, 7.5, 4 ], "texture": "#texture", "rotation": 90 },
				"west": { "uv": [ 8, 1, 7.5, 0 ], "texture": "#texture", "rotation": 90 },
				"east": { "uv": [ 7.5, 15, 8, 16 ], "texture": "#texture", "rotation": 270 }
			}
		},
		{
			"__comment": "Cube18",
			"from": [ 7.5, 13.5, 0 ],
			"to": [ 8, 14, 7 ],
			"rotation": { "origin": [ 7.75, 12.75, 0 ], "axis": "z", "angle": -22.5 },
			"faces": {
				"down": { "uv": [ 1, 4.5, 0, 4 ], "texture": "#texture", "rotation": 90 },
				"up": { "uv": [ 15, 4, 16, 4.5 ], "texture": "#texture", "rotation": 270 },
				"north": { "uv": [ 8.5, 4.5, 8, 4 ], "texture": "#texture", "rotation": 270 },
				"south": { "uv": [ 8, 4.5, 7.5, 4 ], "texture": "#texture", "rotation": 90 },
				"west": { "uv": [ 8, 1, 7.5, 0 ], "texture": "#texture", "rotation": 90 },
				"east": { "uv": [ 7.5, 15, 8, 16 ], "texture": "#texture", "rotation": 270 }
			}
		},
		{
			"__comment": "Cube18",
			"from": [ 7.5, 13.5, 0 ],
			"to": [ 8, 14, 7 ],
			"faces": {
				"down": { "uv": [ 1, 4.5, 0, 4 ], "texture": "#texture", "rotation": 90 },
				"up": { "uv": [ 15, 4, 16, 4.5 ], "texture": "#texture", "rotation": 270 },
				"north": { "uv": [ 8.5, 4.5, 8, 4 ], "texture": "#texture", "rotation": 270 },
				"south": { "uv": [ 8, 4.5, 7.5, 4 ], "texture": "#texture", "rotation": 90 },
				"west": { "uv": [ 8, 1, 7.5, 0 ], "texture": "#texture", "rotation": 90 },
				"east": { "uv": [ 7.5, 15, 8, 16 ], "texture": "#texture", "rotation": 270 }
			}
		},
		{
			"__comment": "Cube18",
			"from": [ 7.5, 13.5, 0 ],
			"to": [ 8, 14, 7 ],
			"rotation": { "origin": [ 7.75, 12.75, 0 ], "axis": "z", "angle": 22.5 },
			"faces": {
				"down": { "uv": [ 1, 4.5, 0, 4 ], "texture": "#texture", "rotation": 90 },
				"up": { "uv": [ 15, 4, 16, 4.5 ], "texture": "#texture", "rotation": 270 },
				"north": { "uv": [ 8.5, 4.5, 8, 4 ], "texture": "#texture", "rotation": 270 },
				"south": { "uv": [ 8, 4.5, 7.5, 4 ], "texture": "#texture", "rotation": 90 },
				"west": { "uv": [ 8, 1, 7.5, 0 ], "texture": "#texture", "rotation": 90 },
				"east": { "uv": [ 7.5, 15, 8, 16 ], "texture": "#texture", "rotation": 270 }
			}
		},
		{
			"__comment": "Cube18",
			"from": [ 6.5, 12.5, 0 ],
			"to": [ 7, 13, 7 ],
			"rotation": { "origin": [ 7.75, 12.75, 0 ], "axis": "z", "angle": -45 },
			"faces": {
				"down": { "uv": [ 8, 1, 7.5, 0 ], "texture": "#texture" },
				"up": { "uv": [ 8, 16, 7.5, 15 ], "texture": "#texture" },
				"north": { "uv": [ 8.5, 4.5, 8, 4 ], "texture": "#texture" },
				"south": { "uv": [ 8, 4.5, 7.5, 4 ], "texture": "#texture" },
				"west": { "uv": [ 16, 4.5, 15, 4 ], "texture": "#texture" },
				"east": { "uv": [ 1, 4.5, 0, 4 ], "texture": "#texture" }
			}
		},
		{
			"__comment": "Cube18",
			"from": [ 8.5, 12.5, 0 ],
			"to": [ 9, 13, 7 ],
			"faces": {
				"down": { "uv": [ 8, 16, 7.5, 15 ], "texture": "#texture", "rotation": 180 },
				"up": { "uv": [ 8, 1, 7.5, 0 ], "texture": "#texture", "rotation": 180 },
				"north": { "uv": [ 8, 4, 8.5, 4.5 ], "texture": "#texture" },
				"south": { "uv": [ 7.5, 4, 8, 4.5 ], "texture": "#texture" },
				"west": { "uv": [ 1, 4.5, 0, 4 ], "texture": "#texture", "rotation": 180 },
				"east": { "uv": [ 16, 4.5, 15, 4 ], "texture": "#texture", "rotation": 180 }
			}
		},
		{
			"__comment": "Cube18",
			"from": [ 8.5, 12.5, 0 ],
			"to": [ 9, 13, 7 ],
			"rotation": { "origin": [ 7.75, 12.75, 0 ], "axis": "z", "angle": 22.5 },
			"faces": {
				"down": { "uv": [ 8, 16, 7.5, 15 ], "texture": "#texture", "rotation": 180 },
				"up": { "uv": [ 8, 1, 7.5, 0 ], "texture": "#texture", "rotation": 180 },
				"north": { "uv": [ 8, 4, 8.5, 4.5 ], "texture": "#texture" },
				"south": { "uv": [ 7.5, 4, 8, 4.5 ], "texture": "#texture" },
				"west": { "uv": [ 1, 4.5, 0, 4 ], "texture": "#texture", "rotation": 180 },
				"east": { "uv": [ 16, 4.5, 15, 4 ], "texture": "#texture", "rotation": 180 }
			}
		},
		{
			"__comment": "Cube18",
			"from": [ 7.5, 11.5, 0 ],
			"to": [ 8, 12, 2 ],
			"rotation": { "origin": [ 7.75, 12.75, 0 ], "axis": "z", "angle": -45 },
			"faces": {
				"down": { "uv": [ 15, 4, 16, 4.5 ], "texture": "#texture", "rotation": 90 },
				"up": { "uv": [ 1, 4.5, 0, 4 ], "texture": "#texture", "rotation": 270 },
				"north": { "uv": [ 8, 4, 8.5, 4.5 ], "texture": "#texture", "rotation": 270 },
				"south": { "uv": [ 7.5, 4, 8, 4.5 ], "texture": "#texture", "rotation": 90 },
				"west": { "uv": [ 7.5, 15, 8, 16 ], "texture": "#texture", "rotation": 90 },
				"east": { "uv": [ 8, 1, 7.5, 0 ], "texture": "#texture", "rotation": 270 }
			}
		},
		{
			"__comment": "Cube18",
			"from": [ 7.5, 11.5, 0 ],
			"to": [ 8, 12, 2 ],
			"rotation": { "origin": [ 7.75, 12.75, 0 ], "axis": "z", "angle": -22.5 },
			"faces": {
				"down": { "uv": [ 15, 4, 16, 4.5 ], "texture": "#texture", "rotation": 90 },
				"up": { "uv": [ 1, 4.5, 0, 4 ], "texture": "#texture", "rotation": 270 },
				"north": { "uv": [ 8, 4, 8.5, 4.5 ], "texture": "#texture", "rotation": 270 },
				"south": { "uv": [ 7.5, 4, 8, 4.5 ], "texture": "#texture", "rotation": 90 },
				"west": { "uv": [ 7.5, 15, 8, 16 ], "texture": "#texture", "rotation": 90 },
				"east": { "uv": [ 8, 1, 7.5, 0 ], "texture": "#texture", "rotation": 270 }
			}
		},
		{
			"__comment": "Cube21",
			"from": [ 6.5, 11.9, 2 ],
			"to": [ 9, 12.4, 6.9 ],
			"faces": {
				"down": { "uv": [ 7.5, 9, 8, 13 ], "texture": "#texture" },
				"up": { "uv": [ 7.5, 3, 8, 7 ], "texture": "#texture" },
				"north": { "uv": [ 8, 4.25, 8.5, 4.75 ], "texture": "#texture" },
				"south": { "uv": [ 7.5, 4.25, 8, 4.75 ], "texture": "#texture" },
				"west": { "uv": [ 3, 4.25, 7, 4.75 ], "texture": "#texture" },
				"east": { "uv": [ 9, 4.25, 13, 4.75 ], "texture": "#texture" }
			}
		},
		{
			"__comment": "Cube21",
			"from": [ 6.25, 12.45, 2 ],
			"to": [ 6.75, 13.05, 6.9 ],
			"rotation": { "origin": [ 7.75, 12.75, 3 ], "axis": "z", "angle": 22.5 },
			"faces": {
				"down": { "uv": [ 8, 13, 7.5, 9 ], "texture": "#texture", "rotation": 180 },
				"up": { "uv": [ 8, 7, 7.5, 3 ], "texture": "#texture", "rotation": 180 },
				"north": { "uv": [ 8.5, 4.75, 8, 4.25 ], "texture": "#texture", "rotation": 180 },
				"south": { "uv": [ 8, 4.75, 7.5, 4.25 ], "texture": "#texture", "rotation": 180 },
				"west": { "uv": [ 3, 4.25, 7, 4.75 ], "texture": "#texture" },
				"east": { "uv": [ 9, 4.25, 13, 4.75 ], "texture": "#texture" }
			}
		},
		{
			"__comment": "Cube21",
			"from": [ 6.25, 12.45, 2 ],
			"to": [ 6.75, 13.45, 6.9 ],
			"rotation": { "origin": [ 7.75, 12.75, 3 ], "axis": "z", "angle": -22.5 },
			"faces": {
				"down": { "uv": [ 8, 13, 7.5, 9 ], "texture": "#texture", "rotation": 180 },
				"up": { "uv": [ 8, 7, 7.5, 3 ], "texture": "#texture", "rotation": 180 },
				"north": { "uv": [ 8.5, 4.75, 8, 4.25 ], "texture": "#texture", "rotation": 180 },
				"south": { "uv": [ 8, 4.75, 7.5, 4.25 ], "texture": "#texture", "rotation": 180 },
				"west": { "uv": [ 3, 4.25, 7, 4.75 ], "texture": "#texture" },
				"east": { "uv": [ 9, 4.25, 13, 4.75 ], "texture": "#texture" }
			}
		},
		{
			"__comment": "Cube21",
			"from": [ 8.75, 12.45, 2 ],
			"to": [ 9.25, 13.05, 6.9 ],
			"faces": {
				"down": { "uv": [ 8, 13, 7.5, 9 ], "texture": "#texture", "rotation": 180 },
				"up": { "uv": [ 8, 7, 7.5, 3 ], "texture": "#texture", "rotation": 180 },
				"north": { "uv": [ 8.5, 4.75, 8, 4.25 ], "texture": "#texture", "rotation": 180 },
				"south": { "uv": [ 8, 4.75, 7.5, 4.25 ], "texture": "#texture", "rotation": 180 },
				"west": { "uv": [ 3, 4.25, 7, 4.75 ], "texture": "#texture" },
				"east": { "uv": [ 9, 4.25, 13, 4.75 ], "texture": "#texture" }
			}
		},
		{
			"__comment": "Cube21",
			"from": [ 6.25, 12.45, 2 ],
			"to": [ 6.75, 13.05, 6.9 ],
			"faces": {
				"down": { "uv": [ 8, 13, 7.5, 9 ], "texture": "#texture", "rotation": 180 },
				"up": { "uv": [ 8, 7, 7.5, 3 ], "texture": "#texture", "rotation": 180 },
				"north": { "uv": [ 8.5, 4.75, 8, 4.25 ], "texture": "#texture", "rotation": 180 },
				"south": { "uv": [ 8, 4.75, 7.5, 4.25 ], "texture": "#texture", "rotation": 180 },
				"west": { "uv": [ 3, 4.25, 7, 4.75 ], "texture": "#texture" },
				"east": { "uv": [ 9, 4.25, 13, 4.75 ], "texture": "#texture" }
			}
		},
		{
			"__comment": "Cube21",
			"from": [ 8.75, 12.45, 2 ],
			"to": [ 9.25, 13.45, 6.9 ],
			"rotation": { "origin": [ 7.75, 12.75, 3 ], "axis": "z", "angle": 22.5 },
			"faces": {
				"down": { "uv": [ 8, 13, 7.5, 9 ], "texture": "#texture", "rotation": 180 },
				"up": { "uv": [ 8, 7, 7.5, 3 ], "texture": "#texture", "rotation": 180 },
				"north": { "uv": [ 8.5, 4.75, 8, 4.25 ], "texture": "#texture", "rotation": 180 },
				"south": { "uv": [ 8, 4.75, 7.5, 4.25 ], "texture": "#texture", "rotation": 180 },
				"west": { "uv": [ 3, 4.25, 7, 4.75 ], "texture": "#texture" },
				"east": { "uv": [ 9, 4.25, 13, 4.75 ], "texture": "#texture" }
			}
		},
		{
			"__comment": "Cube21",
			"from": [ 8.75, 12.4501, 2 ],
			"to": [ 9.25, 13.0501, 6.9 ],
			"rotation": { "origin": [ 7.75, 12.75, 3 ], "axis": "z", "angle": -22.5 },
			"faces": {
				"down": { "uv": [ 8, 13, 7.5, 9 ], "texture": "#texture", "rotation": 180 },
				"up": { "uv": [ 8, 7, 7.5, 3 ], "texture": "#texture", "rotation": 180 },
				"north": { "uv": [ 8.5, 4.75, 8, 4.25 ], "texture": "#texture", "rotation": 180 },
				"south": { "uv": [ 8, 4.75, 7.5, 4.25 ], "texture": "#texture", "rotation": 180 },
				"west": { "uv": [ 3, 4.25, 7, 4.75 ], "texture": "#texture" },
				"east": { "uv": [ 9, 4.25, 13, 4.75 ], "texture": "#texture" }
			}
		},
		{
			"__comment": "Cube29",
			"from": [ 6.71, 12.05, 1.5 ],
			"to": [ 8.809999, 13.5, 7 ],
			"faces": {
				"down": { "uv": [ 6.71, 9, 8.809999, 14.5 ], "texture": "#texture" },
				"up": { "uv": [ 6.71, 1.5, 8.809999, 7 ], "texture": "#texture" },
				"north": { "uv": [ 7.19, 2.55, 9.29, 4 ], "texture": "#texture" },
				"south": { "uv": [ 6.71, 2.55, 8.809999, 4 ], "texture": "#texture" },
				"west": { "uv": [ 1.5, 2.55, 7, 4 ], "texture": "#texture" },
				"east": { "uv": [ 9, 2.55, 14.5, 4 ], "texture": "#texture" }
			}
		},
		{
			"__comment": "Cube29",
			"from": [ 7, 13.5, 1.5 ],
			"to": [ 8.5, 14, 7 ],
			"faces": {
				"down": { "uv": [ 7, 9, 8.5, 14.5 ], "texture": "#texture" },
				"up": { "uv": [ 7, 1.5, 8.5, 7 ], "texture": "#texture" },
				"north": { "uv": [ 7.5, 2, 9, 2.5 ], "texture": "#texture" },
				"south": { "uv": [ 7, 2, 8.5, 2.5 ], "texture": "#texture" },
				"west": { "uv": [ 1.5, 2, 7, 2.5 ], "texture": "#texture" },
				"east": { "uv": [ 9, 2, 14.5, 2.5 ], "texture": "#texture" }
			}
		},
		{
			"__comment": "Cube29",
			"from": [ 7, 11.75, 0.01 ],
			"to": [ 8.5, 13.75, 1.51 ],
			"faces": {
				"down": { "uv": [ 7, 9, 8.5, 14.5 ], "texture": "#texture1" },
				"up": { "uv": [ 7, 1.5, 8.5, 7 ], "texture": "#texture1" },
				"north": { "uv": [ 7.5, 2, 9, 4 ], "texture": "#texture1" },
				"south": { "uv": [ 7, 2, 8.5, 4 ], "texture": "#texture1" },
				"west": { "uv": [ 1.5, 2, 7, 4 ], "texture": "#texture1" },
				"east": { "uv": [ 9, 2, 14.5, 4 ], "texture": "#texture1" }
			}
		},
		{
			"__comment": "Cube21",
			"from": [ 6.64, 13.8, 2 ],
			"to": [ 7.09, 14.8, 6.9 ],
			"faces": {
				"down": { "uv": [ 8, 13, 7.5, 9 ], "texture": "#texture", "rotation": 180 },
				"up": { "uv": [ 8, 7, 7.5, 3 ], "texture": "#texture", "rotation": 180 },
				"north": { "uv": [ 8.5, 4.75, 8, 4.25 ], "texture": "#texture", "rotation": 180 },
				"south": { "uv": [ 8, 4.75, 7.5, 4.25 ], "texture": "#texture", "rotation": 180 },
				"west": { "uv": [ 3, 4.25, 7, 4.75 ], "texture": "#texture" },
				"east": { "uv": [ 9, 4.25, 13, 4.75 ], "texture": "#texture" }
			}
		},
		{
			"__comment": "Cube21",
			"from": [ 8.42, 13.8, 2 ],
			"to": [ 8.87, 14.8, 6.9 ],
			"faces": {
				"down": { "uv": [ 8, 13, 7.5, 9 ], "texture": "#texture", "rotation": 180 },
				"up": { "uv": [ 8, 7, 7.5, 3 ], "texture": "#texture", "rotation": 180 },
				"north": { "uv": [ 8.5, 4.75, 8, 4.25 ], "texture": "#texture", "rotation": 180 },
				"south": { "uv": [ 8, 4.75, 7.5, 4.25 ], "texture": "#texture", "rotation": 180 },
				"west": { "uv": [ 3, 4.25, 7, 4.75 ], "texture": "#texture" },
				"east": { "uv": [ 9, 4.25, 13, 4.75 ], "texture": "#texture" }
			}
		},
		{
			"__comment": "Cube33",
			"from": [ 6.75, 14.55, 2 ],
			"to": [ 7.25, 14.8, 7 ],
			"faces": {
				"down": { "uv": [ 7.5, 9, 8, 14 ], "texture": "#texture" },
				"up": { "uv": [ 7.5, 2, 8, 7 ], "texture": "#texture" },
				"north": { "uv": [ 8, 1.75, 8.5, 2 ], "texture": "#texture" },
				"south": { "uv": [ 7.5, 1.75, 8, 2 ], "texture": "#texture" },
				"west": { "uv": [ 2, 1.75, 7, 2 ], "texture": "#texture" },
				"east": { "uv": [ 9, 1.75, 14, 2 ], "texture": "#texture" }
			}
		},
		{
			"__comment": "Cube33",
			"from": [ 8.25, 14.55, 2 ],
			"to": [ 8.75, 14.8, 7 ],
			"faces": {
				"down": { "uv": [ 7.5, 9, 8, 14 ], "texture": "#texture" },
				"up": { "uv": [ 7.5, 2, 8, 7 ], "texture": "#texture" },
				"north": { "uv": [ 8, 1.75, 8.5, 2 ], "texture": "#texture" },
				"south": { "uv": [ 7.5, 1.75, 8, 2 ], "texture": "#texture" },
				"west": { "uv": [ 2, 1.75, 7, 2 ], "texture": "#texture" },
				"east": { "uv": [ 9, 1.75, 14, 2 ], "texture": "#texture" }
			}
		}
	],
	"display": {
		"thirdperson_righthand": {
			"rotation":  [ 90, 0, 0 ],
			"translation":  [ 0, -0.695, 0 ],
			"scale":  [ 0.25, 0.25, 0.25 ]
		},
		"thirdperson_lefthand": {
			"rotation":  [ 90, 0, 0 ],
			"translation":  [ 0, -0.695, 0 ],
			"scale":  [ 0.25, 0.25, 0.25 ]
		},
		"firstperson_righthand": {
			"rotation":  [ 0, -16, 0 ],
			"translation":  [ 2.7826, -2.782, 2.7826 ]
		},
		"firstperson_lefthand": {
			"rotation":  [ 0, -16, 0 ],
			"translation":  [ 2.7826, -2.782, 2.7826 ]
		},
		"gui": {
			"rotation":  [ 90, 50, -90 ],
			"translation":  [ 0, -12.52, 0 ],
			"scale":  [ 1.8, 1.8, 1.8 ]
		},
		"ground": {
			"rotation":  [ 0, 0, 90 ],
			"translation":  [ 2.7826, -1.391, 2.0869 ],
			"scale":  [ 0.4, 0.4, 0.4 ]
		},
		"fixed": {
			"rotation":  [ 90, -45, 90 ],
			"translation":  [ 0, -9.028, 0 ],
			"scale":  [ 1.2, 1.2, 1.2 ]
		}
	}
}