{
	"__comment": "Designed by Neo2057 with Cubik Studio - https://cubik.studio",
	"textures": {
		"particle": "items/4",
		"texture": "items/4"
	},
	"elements": [
		{
			"__comment": "Box1",
			"from": [ 7.5, 1.5, 5.5 ],
			"to": [ 8.5, 2.5, 10.5 ],
			"rotation": { "origin": [ 8, 1.5, 8 ], "axis": "y", "angle": 45 },
			"faces": {
				"down": { "uv": [ 7.5, 5.444445, 8.5, 10.44444 ], "texture": "#texture" },
				"up": { "uv": [ 7.5, 5.555555, 8.5, 10.55556 ], "texture": "#texture" },
				"north": { "uv": [ 7.5, 13.5, 8.5, 14.5 ], "texture": "#texture" },
				"south": { "uv": [ 7.5, 13.5, 8.5, 14.5 ], "texture": "#texture" },
				"west": { "uv": [ 5.555555, 13.5, 10.55556, 14.5 ], "texture": "#texture" },
				"east": { "uv": [ 5.444445, 13.5, 10.44444, 14.5 ], "texture": "#texture" }
			}
		},
		{
			"__comment": "Box1",
			"from": [ 7.5, 1.5, 5.5 ],
			"to": [ 8.5, 2.5, 10.5 ],
			"rotation": { "origin": [ 8, 1.5, 8 ], "axis": "y", "angle": 22.5 },
			"faces": {
				"down": { "uv": [ 7.5, 5.444445, 8.5, 10.44444 ], "texture": "#texture", "rotation": 270 },
				"up": { "uv": [ 7.5, 5.555555, 8.5, 10.55556 ], "texture": "#texture", "rotation": 90 },
				"north": { "uv": [ 5.555555, 13.5, 10.55556, 14.5 ], "texture": "#texture" },
				"south": { "uv": [ 5.444445, 13.5, 10.44444, 14.5 ], "texture": "#texture" },
				"west": { "uv": [ 7.5, 13.5, 8.5, 14.5 ], "texture": "#texture" },
				"east": { "uv": [ 7.5, 13.5, 8.5, 14.5 ], "texture": "#texture" }
			}
		},
		{
			"__comment": "Box1",
			"from": [ 5.5, 1.5, 7.5 ],
			"to": [ 10.5, 2.5, 8.5 ],
			"faces": {
				"down": { "uv": [ 7.5, 5.444445, 8.5, 10.44444 ], "texture": "#texture", "rotation": 270 },
				"up": { "uv": [ 7.5, 5.555555, 8.5, 10.55556 ], "texture": "#texture", "rotation": 90 },
				"north": { "uv": [ 5.555555, 13.5, 10.55556, 14.5 ], "texture": "#texture" },
				"south": { "uv": [ 5.444445, 13.5, 10.44444, 14.5 ], "texture": "#texture" },
				"west": { "uv": [ 7.5, 13.5, 8.5, 14.5 ], "texture": "#texture" },
				"east": { "uv": [ 7.5, 13.5, 8.5, 14.5 ], "texture": "#texture" }
			}
		},
		{
			"__comment": "Box1",
			"from": [ 5.5, 1.5, 7.5 ],
			"to": [ 10.5, 2.5, 8.5 ],
			"rotation": { "origin": [ 8, 1.5, 8 ], "axis": "y", "angle": 22.5 },
			"faces": {
				"down": { "uv": [ 7.5, 5.444445, 8.5, 10.44444 ], "texture": "#texture", "rotation": 270 },
				"up": { "uv": [ 7.5, 5.555555, 8.5, 10.55556 ], "texture": "#texture", "rotation": 90 },
				"north": { "uv": [ 5.555555, 13.5, 10.55556, 14.5 ], "texture": "#texture" },
				"south": { "uv": [ 5.444445, 13.5, 10.44444, 14.5 ], "texture": "#texture" },
				"west": { "uv": [ 7.5, 13.5, 8.5, 14.5 ], "texture": "#texture" },
				"east": { "uv": [ 7.5, 13.5, 8.5, 14.5 ], "texture": "#texture" }
			}
		},
		{
			"__comment": "Box1",
			"from": [ 7.5, 1.5, 5.5 ],
			"to": [ 8.5, 2.5, 10.5 ],
			"rotation": { "origin": [ 8, 1.5, 8 ], "axis": "y", "angle": -45 },
			"faces": {
				"down": { "uv": [ 7.5, 5.444445, 8.5, 10.44444 ], "texture": "#texture", "rotation": 270 },
				"up": { "uv": [ 7.5, 5.555555, 8.5, 10.55556 ], "texture": "#texture", "rotation": 90 },
				"north": { "uv": [ 5.555555, 13.5, 10.55556, 14.5 ], "texture": "#texture" },
				"south": { "uv": [ 5.444445, 13.5, 10.44444, 14.5 ], "texture": "#texture" },
				"west": { "uv": [ 7.5, 13.5, 8.5, 14.5 ], "texture": "#texture" },
				"east": { "uv": [ 7.5, 13.5, 8.5, 14.5 ], "texture": "#texture" }
			}
		},
		{
			"__comment": "Box1",
			"from": [ 7.5, 1.5, 5.5 ],
			"to": [ 8.5, 2.5, 10.5 ],
			"rotation": { "origin": [ 8, 1.5, 8 ], "axis": "y", "angle": -22.5 },
			"faces": {
				"down": { "uv": [ 7.5, 5.444445, 8.5, 10.44444 ], "texture": "#texture", "rotation": 270 },
				"up": { "uv": [ 7.5, 5.555555, 8.5, 10.55556 ], "texture": "#texture", "rotation": 90 },
				"north": { "uv": [ 5.555555, 13.5, 10.55556, 14.5 ], "texture": "#texture" },
				"south": { "uv": [ 5.444445, 13.5, 10.44444, 14.5 ], "texture": "#texture" },
				"west": { "uv": [ 7.5, 13.5, 8.5, 14.5 ], "texture": "#texture" },
				"east": { "uv": [ 7.5, 13.5, 8.5, 14.5 ], "texture": "#texture" }
			}
		},
		{
			"__comment": "Box1",
			"from": [ 7.5, 1.5, 5.5 ],
			"to": [ 8.5, 2.5, 10.5 ],
			"faces": {
				"down": { "uv": [ 7.5, 5.444445, 8.5, 10.44444 ], "texture": "#texture", "rotation": 270 },
				"up": { "uv": [ 7.5, 5.555555, 8.5, 10.55556 ], "texture": "#texture", "rotation": 90 },
				"north": { "uv": [ 5.555555, 13.5, 10.55556, 14.5 ], "texture": "#texture" },
				"south": { "uv": [ 5.444445, 13.5, 10.44444, 14.5 ], "texture": "#texture" },
				"west": { "uv": [ 7.5, 13.5, 8.5, 14.5 ], "texture": "#texture" },
				"east": { "uv": [ 7.5, 13.5, 8.5, 14.5 ], "texture": "#texture" }
			}
		},
		{
			"__comment": "Box1",
			"from": [ 5.5, 1.5, 7.5 ],
			"to": [ 10.5, 2.5, 8.5 ],
			"rotation": { "origin": [ 8, 1.5, 8 ], "axis": "y", "angle": -22.5 },
			"faces": {
				"down": { "uv": [ 7.5, 5.444445, 8.5, 10.44444 ], "texture": "#texture", "rotation": 270 },
				"up": { "uv": [ 7.5, 5.555555, 8.5, 10.55556 ], "texture": "#texture", "rotation": 90 },
				"north": { "uv": [ 5.555555, 13.5, 10.55556, 14.5 ], "texture": "#texture" },
				"south": { "uv": [ 5.444445, 13.5, 10.44444, 14.5 ], "texture": "#texture" },
				"west": { "uv": [ 7.5, 13.5, 8.5, 14.5 ], "texture": "#texture" },
				"east": { "uv": [ 7.5, 13.5, 8.5, 14.5 ], "texture": "#texture" }
			}
		},
		{
			"__comment": "Box10",
			"from": [ 7.4, 1.8, 5 ],
			"to": [ 8.599999, 2.8, 11 ],
			"faces": {
				"down": { "uv": [ 7.4, 5, 8.6, 11 ], "texture": "#texture" },
				"up": { "uv": [ 7.4, 5, 8.6, 11 ], "texture": "#texture" },
				"north": { "uv": [ 7.4, 13, 8.6, 14 ], "texture": "#texture" },
				"south": { "uv": [ 7.4, 13, 8.6, 14 ], "texture": "#texture" },
				"west": { "uv": [ 5, 13, 11, 14 ], "texture": "#texture" },
				"east": { "uv": [ 5, 13, 11, 14 ], "texture": "#texture" }
			}
		},
		{
			"__comment": "Box10",
			"from": [ 7.4, 1.8, 5 ],
			"to": [ 8.599999, 2.8, 11 ],
			"rotation": { "origin": [ 8, 1.8, 8 ], "axis": "y", "angle": -22.5 },
			"faces": {
				"down": { "uv": [ 7.4, 5, 8.6, 11 ], "texture": "#texture", "rotation": 90 },
				"up": { "uv": [ 7.4, 5, 8.6, 11 ], "texture": "#texture", "rotation": 270 },
				"north": { "uv": [ 5, 13, 11, 14 ], "texture": "#texture" },
				"south": { "uv": [ 5, 13, 11, 14 ], "texture": "#texture" },
				"west": { "uv": [ 7.4, 13, 8.6, 14 ], "texture": "#texture" },
				"east": { "uv": [ 7.4, 13, 8.6, 14 ], "texture": "#texture" }
			}
		},
		{
			"__comment": "Box10",
			"from": [ 5, 1.8, 7.4 ],
			"to": [ 11, 2.8, 8.599999 ],
			"rotation": { "origin": [ 8, 1.8, 8 ], "axis": "y", "angle": -22.5 },
			"faces": {
				"down": { "uv": [ 7.4, 5, 8.6, 11 ], "texture": "#texture", "rotation": 90 },
				"up": { "uv": [ 7.4, 5, 8.6, 11 ], "texture": "#texture", "rotation": 270 },
				"north": { "uv": [ 5, 13, 11, 14 ], "texture": "#texture" },
				"south": { "uv": [ 5, 13, 11, 14 ], "texture": "#texture" },
				"west": { "uv": [ 7.4, 13, 8.6, 14 ], "texture": "#texture" },
				"east": { "uv": [ 7.4, 13, 8.6, 14 ], "texture": "#texture" }
			}
		},
		{
			"__comment": "Box10",
			"from": [ 5, 1.8, 7.4 ],
			"to": [ 11, 2.8, 8.599999 ],
			"faces": {
				"down": { "uv": [ 7.4, 5, 8.6, 11 ], "texture": "#texture", "rotation": 90 },
				"up": { "uv": [ 7.4, 5, 8.6, 11 ], "texture": "#texture", "rotation": 270 },
				"north": { "uv": [ 5, 13, 11, 14 ], "texture": "#texture" },
				"south": { "uv": [ 5, 13, 11, 14 ], "texture": "#texture" },
				"west": { "uv": [ 7.4, 13, 8.6, 14 ], "texture": "#texture" },
				"east": { "uv": [ 7.4, 13, 8.6, 14 ], "texture": "#texture" }
			}
		},
		{
			"__comment": "Box10",
			"from": [ 7.4, 1.8, 5 ],
			"to": [ 8.599999, 2.8, 11 ],
			"rotation": { "origin": [ 8, 1.8, 8 ], "axis": "y", "angle": 45 },
			"faces": {
				"down": { "uv": [ 7.4, 5, 8.6, 11 ], "texture": "#texture", "rotation": 90 },
				"up": { "uv": [ 7.4, 5, 8.6, 11 ], "texture": "#texture", "rotation": 270 },
				"north": { "uv": [ 5, 13, 11, 14 ], "texture": "#texture" },
				"south": { "uv": [ 5, 13, 11, 14 ], "texture": "#texture" },
				"west": { "uv": [ 7.4, 13, 8.6, 14 ], "texture": "#texture" },
				"east": { "uv": [ 7.4, 13, 8.6, 14 ], "texture": "#texture" }
			}
		},
		{
			"__comment": "Box10",
			"from": [ 7.4, 1.8, 5 ],
			"to": [ 8.599999, 2.8, 11 ],
			"rotation": { "origin": [ 8, 1.8, 8 ], "axis": "y", "angle": 22.5 },
			"faces": {
				"down": { "uv": [ 7.4, 5, 8.6, 11 ], "texture": "#texture", "rotation": 90 },
				"up": { "uv": [ 7.4, 5, 8.6, 11 ], "texture": "#texture", "rotation": 270 },
				"north": { "uv": [ 5, 13, 11, 14 ], "texture": "#texture" },
				"south": { "uv": [ 5, 13, 11, 14 ], "texture": "#texture" },
				"west": { "uv": [ 7.4, 13, 8.6, 14 ], "texture": "#texture" },
				"east": { "uv": [ 7.4, 13, 8.6, 14 ], "texture": "#texture" }
			}
		},
		{
			"__comment": "Box10",
			"from": [ 5, 1.8, 7.4 ],
			"to": [ 11, 2.8, 8.599999 ],
			"rotation": { "origin": [ 8, 1.8, 8 ], "axis": "y", "angle": 22.5 },
			"faces": {
				"down": { "uv": [ 7.4, 5, 8.6, 11 ], "texture": "#texture", "rotation": 90 },
				"up": { "uv": [ 7.4, 5, 8.6, 11 ], "texture": "#texture", "rotation": 270 },
				"north": { "uv": [ 5, 13, 11, 14 ], "texture": "#texture" },
				"south": { "uv": [ 5, 13, 11, 14 ], "texture": "#texture" },
				"west": { "uv": [ 7.4, 13, 8.6, 14 ], "texture": "#texture" },
				"east": { "uv": [ 7.4, 13, 8.6, 14 ], "texture": "#texture" }
			}
		},
		{
			"__comment": "Box10",
			"from": [ 7.4, 1.8, 5 ],
			"to": [ 8.599999, 2.8, 11 ],
			"rotation": { "origin": [ 8, 1.8, 8 ], "axis": "y", "angle": -45 },
			"faces": {
				"down": { "uv": [ 7.4, 5, 8.6, 11 ], "texture": "#texture", "rotation": 90 },
				"up": { "uv": [ 7.4, 5, 8.6, 11 ], "texture": "#texture", "rotation": 270 },
				"north": { "uv": [ 5, 13, 11, 14 ], "texture": "#texture" },
				"south": { "uv": [ 5, 13, 11, 14 ], "texture": "#texture" },
				"west": { "uv": [ 7.4, 13, 8.6, 14 ], "texture": "#texture" },
				"east": { "uv": [ 7.4, 13, 8.6, 14 ], "texture": "#texture" }
			}
		},
		{
			"__comment": "Box24",
			"from": [ 7.2, 2.1, 4 ],
			"to": [ 8.8, 3.1, 12 ],
			"faces": {
				"down": { "uv": [ 7.2, 4, 8.8, 12 ], "texture": "#texture" },
				"up": { "uv": [ 7.2, 4, 8.8, 12 ], "texture": "#texture" },
				"north": { "uv": [ 7.2, 12.5, 8.8, 13.5 ], "texture": "#texture" },
				"south": { "uv": [ 7.2, 12.5, 8.8, 13.5 ], "texture": "#texture" },
				"west": { "uv": [ 4, 12.5, 12, 13.5 ], "texture": "#texture" },
				"east": { "uv": [ 4, 12.5, 12, 13.5 ], "texture": "#texture" }
			}
		},
		{
			"__comment": "Box24",
			"from": [ 7.2, 2.1, 4 ],
			"to": [ 8.8, 3.1, 12 ],
			"rotation": { "origin": [ 8, 2.1, 8 ], "axis": "y", "angle": -22.5 },
			"faces": {
				"down": { "uv": [ 7.2, 4, 8.8, 12 ], "texture": "#texture" },
				"up": { "uv": [ 7.2, 4, 8.8, 12 ], "texture": "#texture" },
				"north": { "uv": [ 7.2, 12.5, 8.8, 13.5 ], "texture": "#texture" },
				"south": { "uv": [ 7.2, 12.5, 8.8, 13.5 ], "texture": "#texture" },
				"west": { "uv": [ 4, 12.5, 12, 13.5 ], "texture": "#texture" },
				"east": { "uv": [ 4, 12.5, 12, 13.5 ], "texture": "#texture" }
			}
		},
		{
			"__comment": "Box24",
			"from": [ 7.2, 2.1, 4 ],
			"to": [ 8.8, 3.1, 12 ],
			"rotation": { "origin": [ 8, 2.1, 8 ], "axis": "y", "angle": 22.5 },
			"faces": {
				"down": { "uv": [ 7.2, 4, 8.8, 12 ], "texture": "#texture" },
				"up": { "uv": [ 7.2, 4, 8.8, 12 ], "texture": "#texture" },
				"north": { "uv": [ 7.2, 12.5, 8.8, 13.5 ], "texture": "#texture" },
				"south": { "uv": [ 7.2, 12.5, 8.8, 13.5 ], "texture": "#texture" },
				"west": { "uv": [ 4, 12.5, 12, 13.5 ], "texture": "#texture" },
				"east": { "uv": [ 4, 12.5, 12, 13.5 ], "texture": "#texture" }
			}
		},
		{
			"__comment": "Box24",
			"from": [ 7.2, 2.1, 4 ],
			"to": [ 8.8, 3.1, 12 ],
			"rotation": { "origin": [ 8, 2.1, 8 ], "axis": "y", "angle": 45 },
			"faces": {
				"down": { "uv": [ 7.2, 4, 8.8, 12 ], "texture": "#texture" },
				"up": { "uv": [ 7.2, 4, 8.8, 12 ], "texture": "#texture" },
				"north": { "uv": [ 7.2, 12.5, 8.8, 13.5 ], "texture": "#texture" },
				"south": { "uv": [ 7.2, 12.5, 8.8, 13.5 ], "texture": "#texture" },
				"west": { "uv": [ 4, 12.5, 12, 13.5 ], "texture": "#texture" },
				"east": { "uv": [ 4, 12.5, 12, 13.5 ], "texture": "#texture" }
			}
		},
		{
			"__comment": "Box24",
			"from": [ 4, 2.1, 7.2 ],
			"to": [ 12, 3.1, 8.8 ],
			"rotation": { "origin": [ 8, 2.1, 8 ], "axis": "y", "angle": -22.5 },
			"faces": {
				"down": { "uv": [ 7.2, 4, 8.8, 12 ], "texture": "#texture" },
				"up": { "uv": [ 7.2, 4, 8.8, 12 ], "texture": "#texture" },
				"north": { "uv": [ 7.2, 12.5, 8.8, 13.5 ], "texture": "#texture" },
				"south": { "uv": [ 7.2, 12.5, 8.8, 13.5 ], "texture": "#texture" },
				"west": { "uv": [ 4, 12.5, 12, 13.5 ], "texture": "#texture" },
				"east": { "uv": [ 4, 12.5, 12, 13.5 ], "texture": "#texture" }
			}
		},
		{
			"__comment": "Box24",
			"from": [ 4, 2.1, 7.2 ],
			"to": [ 12, 3.1, 8.8 ],
			"faces": {
				"down": { "uv": [ 7.2, 4, 8.8, 12 ], "texture": "#texture" },
				"up": { "uv": [ 7.2, 4, 8.8, 12 ], "texture": "#texture" },
				"north": { "uv": [ 7.2, 12.5, 8.8, 13.5 ], "texture": "#texture" },
				"south": { "uv": [ 7.2, 12.5, 8.8, 13.5 ], "texture": "#texture" },
				"west": { "uv": [ 4, 12.5, 12, 13.5 ], "texture": "#texture" },
				"east": { "uv": [ 4, 12.5, 12, 13.5 ], "texture": "#texture" }
			}
		},
		{
			"__comment": "Box24",
			"from": [ 4, 2.1, 7.2 ],
			"to": [ 12, 3.1, 8.8 ],
			"rotation": { "origin": [ 8, 2.1, 8 ], "axis": "y", "angle": 22.5 },
			"faces": {
				"down": { "uv": [ 7.2, 4, 8.8, 12 ], "texture": "#texture" },
				"up": { "uv": [ 7.2, 4, 8.8, 12 ], "texture": "#texture" },
				"north": { "uv": [ 7.2, 12.5, 8.8, 13.5 ], "texture": "#texture" },
				"south": { "uv": [ 7.2, 12.5, 8.8, 13.5 ], "texture": "#texture" },
				"west": { "uv": [ 4, 12.5, 12, 13.5 ], "texture": "#texture" },
				"east": { "uv": [ 4, 12.5, 12, 13.5 ], "texture": "#texture" }
			}
		},
		{
			"__comment": "Box24",
			"from": [ 4, 2.1, 7.2 ],
			"to": [ 12, 3.1, 8.8 ],
			"rotation": { "origin": [ 8, 2.1, 8 ], "axis": "y", "angle": 45 },
			"faces": {
				"down": { "uv": [ 7.2, 4, 8.8, 12 ], "texture": "#texture" },
				"up": { "uv": [ 7.2, 4, 8.8, 12 ], "texture": "#texture" },
				"north": { "uv": [ 7.2, 12.5, 8.8, 13.5 ], "texture": "#texture" },
				"south": { "uv": [ 7.2, 12.5, 8.8, 13.5 ], "texture": "#texture" },
				"west": { "uv": [ 4, 12.5, 12, 13.5 ], "texture": "#texture" },
				"east": { "uv": [ 4, 12.5, 12, 13.5 ], "texture": "#texture" }
			}
		},
		{
			"__comment": "Box36",
			"from": [ 7.005, 3, 3 ],
			"to": [ 8.995, 4.3, 13 ],
			"faces": {
				"down": { "uv": [ 7.005, 3, 8.995, 13 ], "texture": "#texture" },
				"up": { "uv": [ 7.005, 3, 8.995, 13 ], "texture": "#texture" },
				"north": { "uv": [ 7.005, 11.7, 8.995, 13 ], "texture": "#texture" },
				"south": { "uv": [ 7.005, 11.7, 8.995, 13 ], "texture": "#texture" },
				"west": { "uv": [ 3, 11.7, 13, 13 ], "texture": "#texture" },
				"east": { "uv": [ 3, 11.7, 13, 13 ], "texture": "#texture" }
			}
		},
		{
			"__comment": "Box36",
			"from": [ 7.005, 3, 3 ],
			"to": [ 8.995, 4.3, 13 ],
			"rotation": { "origin": [ 8, 3, 8 ], "axis": "y", "angle": 22.5 },
			"faces": {
				"down": { "uv": [ 7.005, 3, 8.995, 13 ], "texture": "#texture", "rotation": 270 },
				"up": { "uv": [ 7.005, 3, 8.995, 13 ], "texture": "#texture", "rotation": 90 },
				"north": { "uv": [ 3, 12, 13, 13 ], "texture": "#texture" },
				"south": { "uv": [ 3, 12, 13, 13 ], "texture": "#texture" },
				"west": { "uv": [ 7.005, 12, 8.995, 13 ], "texture": "#texture" },
				"east": { "uv": [ 7.005, 12, 8.995, 13 ], "texture": "#texture" }
			}
		},
		{
			"__comment": "Box36",
			"from": [ 7.005, 3, 3 ],
			"to": [ 8.995, 4.3, 13 ],
			"rotation": { "origin": [ 8, 3, 8 ], "axis": "y", "angle": 45 },
			"faces": {
				"down": { "uv": [ 7.005, 3, 8.995, 13 ], "texture": "#texture", "rotation": 270 },
				"up": { "uv": [ 7.005, 3, 8.995, 13 ], "texture": "#texture", "rotation": 90 },
				"north": { "uv": [ 3, 12, 13, 13 ], "texture": "#texture" },
				"south": { "uv": [ 3, 12, 13, 13 ], "texture": "#texture" },
				"west": { "uv": [ 7.005, 12, 8.995, 13 ], "texture": "#texture" },
				"east": { "uv": [ 7.005, 12, 8.995, 13 ], "texture": "#texture" }
			}
		},
		{
			"__comment": "Box36",
			"from": [ 3, 3, 7.005 ],
			"to": [ 13, 4.3, 8.995 ],
			"rotation": { "origin": [ 8, 3, 8 ], "axis": "y", "angle": -22.5 },
			"faces": {
				"down": { "uv": [ 7.005, 3, 8.995, 13 ], "texture": "#texture", "rotation": 270 },
				"up": { "uv": [ 7.005, 3, 8.995, 13 ], "texture": "#texture", "rotation": 90 },
				"north": { "uv": [ 3, 12, 13, 13 ], "texture": "#texture" },
				"south": { "uv": [ 3, 12, 13, 13 ], "texture": "#texture" },
				"west": { "uv": [ 7.005, 12, 8.995, 13 ], "texture": "#texture" },
				"east": { "uv": [ 7.005, 12, 8.995, 13 ], "texture": "#texture" }
			}
		},
		{
			"__comment": "Box36",
			"from": [ 3, 3, 7.005 ],
			"to": [ 13, 4.3, 8.995 ],
			"faces": {
				"down": { "uv": [ 7.005, 3, 8.995, 13 ], "texture": "#texture", "rotation": 270 },
				"up": { "uv": [ 7.005, 3, 8.995, 13 ], "texture": "#texture", "rotation": 90 },
				"north": { "uv": [ 3, 12, 13, 13 ], "texture": "#texture" },
				"south": { "uv": [ 3, 12, 13, 13 ], "texture": "#texture" },
				"west": { "uv": [ 7.005, 12, 8.995, 13 ], "texture": "#texture" },
				"east": { "uv": [ 7.005, 12, 8.995, 13 ], "texture": "#texture" }
			}
		},
		{
			"__comment": "Box36",
			"from": [ 3, 3, 7.005 ],
			"to": [ 13, 4.3, 8.995 ],
			"rotation": { "origin": [ 8, 3, 8 ], "axis": "y", "angle": 22.5 },
			"faces": {
				"down": { "uv": [ 7.005, 3, 8.995, 13 ], "texture": "#texture", "rotation": 270 },
				"up": { "uv": [ 7.005, 3, 8.995, 13 ], "texture": "#texture", "rotation": 90 },
				"north": { "uv": [ 3, 12, 13, 13 ], "texture": "#texture" },
				"south": { "uv": [ 3, 12, 13, 13 ], "texture": "#texture" },
				"west": { "uv": [ 7.005, 12, 8.995, 13 ], "texture": "#texture" },
				"east": { "uv": [ 7.005, 12, 8.995, 13 ], "texture": "#texture" }
			}
		},
		{
			"__comment": "Box36",
			"from": [ 7.005, 3, 3 ],
			"to": [ 8.995, 4.3, 13 ],
			"rotation": { "origin": [ 8, 3, 8 ], "axis": "y", "angle": -45 },
			"faces": {
				"down": { "uv": [ 7.005, 3, 8.995, 13 ], "texture": "#texture", "rotation": 270 },
				"up": { "uv": [ 7.005, 3, 8.995, 13 ], "texture": "#texture", "rotation": 90 },
				"north": { "uv": [ 3, 12, 13, 13 ], "texture": "#texture" },
				"south": { "uv": [ 3, 12, 13, 13 ], "texture": "#texture" },
				"west": { "uv": [ 7.005, 12, 8.995, 13 ], "texture": "#texture" },
				"east": { "uv": [ 7.005, 12, 8.995, 13 ], "texture": "#texture" }
			}
		},
		{
			"__comment": "Box36",
			"from": [ 7.005, 3, 3 ],
			"to": [ 8.995, 4.3, 13 ],
			"rotation": { "origin": [ 8, 3, 8 ], "axis": "y", "angle": -22.5 },
			"faces": {
				"down": { "uv": [ 7.005, 3, 8.995, 13 ], "texture": "#texture", "rotation": 270 },
				"up": { "uv": [ 7.005, 3, 8.995, 13 ], "texture": "#texture", "rotation": 90 },
				"north": { "uv": [ 3, 12, 13, 13 ], "texture": "#texture" },
				"south": { "uv": [ 3, 12, 13, 13 ], "texture": "#texture" },
				"west": { "uv": [ 7.005, 12, 8.995, 13 ], "texture": "#texture" },
				"east": { "uv": [ 7.005, 12, 8.995, 13 ], "texture": "#texture" }
			}
		},
		{
			"__comment": "Box48",
			"from": [ 6.75, 4, 1.75 ],
			"to": [ 9.25, 6.2, 14.25 ],
			"faces": {
				"down": { "uv": [ 7, 2, 9, 14.5 ], "texture": "#texture" },
				"up": { "uv": [ 7, 1.5, 9, 14 ], "texture": "#texture" },
				"north": { "uv": [ 7, 10, 9, 12 ], "texture": "#texture" },
				"south": { "uv": [ 7, 10, 9, 12 ], "texture": "#texture" },
				"west": { "uv": [ 1.5, 10, 14, 12 ], "texture": "#texture" },
				"east": { "uv": [ 2, 10, 14.5, 12 ], "texture": "#texture" }
			}
		},
		{
			"__comment": "Box48",
			"from": [ 6.75, 4, 1.75 ],
			"to": [ 9.25, 6.2, 14.25 ],
			"rotation": { "origin": [ 8, 4, 8 ], "axis": "y", "angle": -22.5 },
			"faces": {
				"down": { "uv": [ 7, 2, 9, 14.5 ], "texture": "#texture", "rotation": 90 },
				"up": { "uv": [ 7, 1.5, 9, 14 ], "texture": "#texture", "rotation": 270 },
				"north": { "uv": [ 2, 10, 14.5, 12 ], "texture": "#texture" },
				"south": { "uv": [ 1.5, 10, 14, 12 ], "texture": "#texture" },
				"west": { "uv": [ 7, 10, 9, 12 ], "texture": "#texture" },
				"east": { "uv": [ 7, 10, 9, 12 ], "texture": "#texture" }
			}
		},
		{
			"__comment": "Box48",
			"from": [ 6.75, 4, 1.75 ],
			"to": [ 9.25, 6.2, 14.25 ],
			"rotation": { "origin": [ 8, 4, 8 ], "axis": "y", "angle": 22.5 },
			"faces": {
				"down": { "uv": [ 7, 2, 9, 14.5 ], "texture": "#texture", "rotation": 90 },
				"up": { "uv": [ 7, 1.5, 9, 14 ], "texture": "#texture", "rotation": 270 },
				"north": { "uv": [ 2, 10, 14.5, 12 ], "texture": "#texture" },
				"south": { "uv": [ 1.5, 10, 14, 12 ], "texture": "#texture" },
				"west": { "uv": [ 7, 10, 9, 12 ], "texture": "#texture" },
				"east": { "uv": [ 7, 10, 9, 12 ], "texture": "#texture" }
			}
		},
		{
			"__comment": "Box48",
			"from": [ 6.75, 4, 1.75 ],
			"to": [ 9.25, 6.2, 14.25 ],
			"rotation": { "origin": [ 8, 4, 8 ], "axis": "y", "angle": -45 },
			"faces": {
				"down": { "uv": [ 7, 2, 9, 14.5 ], "texture": "#texture", "rotation": 90 },
				"up": { "uv": [ 7, 1.5, 9, 14 ], "texture": "#texture", "rotation": 270 },
				"north": { "uv": [ 2, 10, 14.5, 12 ], "texture": "#texture" },
				"south": { "uv": [ 1.5, 10, 14, 12 ], "texture": "#texture" },
				"west": { "uv": [ 7, 10, 9, 12 ], "texture": "#texture" },
				"east": { "uv": [ 7, 10, 9, 12 ], "texture": "#texture" }
			}
		},
		{
			"__comment": "Box48",
			"from": [ 1.75, 4, 6.75 ],
			"to": [ 14.25, 6.2, 9.25 ],
			"rotation": { "origin": [ 8, 4, 8 ], "axis": "y", "angle": 22.5 },
			"faces": {
				"down": { "uv": [ 7, 2, 9, 14.5 ], "texture": "#texture", "rotation": 90 },
				"up": { "uv": [ 7, 1.5, 9, 14 ], "texture": "#texture", "rotation": 270 },
				"north": { "uv": [ 2, 10, 14.5, 12 ], "texture": "#texture" },
				"south": { "uv": [ 1.5, 10, 14, 12 ], "texture": "#texture" },
				"west": { "uv": [ 7, 10, 9, 12 ], "texture": "#texture" },
				"east": { "uv": [ 7, 10, 9, 12 ], "texture": "#texture" }
			}
		},
		{
			"__comment": "Box48",
			"from": [ 6.75, 4, 1.75 ],
			"to": [ 9.25, 6.2, 14.25 ],
			"rotation": { "origin": [ 8, 4, 8 ], "axis": "y", "angle": 45 },
			"faces": {
				"down": { "uv": [ 7, 2, 9, 14.5 ], "texture": "#texture", "rotation": 90 },
				"up": { "uv": [ 7, 1.5, 9, 14 ], "texture": "#texture", "rotation": 270 },
				"north": { "uv": [ 2, 10, 14.5, 12 ], "texture": "#texture" },
				"south": { "uv": [ 1.5, 10, 14, 12 ], "texture": "#texture" },
				"west": { "uv": [ 7, 10, 9, 12 ], "texture": "#texture" },
				"east": { "uv": [ 7, 10, 9, 12 ], "texture": "#texture" }
			}
		},
		{
			"__comment": "Box48",
			"from": [ 1.75, 4, 6.75 ],
			"to": [ 14.25, 6.2, 9.25 ],
			"rotation": { "origin": [ 8, 4, 8 ], "axis": "y", "angle": -22.5 },
			"faces": {
				"down": { "uv": [ 7, 2, 9, 14.5 ], "texture": "#texture", "rotation": 90 },
				"up": { "uv": [ 7, 1.5, 9, 14 ], "texture": "#texture", "rotation": 270 },
				"north": { "uv": [ 2, 10, 14.5, 12 ], "texture": "#texture" },
				"south": { "uv": [ 1.5, 10, 14, 12 ], "texture": "#texture" },
				"west": { "uv": [ 7, 10, 9, 12 ], "texture": "#texture" },
				"east": { "uv": [ 7, 10, 9, 12 ], "texture": "#texture" }
			}
		},
		{
			"__comment": "Box48",
			"from": [ 1.75, 4, 6.75 ],
			"to": [ 14.25, 6.2, 9.25 ],
			"faces": {
				"down": { "uv": [ 7, 2, 9, 14.5 ], "texture": "#texture", "rotation": 90 },
				"up": { "uv": [ 7, 1.5, 9, 14 ], "texture": "#texture", "rotation": 270 },
				"north": { "uv": [ 2, 10, 14.5, 12 ], "texture": "#texture" },
				"south": { "uv": [ 1.5, 10, 14, 12 ], "texture": "#texture" },
				"west": { "uv": [ 7, 10, 9, 12 ], "texture": "#texture" },
				"east": { "uv": [ 7, 10, 9, 12 ], "texture": "#texture" }
			}
		},
		{
			"__comment": "Box63",
			"from": [ 6.4, 13, 0 ],
			"to": [ 9.599999, 15, 16 ],
			"faces": {
				"down": { "uv": [ 7.5, 0, 8.5, 16 ], "texture": "#texture" },
				"up": { "uv": [ 7.5, 0, 8.5, 16 ], "texture": "#texture" },
				"north": { "uv": [ 7.5, 1, 8.5, 3 ], "texture": "#texture" },
				"south": { "uv": [ 7.5, 1, 8.5, 3 ], "texture": "#texture" },
				"west": { "uv": [ 0, 1, 16, 3 ], "texture": "#texture" },
				"east": { "uv": [ 0, 1, 16, 3 ], "texture": "#texture" }
			}
		},
		{
			"__comment": "Box65",
			"from": [ 7.25, 17.5, 4.25 ],
			"to": [ 8.75, 18.5, 11.75 ],
			"faces": {
				"down": { "uv": [ 7.25, 4.25, 8.75, 11.75 ], "texture": "#texture" },
				"up": { "uv": [ 7.25, 4.25, 8.75, 11.75 ], "texture": "#texture" },
				"north": { "uv": [ 7.25, 13.5, 8.75, 14.5 ], "texture": "#texture" },
				"south": { "uv": [ 7.25, 13.5, 8.75, 14.5 ], "texture": "#texture" },
				"west": { "uv": [ 4.25, 13.5, 11.75, 14.5 ], "texture": "#texture" },
				"east": { "uv": [ 4.25, 13.5, 11.75, 14.5 ], "texture": "#texture" }
			}
		},
		{
			"__comment": "Box66",
			"from": [ 6.9, 16.5, 2.5 ],
			"to": [ 9.099999, 17.5, 13.5 ],
			"faces": {
				"down": { "uv": [ 6.9, 2.5, 9.1, 13.5 ], "texture": "#texture" },
				"up": { "uv": [ 6.9, 2.5, 9.1, 13.5 ], "texture": "#texture" },
				"north": { "uv": [ 6.9, 14.5, 9.1, 15.5 ], "texture": "#texture" },
				"south": { "uv": [ 6.9, 14.5, 9.1, 15.5 ], "texture": "#texture" },
				"west": { "uv": [ 2.5, 14.5, 13.5, 15.5 ], "texture": "#texture" },
				"east": { "uv": [ 2.5, 14.5, 13.5, 15.5 ], "texture": "#texture" }
			}
		},
		{
			"__comment": "Box61",
			"from": [ 6.4, 6, 0 ],
			"to": [ 9.599999, 8, 16 ],
			"faces": {
				"down": { "uv": [ 6.5, 0, 9.5, 16 ], "texture": "#texture" },
				"up": { "uv": [ 6.5, 0, 9.5, 16 ], "texture": "#texture" },
				"north": { "uv": [ 6.5, 8, 9.5, 10 ], "texture": "#texture" },
				"south": { "uv": [ 6.5, 8, 9.5, 10 ], "texture": "#texture" },
				"west": { "uv": [ 0, 8, 16, 10 ], "texture": "#texture" },
				"east": { "uv": [ 0, 8, 16, 10 ], "texture": "#texture" }
			}
		},
		{
			"__comment": "Box61",
			"from": [ 6.4, 6, 0 ],
			"to": [ 9.599999, 8, 16 ],
			"rotation": { "origin": [ 8, 6, 8 ], "axis": "y", "angle": 22.5 },
			"faces": {
				"down": { "uv": [ 6.5, 0, 9.5, 16 ], "texture": "#texture", "rotation": 90 },
				"up": { "uv": [ 6.5, 0, 9.5, 16 ], "texture": "#texture", "rotation": 270 },
				"north": { "uv": [ 0, 8, 16, 10 ], "texture": "#texture" },
				"south": { "uv": [ 0, 8, 16, 10 ], "texture": "#texture" },
				"west": { "uv": [ 6.5, 8, 9.5, 10 ], "texture": "#texture" },
				"east": { "uv": [ 6.5, 8, 9.5, 10 ], "texture": "#texture" }
			}
		},
		{
			"__comment": "Box61",
			"from": [ 6.4, 6, 0 ],
			"to": [ 9.599999, 8, 16 ],
			"rotation": { "origin": [ 8, 6, 8 ], "axis": "y", "angle": 45 },
			"faces": {
				"down": { "uv": [ 6.5, 0, 9.5, 16 ], "texture": "#texture", "rotation": 90 },
				"up": { "uv": [ 6.5, 0, 9.5, 16 ], "texture": "#texture", "rotation": 270 },
				"north": { "uv": [ 0, 8, 16, 10 ], "texture": "#texture" },
				"south": { "uv": [ 0, 8, 16, 10 ], "texture": "#texture" },
				"west": { "uv": [ 6.5, 8, 9.5, 10 ], "texture": "#texture" },
				"east": { "uv": [ 6.5, 8, 9.5, 10 ], "texture": "#texture" }
			}
		},
		{
			"__comment": "Box61",
			"from": [ 0, 6, 6.4 ],
			"to": [ 16, 8, 9.599999 ],
			"rotation": { "origin": [ 8, 6, 8 ], "axis": "y", "angle": -22.5 },
			"faces": {
				"down": { "uv": [ 6.5, 0, 9.5, 16 ], "texture": "#texture", "rotation": 90 },
				"up": { "uv": [ 6.5, 0, 9.5, 16 ], "texture": "#texture", "rotation": 270 },
				"north": { "uv": [ 0, 8, 16, 10 ], "texture": "#texture" },
				"south": { "uv": [ 0, 8, 16, 10 ], "texture": "#texture" },
				"west": { "uv": [ 6.5, 8, 9.5, 10 ], "texture": "#texture" },
				"east": { "uv": [ 6.5, 8, 9.5, 10 ], "texture": "#texture" }
			}
		},
		{
			"__comment": "Box61",
			"from": [ 6.4, 6, 0 ],
			"to": [ 9.599999, 8, 16 ],
			"rotation": { "origin": [ 8, 6, 8 ], "axis": "y", "angle": -22.5 },
			"faces": {
				"down": { "uv": [ 6.5, 0, 9.5, 16 ], "texture": "#texture", "rotation": 90 },
				"up": { "uv": [ 6.5, 0, 9.5, 16 ], "texture": "#texture", "rotation": 270 },
				"north": { "uv": [ 0, 8, 16, 10 ], "texture": "#texture" },
				"south": { "uv": [ 0, 8, 16, 10 ], "texture": "#texture" },
				"west": { "uv": [ 6.5, 8, 9.5, 10 ], "texture": "#texture" },
				"east": { "uv": [ 6.5, 8, 9.5, 10 ], "texture": "#texture" }
			}
		},
		{
			"__comment": "Box61",
			"from": [ 6.4, 6, 0 ],
			"to": [ 9.599999, 8, 16 ],
			"rotation": { "origin": [ 8, 6, 8 ], "axis": "y", "angle": -45 },
			"faces": {
				"down": { "uv": [ 6.5, 0, 9.5, 16 ], "texture": "#texture", "rotation": 90 },
				"up": { "uv": [ 6.5, 0, 9.5, 16 ], "texture": "#texture", "rotation": 270 },
				"north": { "uv": [ 0, 8, 16, 10 ], "texture": "#texture" },
				"south": { "uv": [ 0, 8, 16, 10 ], "texture": "#texture" },
				"west": { "uv": [ 6.5, 8, 9.5, 10 ], "texture": "#texture" },
				"east": { "uv": [ 6.5, 8, 9.5, 10 ], "texture": "#texture" }
			}
		},
		{
			"__comment": "Box61",
			"from": [ 0, 6, 6.4 ],
			"to": [ 16, 8, 9.599999 ],
			"rotation": { "origin": [ 8, 6, 8 ], "axis": "y", "angle": 22.5 },
			"faces": {
				"down": { "uv": [ 6.5, 0, 9.5, 16 ], "texture": "#texture", "rotation": 90 },
				"up": { "uv": [ 6.5, 0, 9.5, 16 ], "texture": "#texture", "rotation": 270 },
				"north": { "uv": [ 0, 8, 16, 10 ], "texture": "#texture" },
				"south": { "uv": [ 0, 8, 16, 10 ], "texture": "#texture" },
				"west": { "uv": [ 6.5, 8, 9.5, 10 ], "texture": "#texture" },
				"east": { "uv": [ 6.5, 8, 9.5, 10 ], "texture": "#texture" }
			}
		},
		{
			"__comment": "Box61",
			"from": [ 0, 6, 6.4 ],
			"to": [ 16, 8, 9.599999 ],
			"faces": {
				"down": { "uv": [ 6.5, 0, 9.5, 16 ], "texture": "#texture", "rotation": 90 },
				"up": { "uv": [ 6.5, 0, 9.5, 16 ], "texture": "#texture", "rotation": 270 },
				"north": { "uv": [ 0, 8, 16, 10 ], "texture": "#texture" },
				"south": { "uv": [ 0, 8, 16, 10 ], "texture": "#texture" },
				"west": { "uv": [ 6.5, 8, 9.5, 10 ], "texture": "#texture" },
				"east": { "uv": [ 6.5, 8, 9.5, 10 ], "texture": "#texture" }
			}
		},
		{
			"__comment": "Box62",
			"from": [ 6.31, 8, -0.5 ],
			"to": [ 9.690001, 13, 16.5 ],
			"faces": {
				"down": { "uv": [ 6.32, 0, 9.679999, 16 ], "texture": "#texture" },
				"up": { "uv": [ 6.32, 0, 9.679999, 16 ], "texture": "#texture" },
				"north": { "uv": [ 6.320001, 3, 9.68, 8 ], "texture": "#texture" },
				"south": { "uv": [ 6.32, 3, 9.679999, 8 ], "texture": "#texture" },
				"west": { "uv": [ 0, 3, 16, 8 ], "texture": "#texture" },
				"east": { "uv": [ 0, 3, 16, 8 ], "texture": "#texture" }
			}
		},
		{
			"__comment": "Box62",
			"from": [ 6.31, 8, -0.5 ],
			"to": [ 9.690001, 13, 16.5 ],
			"rotation": { "origin": [ 8, 8, 8 ], "axis": "y", "angle": -22.5 },
			"faces": {
				"down": { "uv": [ 6.32, 0, 9.679999, 16 ], "texture": "#texture", "rotation": 270 },
				"up": { "uv": [ 6.32, 0, 9.679999, 16 ], "texture": "#texture", "rotation": 90 },
				"north": { "uv": [ 0, 3, 16, 8 ], "texture": "#texture" },
				"south": { "uv": [ 0, 3, 16, 8 ], "texture": "#texture" },
				"west": { "uv": [ 6.32, 3, 9.679999, 8 ], "texture": "#texture" },
				"east": { "uv": [ 6.320001, 3, 9.68, 8 ], "texture": "#texture" }
			}
		},
		{
			"__comment": "Box62",
			"from": [ 6.31, 8, -0.5 ],
			"to": [ 9.690001, 13, 16.5 ],
			"rotation": { "origin": [ 8, 8, 8 ], "axis": "y", "angle": -45 },
			"faces": {
				"down": { "uv": [ 6.32, 0, 9.679999, 16 ], "texture": "#texture", "rotation": 270 },
				"up": { "uv": [ 6.32, 0, 9.679999, 16 ], "texture": "#texture", "rotation": 90 },
				"north": { "uv": [ 0, 3, 16, 8 ], "texture": "#texture" },
				"south": { "uv": [ 0, 3, 16, 8 ], "texture": "#texture" },
				"west": { "uv": [ 6.32, 3, 9.679999, 8 ], "texture": "#texture" },
				"east": { "uv": [ 6.320001, 3, 9.68, 8 ], "texture": "#texture" }
			}
		},
		{
			"__comment": "Box62",
			"from": [ -0.5, 8, 6.31 ],
			"to": [ 16.5, 13, 9.690001 ],
			"rotation": { "origin": [ 8, 8, 8 ], "axis": "y", "angle": 22.5 },
			"faces": {
				"down": { "uv": [ 6.32, 0, 9.679999, 16 ], "texture": "#texture", "rotation": 270 },
				"up": { "uv": [ 6.32, 0, 9.679999, 16 ], "texture": "#texture", "rotation": 90 },
				"north": { "uv": [ 0, 3, 16, 8 ], "texture": "#texture" },
				"south": { "uv": [ 0, 3, 16, 8 ], "texture": "#texture" },
				"west": { "uv": [ 6.32, 3, 9.679999, 8 ], "texture": "#texture" },
				"east": { "uv": [ 6.320001, 3, 9.68, 8 ], "texture": "#texture" }
			}
		},
		{
			"__comment": "Box62",
			"from": [ -0.5, 8, 6.31 ],
			"to": [ 16.5, 13, 9.690001 ],
			"faces": {
				"down": { "uv": [ 6.32, 0, 9.679999, 16 ], "texture": "#texture", "rotation": 270 },
				"up": { "uv": [ 6.32, 0, 9.679999, 16 ], "texture": "#texture", "rotation": 90 },
				"north": { "uv": [ 0, 3, 16, 8 ], "texture": "#texture" },
				"south": { "uv": [ 0, 3, 16, 8 ], "texture": "#texture" },
				"west": { "uv": [ 6.32, 3, 9.679999, 8 ], "texture": "#texture" },
				"east": { "uv": [ 6.320001, 3, 9.68, 8 ], "texture": "#texture" }
			}
		},
		{
			"__comment": "Box62",
			"from": [ 6.31, 8, -0.5 ],
			"to": [ 9.690001, 13, 16.5 ],
			"rotation": { "origin": [ 8, 8, 8 ], "axis": "y", "angle": 22.5 },
			"faces": {
				"down": { "uv": [ 6.32, 0, 9.679999, 16 ], "texture": "#texture", "rotation": 270 },
				"up": { "uv": [ 6.32, 0, 9.679999, 16 ], "texture": "#texture", "rotation": 90 },
				"north": { "uv": [ 0, 3, 16, 8 ], "texture": "#texture" },
				"south": { "uv": [ 0, 3, 16, 8 ], "texture": "#texture" },
				"west": { "uv": [ 6.32, 3, 9.679999, 8 ], "texture": "#texture" },
				"east": { "uv": [ 6.320001, 3, 9.68, 8 ], "texture": "#texture" }
			}
		},
		{
			"__comment": "Box62",
			"from": [ 6.31, 8, -0.5 ],
			"to": [ 9.690001, 13, 16.5 ],
			"rotation": { "origin": [ 8, 8, 8 ], "axis": "y", "angle": 45 },
			"faces": {
				"down": { "uv": [ 6.32, 0, 9.679999, 16 ], "texture": "#texture", "rotation": 270 },
				"up": { "uv": [ 6.32, 0, 9.679999, 16 ], "texture": "#texture", "rotation": 90 },
				"north": { "uv": [ 0, 3, 16, 8 ], "texture": "#texture" },
				"south": { "uv": [ 0, 3, 16, 8 ], "texture": "#texture" },
				"west": { "uv": [ 6.32, 3, 9.679999, 8 ], "texture": "#texture" },
				"east": { "uv": [ 6.320001, 3, 9.68, 8 ], "texture": "#texture" }
			}
		},
		{
			"__comment": "Box62",
			"from": [ -0.5, 8, 6.31 ],
			"to": [ 16.5, 13, 9.690001 ],
			"rotation": { "origin": [ 8, 8, 8 ], "axis": "y", "angle": -22.5 },
			"faces": {
				"down": { "uv": [ 6.32, 0, 9.679999, 16 ], "texture": "#texture", "rotation": 270 },
				"up": { "uv": [ 6.32, 0, 9.679999, 16 ], "texture": "#texture", "rotation": 90 },
				"north": { "uv": [ 0, 3, 16, 8 ], "texture": "#texture" },
				"south": { "uv": [ 0, 3, 16, 8 ], "texture": "#texture" },
				"west": { "uv": [ 6.32, 3, 9.679999, 8 ], "texture": "#texture" },
				"east": { "uv": [ 6.320001, 3, 9.68, 8 ], "texture": "#texture" }
			}
		},
		{
			"__comment": "Box63",
			"from": [ 6.4, 13, 0 ],
			"to": [ 9.599999, 15, 16 ],
			"rotation": { "origin": [ 8, 13, 8 ], "axis": "y", "angle": -22.5 },
			"faces": {
				"down": { "uv": [ 7.5, 0, 8.5, 16 ], "texture": "#texture", "rotation": 270 },
				"up": { "uv": [ 7.5, 0, 8.5, 16 ], "texture": "#texture", "rotation": 90 },
				"north": { "uv": [ 0, 1, 16, 3 ], "texture": "#texture" },
				"south": { "uv": [ 0, 1, 16, 3 ], "texture": "#texture" },
				"west": { "uv": [ 7.5, 1, 8.5, 3 ], "texture": "#texture" },
				"east": { "uv": [ 7.5, 1, 8.5, 3 ], "texture": "#texture" }
			}
		},
		{
			"__comment": "Box63",
			"from": [ 6.4, 13, 0 ],
			"to": [ 9.599999, 15, 16 ],
			"rotation": { "origin": [ 8, 13, 8 ], "axis": "y", "angle": -45 },
			"faces": {
				"down": { "uv": [ 7.5, 0, 8.5, 16 ], "texture": "#texture", "rotation": 270 },
				"up": { "uv": [ 7.5, 0, 8.5, 16 ], "texture": "#texture", "rotation": 90 },
				"north": { "uv": [ 0, 1, 16, 3 ], "texture": "#texture" },
				"south": { "uv": [ 0, 1, 16, 3 ], "texture": "#texture" },
				"west": { "uv": [ 7.5, 1, 8.5, 3 ], "texture": "#texture" },
				"east": { "uv": [ 7.5, 1, 8.5, 3 ], "texture": "#texture" }
			}
		},
		{
			"__comment": "Box63",
			"from": [ 0, 13, 6.4 ],
			"to": [ 16, 15, 9.599999 ],
			"rotation": { "origin": [ 8, 13, 8 ], "axis": "y", "angle": 22.5 },
			"faces": {
				"down": { "uv": [ 7.5, 0, 8.5, 16 ], "texture": "#texture", "rotation": 270 },
				"up": { "uv": [ 7.5, 0, 8.5, 16 ], "texture": "#texture", "rotation": 90 },
				"north": { "uv": [ 0, 1, 16, 3 ], "texture": "#texture" },
				"south": { "uv": [ 0, 1, 16, 3 ], "texture": "#texture" },
				"west": { "uv": [ 7.5, 1, 8.5, 3 ], "texture": "#texture" },
				"east": { "uv": [ 7.5, 1, 8.5, 3 ], "texture": "#texture" }
			}
		},
		{
			"__comment": "Box63",
			"from": [ 0, 13, 6.4 ],
			"to": [ 16, 15, 9.599999 ],
			"faces": {
				"down": { "uv": [ 7.5, 0, 8.5, 16 ], "texture": "#texture", "rotation": 270 },
				"up": { "uv": [ 7.5, 0, 8.5, 16 ], "texture": "#texture", "rotation": 90 },
				"north": { "uv": [ 0, 1, 16, 3 ], "texture": "#texture" },
				"south": { "uv": [ 0, 1, 16, 3 ], "texture": "#texture" },
				"west": { "uv": [ 7.5, 1, 8.5, 3 ], "texture": "#texture" },
				"east": { "uv": [ 7.5, 1, 8.5, 3 ], "texture": "#texture" }
			}
		},
		{
			"__comment": "Box63",
			"from": [ 0, 13, 6.4 ],
			"to": [ 16, 15, 9.599999 ],
			"rotation": { "origin": [ 8, 13, 8 ], "axis": "y", "angle": -22.5 },
			"faces": {
				"down": { "uv": [ 7.5, 0, 8.5, 16 ], "texture": "#texture", "rotation": 270 },
				"up": { "uv": [ 7.5, 0, 8.5, 16 ], "texture": "#texture", "rotation": 90 },
				"north": { "uv": [ 0, 1, 16, 3 ], "texture": "#texture" },
				"south": { "uv": [ 0, 1, 16, 3 ], "texture": "#texture" },
				"west": { "uv": [ 7.5, 1, 8.5, 3 ], "texture": "#texture" },
				"east": { "uv": [ 7.5, 1, 8.5, 3 ], "texture": "#texture" }
			}
		},
		{
			"__comment": "Box63",
			"from": [ 6.4, 13, 0 ],
			"to": [ 9.599999, 15, 16 ],
			"rotation": { "origin": [ 8, 13, 8 ], "axis": "y", "angle": 22.5 },
			"faces": {
				"down": { "uv": [ 7.5, 0, 8.5, 16 ], "texture": "#texture", "rotation": 270 },
				"up": { "uv": [ 7.5, 0, 8.5, 16 ], "texture": "#texture", "rotation": 90 },
				"north": { "uv": [ 0, 1, 16, 3 ], "texture": "#texture" },
				"south": { "uv": [ 0, 1, 16, 3 ], "texture": "#texture" },
				"west": { "uv": [ 7.5, 1, 8.5, 3 ], "texture": "#texture" },
				"east": { "uv": [ 7.5, 1, 8.5, 3 ], "texture": "#texture" }
			}
		},
		{
			"__comment": "Box63",
			"from": [ 6.4, 13, 0 ],
			"to": [ 9.599999, 15, 16 ],
			"rotation": { "origin": [ 8, 13, 8 ], "axis": "y", "angle": 45 },
			"faces": {
				"down": { "uv": [ 7.5, 0, 8.5, 16 ], "texture": "#texture", "rotation": 270 },
				"up": { "uv": [ 7.5, 0, 8.5, 16 ], "texture": "#texture", "rotation": 90 },
				"north": { "uv": [ 0, 1, 16, 3 ], "texture": "#texture" },
				"south": { "uv": [ 0, 1, 16, 3 ], "texture": "#texture" },
				"west": { "uv": [ 7.5, 1, 8.5, 3 ], "texture": "#texture" },
				"east": { "uv": [ 7.5, 1, 8.5, 3 ], "texture": "#texture" }
			}
		},
		{
			"__comment": "Box64",
			"from": [ 6.55, 15, 0.75 ],
			"to": [ 9.45, 16.5, 15.25 ],
			"faces": {
				"down": { "uv": [ 6.65, 1, 9.35, 15.5 ], "texture": "#texture", "rotation": 180 },
				"up": { "uv": [ 6.65, 0.5, 9.35, 15 ], "texture": "#texture", "rotation": 180 },
				"north": { "uv": [ 6.65, 0, 9.35, 1 ], "texture": "#texture" },
				"south": { "uv": [ 6.65, 0, 9.35, 1 ], "texture": "#texture" },
				"west": { "uv": [ 1, 0, 15.5, 1 ], "texture": "#texture" },
				"east": { "uv": [ 0.5, 0, 15, 1 ], "texture": "#texture" }
			}
		},
		{
			"__comment": "Box64",
			"from": [ 6.55, 15, 0.75 ],
			"to": [ 9.45, 16.5, 15.25 ],
			"rotation": { "origin": [ 8, 15, 8 ], "axis": "y", "angle": -22.5 },
			"faces": {
				"down": { "uv": [ 6.65, 1, 9.35, 15.5 ], "texture": "#texture", "rotation": 270 },
				"up": { "uv": [ 6.65, 0.5, 9.35, 15 ], "texture": "#texture", "rotation": 90 },
				"north": { "uv": [ 0.5, 0, 15, 1 ], "texture": "#texture" },
				"south": { "uv": [ 1, 0, 15.5, 1 ], "texture": "#texture" },
				"west": { "uv": [ 6.65, 0, 9.35, 1 ], "texture": "#texture" },
				"east": { "uv": [ 6.65, 0, 9.35, 1 ], "texture": "#texture" }
			}
		},
		{
			"__comment": "Box64",
			"from": [ 6.55, 15, 0.75 ],
			"to": [ 9.45, 16.5, 15.25 ],
			"rotation": { "origin": [ 8, 15, 8 ], "axis": "y", "angle": -45 },
			"faces": {
				"down": { "uv": [ 6.65, 1, 9.35, 15.5 ], "texture": "#texture", "rotation": 270 },
				"up": { "uv": [ 6.65, 0.5, 9.35, 15 ], "texture": "#texture", "rotation": 90 },
				"north": { "uv": [ 0.5, 0, 15, 1 ], "texture": "#texture" },
				"south": { "uv": [ 1, 0, 15.5, 1 ], "texture": "#texture" },
				"west": { "uv": [ 6.65, 0, 9.35, 1 ], "texture": "#texture" },
				"east": { "uv": [ 6.65, 0, 9.35, 1 ], "texture": "#texture" }
			}
		},
		{
			"__comment": "Box64",
			"from": [ 0.75, 15, 6.55 ],
			"to": [ 15.25, 16.5, 9.45 ],
			"rotation": { "origin": [ 8, 15, 8 ], "axis": "y", "angle": 22.5 },
			"faces": {
				"down": { "uv": [ 6.65, 1, 9.35, 15.5 ], "texture": "#texture", "rotation": 270 },
				"up": { "uv": [ 6.65, 0.5, 9.35, 15 ], "texture": "#texture", "rotation": 90 },
				"north": { "uv": [ 0.5, 0, 15, 1 ], "texture": "#texture" },
				"south": { "uv": [ 1, 0, 15.5, 1 ], "texture": "#texture" },
				"west": { "uv": [ 6.65, 0, 9.35, 1 ], "texture": "#texture" },
				"east": { "uv": [ 6.65, 0, 9.35, 1 ], "texture": "#texture" }
			}
		},
		{
			"__comment": "Box64",
			"from": [ 6.55, 15, 0.75 ],
			"to": [ 9.45, 16.5, 15.25 ],
			"rotation": { "origin": [ 8, 15, 8 ], "axis": "y", "angle": 22.5 },
			"faces": {
				"down": { "uv": [ 6.65, 1, 9.35, 15.5 ], "texture": "#texture", "rotation": 270 },
				"up": { "uv": [ 6.65, 0.5, 9.35, 15 ], "texture": "#texture", "rotation": 90 },
				"north": { "uv": [ 0.5, 0, 15, 1 ], "texture": "#texture" },
				"south": { "uv": [ 1, 0, 15.5, 1 ], "texture": "#texture" },
				"west": { "uv": [ 6.65, 0, 9.35, 1 ], "texture": "#texture" },
				"east": { "uv": [ 6.65, 0, 9.35, 1 ], "texture": "#texture" }
			}
		},
		{
			"__comment": "Box64",
			"from": [ 6.55, 15, 0.75 ],
			"to": [ 9.45, 16.5, 15.25 ],
			"rotation": { "origin": [ 8, 15, 8 ], "axis": "y", "angle": 45 },
			"faces": {
				"down": { "uv": [ 6.65, 1, 9.35, 15.5 ], "texture": "#texture", "rotation": 270 },
				"up": { "uv": [ 6.65, 0.5, 9.35, 15 ], "texture": "#texture", "rotation": 90 },
				"north": { "uv": [ 0.5, 0, 15, 1 ], "texture": "#texture" },
				"south": { "uv": [ 1, 0, 15.5, 1 ], "texture": "#texture" },
				"west": { "uv": [ 6.65, 0, 9.35, 1 ], "texture": "#texture" },
				"east": { "uv": [ 6.65, 0, 9.35, 1 ], "texture": "#texture" }
			}
		},
		{
			"__comment": "Box64",
			"from": [ 0.75, 15, 6.55 ],
			"to": [ 15.25, 16.5, 9.45 ],
			"rotation": { "origin": [ 8, 15, 8 ], "axis": "y", "angle": -22.5 },
			"faces": {
				"down": { "uv": [ 6.65, 1, 9.35, 15.5 ], "texture": "#texture", "rotation": 270 },
				"up": { "uv": [ 6.65, 0.5, 9.35, 15 ], "texture": "#texture", "rotation": 90 },
				"north": { "uv": [ 0.5, 0, 15, 1 ], "texture": "#texture" },
				"south": { "uv": [ 1, 0, 15.5, 1 ], "texture": "#texture" },
				"west": { "uv": [ 6.65, 0, 9.35, 1 ], "texture": "#texture" },
				"east": { "uv": [ 6.65, 0, 9.35, 1 ], "texture": "#texture" }
			}
		},
		{
			"__comment": "Box64",
			"from": [ 0.75, 15, 6.55 ],
			"to": [ 15.25, 16.5, 9.45 ],
			"faces": {
				"down": { "uv": [ 6.65, 1, 9.35, 15.5 ], "texture": "#texture", "rotation": 270 },
				"up": { "uv": [ 6.65, 0.5, 9.35, 15 ], "texture": "#texture", "rotation": 90 },
				"north": { "uv": [ 0.5, 0, 15, 1 ], "texture": "#texture" },
				"south": { "uv": [ 1, 0, 15.5, 1 ], "texture": "#texture" },
				"west": { "uv": [ 6.65, 0, 9.35, 1 ], "texture": "#texture" },
				"east": { "uv": [ 6.65, 0, 9.35, 1 ], "texture": "#texture" }
			}
		},
		{
			"__comment": "Box66",
			"from": [ 6.9, 16.5, 2.5 ],
			"to": [ 9.099999, 17.5, 13.5 ],
			"rotation": { "origin": [ 8, 16.5, 8 ], "axis": "y", "angle": -22.5 },
			"faces": {
				"down": { "uv": [ 6.9, 2.5, 9.1, 13.5 ], "texture": "#texture", "rotation": 90 },
				"up": { "uv": [ 6.9, 2.5, 9.1, 13.5 ], "texture": "#texture", "rotation": 270 },
				"north": { "uv": [ 2.5, 14.5, 13.5, 15.5 ], "texture": "#texture" },
				"south": { "uv": [ 2.5, 14.5, 13.5, 15.5 ], "texture": "#texture" },
				"west": { "uv": [ 6.9, 14.5, 9.1, 15.5 ], "texture": "#texture" },
				"east": { "uv": [ 6.9, 14.5, 9.1, 15.5 ], "texture": "#texture" }
			}
		},
		{
			"__comment": "Box66",
			"from": [ 6.9, 16.5, 2.5 ],
			"to": [ 9.099999, 17.5, 13.5 ],
			"rotation": { "origin": [ 8, 16.5, 8 ], "axis": "y", "angle": -45 },
			"faces": {
				"down": { "uv": [ 6.9, 2.5, 9.1, 13.5 ], "texture": "#texture", "rotation": 90 },
				"up": { "uv": [ 6.9, 2.5, 9.1, 13.5 ], "texture": "#texture", "rotation": 270 },
				"north": { "uv": [ 2.5, 14.5, 13.5, 15.5 ], "texture": "#texture" },
				"south": { "uv": [ 2.5, 14.5, 13.5, 15.5 ], "texture": "#texture" },
				"west": { "uv": [ 6.9, 14.5, 9.1, 15.5 ], "texture": "#texture" },
				"east": { "uv": [ 6.9, 14.5, 9.1, 15.5 ], "texture": "#texture" }
			}
		},
		{
			"__comment": "Box66",
			"from": [ 6.9, 16.5, 2.5 ],
			"to": [ 9.099999, 17.5, 13.5 ],
			"rotation": { "origin": [ 8, 16.5, 8 ], "axis": "y", "angle": 22.5 },
			"faces": {
				"down": { "uv": [ 6.9, 2.5, 9.1, 13.5 ], "texture": "#texture", "rotation": 90 },
				"up": { "uv": [ 6.9, 2.5, 9.1, 13.5 ], "texture": "#texture", "rotation": 270 },
				"north": { "uv": [ 2.5, 14.5, 13.5, 15.5 ], "texture": "#texture" },
				"south": { "uv": [ 2.5, 14.5, 13.5, 15.5 ], "texture": "#texture" },
				"west": { "uv": [ 6.9, 14.5, 9.1, 15.5 ], "texture": "#texture" },
				"east": { "uv": [ 6.9, 14.5, 9.1, 15.5 ], "texture": "#texture" }
			}
		},
		{
			"__comment": "Box66",
			"from": [ 6.9, 16.5, 2.5 ],
			"to": [ 9.099999, 17.5, 13.5 ],
			"rotation": { "origin": [ 8, 16.5, 8 ], "axis": "y", "angle": 45 },
			"faces": {
				"down": { "uv": [ 6.9, 2.5, 9.1, 13.5 ], "texture": "#texture", "rotation": 90 },
				"up": { "uv": [ 6.9, 2.5, 9.1, 13.5 ], "texture": "#texture", "rotation": 270 },
				"north": { "uv": [ 2.5, 14.5, 13.5, 15.5 ], "texture": "#texture" },
				"south": { "uv": [ 2.5, 14.5, 13.5, 15.5 ], "texture": "#texture" },
				"west": { "uv": [ 6.9, 14.5, 9.1, 15.5 ], "texture": "#texture" },
				"east": { "uv": [ 6.9, 14.5, 9.1, 15.5 ], "texture": "#texture" }
			}
		},
		{
			"__comment": "Box66",
			"from": [ 2.5, 16.5, 6.9 ],
			"to": [ 13.5, 17.5, 9.099999 ],
			"rotation": { "origin": [ 8, 16.5, 8 ], "axis": "y", "angle": -22.5 },
			"faces": {
				"down": { "uv": [ 6.9, 2.5, 9.1, 13.5 ], "texture": "#texture", "rotation": 90 },
				"up": { "uv": [ 6.9, 2.5, 9.1, 13.5 ], "texture": "#texture", "rotation": 270 },
				"north": { "uv": [ 2.5, 14.5, 13.5, 15.5 ], "texture": "#texture" },
				"south": { "uv": [ 2.5, 14.5, 13.5, 15.5 ], "texture": "#texture" },
				"west": { "uv": [ 6.9, 14.5, 9.1, 15.5 ], "texture": "#texture" },
				"east": { "uv": [ 6.9, 14.5, 9.1, 15.5 ], "texture": "#texture" }
			}
		},
		{
			"__comment": "Box66",
			"from": [ 2.5, 16.5, 6.9 ],
			"to": [ 13.5, 17.5, 9.099999 ],
			"rotation": { "origin": [ 8, 16.5, 8 ], "axis": "y", "angle": 22.5 },
			"faces": {
				"down": { "uv": [ 6.9, 2.5, 9.1, 13.5 ], "texture": "#texture", "rotation": 90 },
				"up": { "uv": [ 6.9, 2.5, 9.1, 13.5 ], "texture": "#texture", "rotation": 270 },
				"north": { "uv": [ 2.5, 14.5, 13.5, 15.5 ], "texture": "#texture" },
				"south": { "uv": [ 2.5, 14.5, 13.5, 15.5 ], "texture": "#texture" },
				"west": { "uv": [ 6.9, 14.5, 9.1, 15.5 ], "texture": "#texture" },
				"east": { "uv": [ 6.9, 14.5, 9.1, 15.5 ], "texture": "#texture" }
			}
		},
		{
			"__comment": "Box66",
			"from": [ 2.5, 16.5, 6.9 ],
			"to": [ 13.5, 17.5, 9.099999 ],
			"faces": {
				"down": { "uv": [ 6.9, 2.5, 9.1, 13.5 ], "texture": "#texture", "rotation": 90 },
				"up": { "uv": [ 6.9, 2.5, 9.1, 13.5 ], "texture": "#texture", "rotation": 270 },
				"north": { "uv": [ 2.5, 14.5, 13.5, 15.5 ], "texture": "#texture" },
				"south": { "uv": [ 2.5, 14.5, 13.5, 15.5 ], "texture": "#texture" },
				"west": { "uv": [ 6.9, 14.5, 9.1, 15.5 ], "texture": "#texture" },
				"east": { "uv": [ 6.9, 14.5, 9.1, 15.5 ], "texture": "#texture" }
			}
		},
		{
			"__comment": "Box65",
			"from": [ 7.25, 17.5, 4.25 ],
			"to": [ 8.75, 18.5, 11.75 ],
			"rotation": { "origin": [ 8, 17.5, 8 ], "axis": "y", "angle": -22.5 },
			"faces": {
				"down": { "uv": [ 7.25, 4.25, 8.75, 11.75 ], "texture": "#texture", "rotation": 90 },
				"up": { "uv": [ 7.25, 4.25, 8.75, 11.75 ], "texture": "#texture", "rotation": 270 },
				"north": { "uv": [ 4.25, 13.5, 11.75, 14.5 ], "texture": "#texture" },
				"south": { "uv": [ 4.25, 13.5, 11.75, 14.5 ], "texture": "#texture" },
				"west": { "uv": [ 7.25, 13.5, 8.75, 14.5 ], "texture": "#texture" },
				"east": { "uv": [ 7.25, 13.5, 8.75, 14.5 ], "texture": "#texture" }
			}
		},
		{
			"__comment": "Box65",
			"from": [ 7.25, 17.5, 4.25 ],
			"to": [ 8.75, 18.5, 11.75 ],
			"rotation": { "origin": [ 8, 17.5, 8 ], "axis": "y", "angle": -45 },
			"faces": {
				"down": { "uv": [ 7.25, 4.25, 8.75, 11.75 ], "texture": "#texture", "rotation": 90 },
				"up": { "uv": [ 7.25, 4.25, 8.75, 11.75 ], "texture": "#texture", "rotation": 270 },
				"north": { "uv": [ 4.25, 13.5, 11.75, 14.5 ], "texture": "#texture" },
				"south": { "uv": [ 4.25, 13.5, 11.75, 14.5 ], "texture": "#texture" },
				"west": { "uv": [ 7.25, 13.5, 8.75, 14.5 ], "texture": "#texture" },
				"east": { "uv": [ 7.25, 13.5, 8.75, 14.5 ], "texture": "#texture" }
			}
		},
		{
			"__comment": "Box65",
			"from": [ 7.25, 17.5, 4.25 ],
			"to": [ 8.75, 18.5, 11.75 ],
			"rotation": { "origin": [ 8, 17.5, 8 ], "axis": "y", "angle": 22.5 },
			"faces": {
				"down": { "uv": [ 7.25, 4.25, 8.75, 11.75 ], "texture": "#texture", "rotation": 90 },
				"up": { "uv": [ 7.25, 4.25, 8.75, 11.75 ], "texture": "#texture", "rotation": 270 },
				"north": { "uv": [ 4.25, 13.5, 11.75, 14.5 ], "texture": "#texture" },
				"south": { "uv": [ 4.25, 13.5, 11.75, 14.5 ], "texture": "#texture" },
				"west": { "uv": [ 7.25, 13.5, 8.75, 14.5 ], "texture": "#texture" },
				"east": { "uv": [ 7.25, 13.5, 8.75, 14.5 ], "texture": "#texture" }
			}
		},
		{
			"__comment": "Box65",
			"from": [ 7.25, 17.5, 4.25 ],
			"to": [ 8.75, 18.5, 11.75 ],
			"rotation": { "origin": [ 8, 17.5, 8 ], "axis": "y", "angle": 45 },
			"faces": {
				"down": { "uv": [ 7.25, 4.25, 8.75, 11.75 ], "texture": "#texture", "rotation": 90 },
				"up": { "uv": [ 7.25, 4.25, 8.75, 11.75 ], "texture": "#texture", "rotation": 270 },
				"north": { "uv": [ 4.25, 13.5, 11.75, 14.5 ], "texture": "#texture" },
				"south": { "uv": [ 4.25, 13.5, 11.75, 14.5 ], "texture": "#texture" },
				"west": { "uv": [ 7.25, 13.5, 8.75, 14.5 ], "texture": "#texture" },
				"east": { "uv": [ 7.25, 13.5, 8.75, 14.5 ], "texture": "#texture" }
			}
		},
		{
			"__comment": "Box65",
			"from": [ 4.25, 17.5, 7.25 ],
			"to": [ 11.75, 18.5, 8.75 ],
			"rotation": { "origin": [ 8, 17.5, 8 ], "axis": "y", "angle": -22.5 },
			"faces": {
				"down": { "uv": [ 7.25, 4.25, 8.75, 11.75 ], "texture": "#texture", "rotation": 90 },
				"up": { "uv": [ 7.25, 4.25, 8.75, 11.75 ], "texture": "#texture", "rotation": 270 },
				"north": { "uv": [ 4.25, 13.5, 11.75, 14.5 ], "texture": "#texture" },
				"south": { "uv": [ 4.25, 13.5, 11.75, 14.5 ], "texture": "#texture" },
				"west": { "uv": [ 7.25, 13.5, 8.75, 14.5 ], "texture": "#texture" },
				"east": { "uv": [ 7.25, 13.5, 8.75, 14.5 ], "texture": "#texture" }
			}
		},
		{
			"__comment": "Box65",
			"from": [ 4.25, 17.5, 7.25 ],
			"to": [ 11.75, 18.5, 8.75 ],
			"rotation": { "origin": [ 8, 17.5, 8 ], "axis": "y", "angle": 22.5 },
			"faces": {
				"down": { "uv": [ 7.25, 4.25, 8.75, 11.75 ], "texture": "#texture", "rotation": 90 },
				"up": { "uv": [ 7.25, 4.25, 8.75, 11.75 ], "texture": "#texture", "rotation": 270 },
				"north": { "uv": [ 4.25, 13.5, 11.75, 14.5 ], "texture": "#texture" },
				"south": { "uv": [ 4.25, 13.5, 11.75, 14.5 ], "texture": "#texture" },
				"west": { "uv": [ 7.25, 13.5, 8.75, 14.5 ], "texture": "#texture" },
				"east": { "uv": [ 7.25, 13.5, 8.75, 14.5 ], "texture": "#texture" }
			}
		},
		{
			"__comment": "Box65",
			"from": [ 4.25, 17.5, 7.25 ],
			"to": [ 11.75, 18.5, 8.75 ],
			"faces": {
				"down": { "uv": [ 7.25, 4.25, 8.75, 11.75 ], "texture": "#texture", "rotation": 90 },
				"up": { "uv": [ 7.25, 4.25, 8.75, 11.75 ], "texture": "#texture", "rotation": 270 },
				"north": { "uv": [ 4.25, 13.5, 11.75, 14.5 ], "texture": "#texture" },
				"south": { "uv": [ 4.25, 13.5, 11.75, 14.5 ], "texture": "#texture" },
				"west": { "uv": [ 7.25, 13.5, 8.75, 14.5 ], "texture": "#texture" },
				"east": { "uv": [ 7.25, 13.5, 8.75, 14.5 ], "texture": "#texture" }
			}
		},
		{
			"__comment": "Box134",
			"from": [ 6.6, 5, 1 ],
			"to": [ 9.4, 6, 15 ],
			"faces": {
				"down": { "uv": [ 6.6, 1, 9.4, 15 ], "texture": "#texture" },
				"up": { "uv": [ 6.6, 1, 9.4, 15 ], "texture": "#texture" },
				"north": { "uv": [ 6.6, 10, 9.4, 11 ], "texture": "#texture" },
				"south": { "uv": [ 6.6, 10, 9.4, 11 ], "texture": "#texture" },
				"west": { "uv": [ 1, 10, 15, 11 ], "texture": "#texture" },
				"east": { "uv": [ 1, 10, 15, 11 ], "texture": "#texture" }
			}
		},
		{
			"__comment": "Box134",
			"from": [ 6.6, 5, 1 ],
			"to": [ 9.4, 6, 15 ],
			"rotation": { "origin": [ 8, 5, 8 ], "axis": "y", "angle": -22.5 },
			"faces": {
				"down": { "uv": [ 6.6, 1, 9.4, 15 ], "texture": "#texture", "rotation": 270 },
				"up": { "uv": [ 6.6, 1, 9.4, 15 ], "texture": "#texture", "rotation": 90 },
				"north": { "uv": [ 1, 10, 15, 11 ], "texture": "#texture" },
				"south": { "uv": [ 1, 10, 15, 11 ], "texture": "#texture" },
				"west": { "uv": [ 6.6, 10, 9.4, 11 ], "texture": "#texture" },
				"east": { "uv": [ 6.6, 10, 9.4, 11 ], "texture": "#texture" }
			}
		},
		{
			"__comment": "Box134",
			"from": [ 6.6, 5, 1 ],
			"to": [ 9.4, 6, 15 ],
			"rotation": { "origin": [ 8, 5, 8 ], "axis": "y", "angle": -45 },
			"faces": {
				"down": { "uv": [ 6.6, 1, 9.4, 15 ], "texture": "#texture", "rotation": 270 },
				"up": { "uv": [ 6.6, 1, 9.4, 15 ], "texture": "#texture", "rotation": 90 },
				"north": { "uv": [ 1, 10, 15, 11 ], "texture": "#texture" },
				"south": { "uv": [ 1, 10, 15, 11 ], "texture": "#texture" },
				"west": { "uv": [ 6.6, 10, 9.4, 11 ], "texture": "#texture" },
				"east": { "uv": [ 6.6, 10, 9.4, 11 ], "texture": "#texture" }
			}
		},
		{
			"__comment": "Box134",
			"from": [ 6.6, 5, 1 ],
			"to": [ 9.4, 6, 15 ],
			"rotation": { "origin": [ 8, 5, 8 ], "axis": "y", "angle": 22.5 },
			"faces": {
				"down": { "uv": [ 6.6, 1, 9.4, 15 ], "texture": "#texture", "rotation": 270 },
				"up": { "uv": [ 6.6, 1, 9.4, 15 ], "texture": "#texture", "rotation": 90 },
				"north": { "uv": [ 1, 10, 15, 11 ], "texture": "#texture" },
				"south": { "uv": [ 1, 10, 15, 11 ], "texture": "#texture" },
				"west": { "uv": [ 6.6, 10, 9.4, 11 ], "texture": "#texture" },
				"east": { "uv": [ 6.6, 10, 9.4, 11 ], "texture": "#texture" }
			}
		},
		{
			"__comment": "Box134",
			"from": [ 6.6, 5, 1 ],
			"to": [ 9.4, 6, 15 ],
			"rotation": { "origin": [ 8, 5, 8 ], "axis": "y", "angle": 45 },
			"faces": {
				"down": { "uv": [ 6.6, 1, 9.4, 15 ], "texture": "#texture", "rotation": 270 },
				"up": { "uv": [ 6.6, 1, 9.4, 15 ], "texture": "#texture", "rotation": 90 },
				"north": { "uv": [ 1, 10, 15, 11 ], "texture": "#texture" },
				"south": { "uv": [ 1, 10, 15, 11 ], "texture": "#texture" },
				"west": { "uv": [ 6.6, 10, 9.4, 11 ], "texture": "#texture" },
				"east": { "uv": [ 6.6, 10, 9.4, 11 ], "texture": "#texture" }
			}
		},
		{
			"__comment": "Box134",
			"from": [ 1, 5, 6.6 ],
			"to": [ 15, 6, 9.4 ],
			"faces": {
				"down": { "uv": [ 6.6, 1, 9.4, 15 ], "texture": "#texture", "rotation": 270 },
				"up": { "uv": [ 6.6, 1, 9.4, 15 ], "texture": "#texture", "rotation": 90 },
				"north": { "uv": [ 1, 10, 15, 11 ], "texture": "#texture" },
				"south": { "uv": [ 1, 10, 15, 11 ], "texture": "#texture" },
				"west": { "uv": [ 6.6, 10, 9.4, 11 ], "texture": "#texture" },
				"east": { "uv": [ 6.6, 10, 9.4, 11 ], "texture": "#texture" }
			}
		},
		{
			"__comment": "Box134",
			"from": [ 1, 5, 6.6 ],
			"to": [ 15, 6, 9.4 ],
			"rotation": { "origin": [ 8, 5, 8 ], "axis": "y", "angle": 22.5 },
			"faces": {
				"down": { "uv": [ 6.6, 1, 9.4, 15 ], "texture": "#texture", "rotation": 270 },
				"up": { "uv": [ 6.6, 1, 9.4, 15 ], "texture": "#texture", "rotation": 90 },
				"north": { "uv": [ 1, 10, 15, 11 ], "texture": "#texture" },
				"south": { "uv": [ 1, 10, 15, 11 ], "texture": "#texture" },
				"west": { "uv": [ 6.6, 10, 9.4, 11 ], "texture": "#texture" },
				"east": { "uv": [ 6.6, 10, 9.4, 11 ], "texture": "#texture" }
			}
		},
		{
			"__comment": "Box134",
			"from": [ 1, 5, 6.6 ],
			"to": [ 15, 6, 9.4 ],
			"rotation": { "origin": [ 8, 5, 8 ], "axis": "y", "angle": -22.5 },
			"faces": {
				"down": { "uv": [ 6.6, 1, 9.4, 15 ], "texture": "#texture", "rotation": 270 },
				"up": { "uv": [ 6.6, 1, 9.4, 15 ], "texture": "#texture", "rotation": 90 },
				"north": { "uv": [ 1, 10, 15, 11 ], "texture": "#texture" },
				"south": { "uv": [ 1, 10, 15, 11 ], "texture": "#texture" },
				"west": { "uv": [ 6.6, 10, 9.4, 11 ], "texture": "#texture" },
				"east": { "uv": [ 6.6, 10, 9.4, 11 ], "texture": "#texture" }
			}
		},
		{
			"__comment": "Box143",
			"from": [ 7.45, 18.5, 5.25 ],
			"to": [ 8.55, 21, 10.75 ],
			"faces": {
				"down": { "uv": [ 7.45, 5.25, 8.55, 10.75 ], "texture": "#texture" },
				"up": { "uv": [ 7.45, 5.25, 8.55, 10.75 ], "texture": "#texture" },
				"north": { "uv": [ 7.45, 11, 8.55, 13.5 ], "texture": "#texture" },
				"south": { "uv": [ 7.45, 11, 8.55, 13.5 ], "texture": "#texture" },
				"west": { "uv": [ 5.25, 11, 10.75, 13.5 ], "texture": "#texture" },
				"east": { "uv": [ 5.25, 11, 10.75, 13.5 ], "texture": "#texture" }
			}
		},
		{
			"__comment": "Box143",
			"from": [ 7.45, 18.5, 5.25 ],
			"to": [ 8.55, 21, 10.75 ],
			"rotation": { "origin": [ 8, 18.5, 8 ], "axis": "y", "angle": -22.5 },
			"faces": {
				"down": { "uv": [ 7.45, 5.25, 8.55, 10.75 ], "texture": "#texture", "rotation": 90 },
				"up": { "uv": [ 7.45, 5.25, 8.55, 10.75 ], "texture": "#texture", "rotation": 270 },
				"north": { "uv": [ 5.25, 11, 10.75, 13.5 ], "texture": "#texture" },
				"south": { "uv": [ 5.25, 11, 10.75, 13.5 ], "texture": "#texture" },
				"west": { "uv": [ 7.45, 11, 8.55, 13.5 ], "texture": "#texture" },
				"east": { "uv": [ 7.45, 11, 8.55, 13.5 ], "texture": "#texture" }
			}
		},
		{
			"__comment": "Box143",
			"from": [ 7.45, 18.5, 5.25 ],
			"to": [ 8.55, 21, 10.75 ],
			"rotation": { "origin": [ 8, 18.5, 8 ], "axis": "y", "angle": -45 },
			"faces": {
				"down": { "uv": [ 7.45, 5.25, 8.55, 10.75 ], "texture": "#texture", "rotation": 90 },
				"up": { "uv": [ 7.45, 5.25, 8.55, 10.75 ], "texture": "#texture", "rotation": 270 },
				"north": { "uv": [ 5.25, 11, 10.75, 13.5 ], "texture": "#texture" },
				"south": { "uv": [ 5.25, 11, 10.75, 13.5 ], "texture": "#texture" },
				"west": { "uv": [ 7.45, 11, 8.55, 13.5 ], "texture": "#texture" },
				"east": { "uv": [ 7.45, 11, 8.55, 13.5 ], "texture": "#texture" }
			}
		},
		{
			"__comment": "Box143",
			"from": [ 5.25, 18.5, 7.45 ],
			"to": [ 10.75, 21, 8.55 ],
			"rotation": { "origin": [ 8, 18.5, 8 ], "axis": "y", "angle": 22.5 },
			"faces": {
				"down": { "uv": [ 7.45, 5.25, 8.55, 10.75 ], "texture": "#texture", "rotation": 90 },
				"up": { "uv": [ 7.45, 5.25, 8.55, 10.75 ], "texture": "#texture", "rotation": 270 },
				"north": { "uv": [ 5.25, 11, 10.75, 13.5 ], "texture": "#texture" },
				"south": { "uv": [ 5.25, 11, 10.75, 13.5 ], "texture": "#texture" },
				"west": { "uv": [ 7.45, 11, 8.55, 13.5 ], "texture": "#texture" },
				"east": { "uv": [ 7.45, 11, 8.55, 13.5 ], "texture": "#texture" }
			}
		},
		{
			"__comment": "Box143",
			"from": [ 5.25, 18.5, 7.45 ],
			"to": [ 10.75, 21, 8.55 ],
			"faces": {
				"down": { "uv": [ 7.45, 5.25, 8.55, 10.75 ], "texture": "#texture", "rotation": 90 },
				"up": { "uv": [ 7.45, 5.25, 8.55, 10.75 ], "texture": "#texture", "rotation": 270 },
				"north": { "uv": [ 5.25, 11, 10.75, 13.5 ], "texture": "#texture" },
				"south": { "uv": [ 5.25, 11, 10.75, 13.5 ], "texture": "#texture" },
				"west": { "uv": [ 7.45, 11, 8.55, 13.5 ], "texture": "#texture" },
				"east": { "uv": [ 7.45, 11, 8.55, 13.5 ], "texture": "#texture" }
			}
		},
		{
			"__comment": "Box143",
			"from": [ 5.25, 18.5, 7.45 ],
			"to": [ 10.75, 21, 8.55 ],
			"rotation": { "origin": [ 8, 18.5, 8 ], "axis": "y", "angle": -22.5 },
			"faces": {
				"down": { "uv": [ 7.45, 5.25, 8.55, 10.75 ], "texture": "#texture", "rotation": 90 },
				"up": { "uv": [ 7.45, 5.25, 8.55, 10.75 ], "texture": "#texture", "rotation": 270 },
				"north": { "uv": [ 5.25, 11, 10.75, 13.5 ], "texture": "#texture" },
				"south": { "uv": [ 5.25, 11, 10.75, 13.5 ], "texture": "#texture" },
				"west": { "uv": [ 7.45, 11, 8.55, 13.5 ], "texture": "#texture" },
				"east": { "uv": [ 7.45, 11, 8.55, 13.5 ], "texture": "#texture" }
			}
		},
		{
			"__comment": "Box143",
			"from": [ 7.45, 18.5, 5.25 ],
			"to": [ 8.55, 21, 10.75 ],
			"rotation": { "origin": [ 8, 18.5, 8 ], "axis": "y", "angle": 22.5 },
			"faces": {
				"down": { "uv": [ 7.45, 5.25, 8.55, 10.75 ], "texture": "#texture", "rotation": 90 },
				"up": { "uv": [ 7.45, 5.25, 8.55, 10.75 ], "texture": "#texture", "rotation": 270 },
				"north": { "uv": [ 5.25, 11, 10.75, 13.5 ], "texture": "#texture" },
				"south": { "uv": [ 5.25, 11, 10.75, 13.5 ], "texture": "#texture" },
				"west": { "uv": [ 7.45, 11, 8.55, 13.5 ], "texture": "#texture" },
				"east": { "uv": [ 7.45, 11, 8.55, 13.5 ], "texture": "#texture" }
			}
		},
		{
			"__comment": "Box143",
			"from": [ 7.45, 18.5, 5.25 ],
			"to": [ 8.55, 21, 10.75 ],
			"rotation": { "origin": [ 8, 18.5, 8 ], "axis": "y", "angle": 45 },
			"faces": {
				"down": { "uv": [ 7.45, 5.25, 8.55, 10.75 ], "texture": "#texture", "rotation": 90 },
				"up": { "uv": [ 7.45, 5.25, 8.55, 10.75 ], "texture": "#texture", "rotation": 270 },
				"north": { "uv": [ 5.25, 11, 10.75, 13.5 ], "texture": "#texture" },
				"south": { "uv": [ 5.25, 11, 10.75, 13.5 ], "texture": "#texture" },
				"west": { "uv": [ 7.45, 11, 8.55, 13.5 ], "texture": "#texture" },
				"east": { "uv": [ 7.45, 11, 8.55, 13.5 ], "texture": "#texture" }
			}
		},
		{
			"__comment": "Box152",
			"from": [ 6.5, 21, 2 ],
			"to": [ 9.5, 23, 5 ],
			"faces": {
				"down": { "uv": [ 6.5, 11, 9.5, 14 ], "texture": "#texture" },
				"up": { "uv": [ 6.5, 2, 9.5, 5 ], "texture": "#texture" },
				"north": { "uv": [ 6.5, 9, 9.5, 11 ], "texture": "#texture" },
				"south": { "uv": [ 6.5, 9, 9.5, 11 ], "texture": "#texture" },
				"west": { "uv": [ 2, 9, 5, 11 ], "texture": "#texture" },
				"east": { "uv": [ 11, 9, 14, 11 ], "texture": "#texture" }
			}
		},
		{
			"__comment": "Box153",
			"from": [ 6, 21, 5 ],
			"to": [ 10, 27.5, 10.5 ],
			"faces": {
				"down": { "uv": [ 6, 5.5, 10, 11 ], "texture": "#texture" },
				"up": { "uv": [ 6, 5, 10, 10.5 ], "texture": "#texture" },
				"north": { "uv": [ 6, 4.5, 10, 11 ], "texture": "#texture" },
				"south": { "uv": [ 6, 4.5, 10, 11 ], "texture": "#texture" },
				"west": { "uv": [ 5, 4.5, 10.5, 11 ], "texture": "#texture" },
				"east": { "uv": [ 5.5, 4.5, 11, 11 ], "texture": "#texture" }
			}
		},
		{
			"__comment": "Box154",
			"from": [ 6.5, 22.5, 3.5 ],
			"to": [ 9.5, 26, 5 ],
			"faces": {
				"down": { "uv": [ 6.5, 11, 9.5, 12.5 ], "texture": "#texture" },
				"up": { "uv": [ 6.5, 3.5, 9.5, 5 ], "texture": "#texture" },
				"north": { "uv": [ 6.5, 6, 9.5, 9.5 ], "texture": "#texture" },
				"south": { "uv": [ 6.5, 6, 9.5, 9.5 ], "texture": "#texture" },
				"west": { "uv": [ 3.5, 6, 5, 9.5 ], "texture": "#texture" },
				"east": { "uv": [ 11, 6, 12.5, 9.5 ], "texture": "#texture" }
			}
		},
		{
			"__comment": "Box156",
			"from": [ 6.025, 25.5, 3.5 ],
			"to": [ 9.974999, 27.5, 5 ],
			"faces": {
				"down": { "uv": [ 6.5, 3.5, 9.5, 4.5 ], "texture": "#texture" },
				"up": { "uv": [ 9.5, 4.5, 6.5, 3.5 ], "texture": "#texture" },
				"north": { "uv": [ 9.5, 12.5, 6.5, 11.5 ], "texture": "#texture" },
				"south": { "uv": [ 6.5, 3.5, 9.5, 4.5 ], "texture": "#texture" },
				"west": { "uv": [ 3.5, 3.5, 4.5, 4.5 ], "texture": "#texture", "rotation": 90 },
				"east": { "uv": [ 11.5, 3.5, 12.5, 4.5 ], "texture": "#texture", "rotation": 270 }
			}
		},
		{
			"__comment": "Box157",
			"from": [ 6, 11.5, 3.5 ],
			"to": [ 10, 27.5, 4.5 ],
			"rotation": { "origin": [ 6, 27.5, 3.5 ], "axis": "x", "angle": 22.5 },
			"faces": {
				"down": { "uv": [ 6, 3.5, 10, 4.5 ], "texture": "#texture" },
				"up": { "uv": [ 10, 4.5, 6, 3.5 ], "texture": "#texture" },
				"north": { "uv": [ 10, 12.5, 6, 11.5 ], "texture": "#texture" },
				"south": { "uv": [ 6, 3.5, 10, 4.5 ], "texture": "#texture" },
				"west": { "uv": [ 3.5, 3.5, 4.5, 4.5 ], "texture": "#texture", "rotation": 90 },
				"east": { "uv": [ 11.5, 3.5, 12.5, 4.5 ], "texture": "#texture", "rotation": 270 }
			}
		},
		{
			"__comment": "Box158",
			"from": [ 6.05, 20, 1 ],
			"to": [ 9.95, 21, 2.7 ],
			"faces": {
				"down": { "uv": [ 6, 13.3, 9.9, 15 ], "texture": "#texture" },
				"up": { "uv": [ 6, 1, 9.9, 2.7 ], "texture": "#texture" },
				"north": { "uv": [ 6.1, 11, 10, 12 ], "texture": "#texture" },
				"south": { "uv": [ 6, 11, 9.9, 12 ], "texture": "#texture" },
				"west": { "uv": [ 1, 11, 2.7, 12 ], "texture": "#texture" },
				"east": { "uv": [ 13.3, 11, 15, 12 ], "texture": "#texture" }
			}
		},
		{
			"__comment": "Box159",
			"from": [ 6.05, 20.511, 3.5266 ],
			"to": [ 9.95, 27.511, 5.5266 ],
			"rotation": { "origin": [ 6, 27.5, 3.5 ], "axis": "x", "angle": 22.5 },
			"faces": {
				"down": { "uv": [ 6, 3.5, 10, 4.5 ], "texture": "#texture" },
				"up": { "uv": [ 6, 11.5, 10, 12.5 ], "texture": "#texture" },
				"north": { "uv": [ 10, 4.5, 6, 3.5 ], "texture": "#texture" },
				"south": { "uv": [ 10, 4.5, 6, 3.5 ], "texture": "#texture" },
				"west": { "uv": [ 3.5, 3.5, 4.5, 4.5 ], "texture": "#texture", "rotation": 180 },
				"east": { "uv": [ 11.5, 3.5, 12.5, 4.5 ], "texture": "#texture", "rotation": 180 }
			}
		},
		{
			"__comment": "Box160",
			"from": [ 6, 25, 10.5 ],
			"to": [ 10, 26, 12 ],
			"rotation": { "origin": [ 6, 25, 10.5 ], "axis": "x", "angle": -45 },
			"faces": {
				"down": { "uv": [ 6, 4.5, 10, 5.5 ], "texture": "#texture" },
				"up": { "uv": [ 6, 10.5, 10, 11.5 ], "texture": "#texture" },
				"north": { "uv": [ 6, 6, 10, 7 ], "texture": "#texture" },
				"south": { "uv": [ 6, 6, 10, 7 ], "texture": "#texture" },
				"west": { "uv": [ 10.5, 6, 11.5, 7 ], "texture": "#texture" },
				"east": { "uv": [ 4.5, 6, 5.5, 7 ], "texture": "#texture" }
			}
		},
		{
			"__comment": "Box162",
			"from": [ 6, 25.8, 10.5 ],
			"to": [ 10, 27.3, 11.9 ],
			"faces": {
				"down": { "uv": [ 6, 4.1, 10, 5.5 ], "texture": "#texture" },
				"up": { "uv": [ 6, 10.5, 10, 11.9 ], "texture": "#texture" },
				"north": { "uv": [ 6, 4.700001, 10, 6.200001 ], "texture": "#texture" },
				"south": { "uv": [ 6, 4.700001, 10, 6.200001 ], "texture": "#texture" },
				"west": { "uv": [ 10.5, 4.700001, 11.9, 6.200001 ], "texture": "#texture" },
				"east": { "uv": [ 4.1, 4.700001, 5.5, 6.200001 ], "texture": "#texture" }
			}
		},
		{
			"__comment": "Box163",
			"from": [ 6, 4.72, -2.62 ],
			"to": [ 10, 12.72, -1.62 ],
			"faces": {
				"down": { "uv": [ 6, 1.62, 10, 2.62 ], "texture": "#texture" },
				"up": { "uv": [ 6, 13.38, 10, 14.38 ], "texture": "#texture" },
				"north": { "uv": [ 6, 2.548, 10, 10.548 ], "texture": "#texture" },
				"south": { "uv": [ 6, 2.548, 10, 10.548 ], "texture": "#texture" },
				"west": { "uv": [ 13.38, 2.548, 14.38, 10.548 ], "texture": "#texture" },
				"east": { "uv": [ 1.619999, 2.548, 2.619999, 10.548 ], "texture": "#texture" }
			}
		},
		{
			"__comment": "Box116",
			"from": [ 6, 4.6573, -2.6951 ],
			"to": [ 10, 5.1573, -0.6950998 ],
			"rotation": { "origin": [ 6, 4.5, -2.5 ], "axis": "x", "angle": 22.5 },
			"faces": {
				"down": { "uv": [ 6, 1.5, 10, 2.5 ], "texture": "#texture" },
				"up": { "uv": [ 6, 13.5, 10, 14.5 ], "texture": "#texture" },
				"north": { "uv": [ 6, 7, 10, 8 ], "texture": "#texture" },
				"south": { "uv": [ 6, 7, 10, 8 ], "texture": "#texture" },
				"west": { "uv": [ 13.5, 7, 14.5, 8 ], "texture": "#texture" },
				"east": { "uv": [ 1.5, 7, 2.5, 8 ], "texture": "#texture" }
			}
		},
		{
			"__comment": "Box117",
			"from": [ 5.5, 24.5, 1.2 ],
			"to": [ 6, 25, 2.8 ],
			"faces": {
				"down": { "uv": [ 6, 13, 6.5, 15 ], "texture": "#texture" },
				"up": { "uv": [ 6, 1, 6.5, 3 ], "texture": "#texture" },
				"north": { "uv": [ 9.5, 7, 10, 7.5 ], "texture": "#texture" },
				"south": { "uv": [ 6, 7, 6.5, 7.5 ], "texture": "#texture" },
				"west": { "uv": [ 1, 7, 3, 7.5 ], "texture": "#texture" },
				"east": { "uv": [ 13, 7, 15, 7.5 ], "texture": "#texture" }
			}
		},
		{
			"__comment": "Box117",
			"from": [ 5.5, 24.5, 1.2 ],
			"to": [ 6, 25, 2.8 ],
			"rotation": { "origin": [ 5.5, 21, 2 ], "axis": "x", "angle": 22.5 },
			"faces": {
				"down": { "uv": [ 6, 13, 6.5, 15 ], "texture": "#texture" },
				"up": { "uv": [ 6, 1, 6.5, 3 ], "texture": "#texture" },
				"north": { "uv": [ 9.5, 7, 10, 7.5 ], "texture": "#texture" },
				"south": { "uv": [ 6, 7, 6.5, 7.5 ], "texture": "#texture" },
				"west": { "uv": [ 1, 7, 3, 7.5 ], "texture": "#texture" },
				"east": { "uv": [ 13, 7, 15, 7.5 ], "texture": "#texture" }
			}
		},
		{
			"__comment": "Box117",
			"from": [ 5.5, 24.5, 1.2 ],
			"to": [ 6, 25, 2.8 ],
			"rotation": { "origin": [ 5.5, 21, 2 ], "axis": "x", "angle": -22.5 },
			"faces": {
				"down": { "uv": [ 6, 13, 6.5, 15 ], "texture": "#texture" },
				"up": { "uv": [ 6, 1, 6.5, 3 ], "texture": "#texture" },
				"north": { "uv": [ 9.5, 7, 10, 7.5 ], "texture": "#texture" },
				"south": { "uv": [ 6, 7, 6.5, 7.5 ], "texture": "#texture" },
				"west": { "uv": [ 1, 7, 3, 7.5 ], "texture": "#texture" },
				"east": { "uv": [ 13, 7, 15, 7.5 ], "texture": "#texture" }
			}
		},
		{
			"__comment": "Box117",
			"from": [ 5.5, 24.5, 1.2 ],
			"to": [ 6, 25, 2.8 ],
			"rotation": { "origin": [ 5.5, 21, 2 ], "axis": "x", "angle": -45 },
			"faces": {
				"down": { "uv": [ 6, 13, 6.5, 15 ], "texture": "#texture" },
				"up": { "uv": [ 6, 1, 6.5, 3 ], "texture": "#texture" },
				"north": { "uv": [ 9.5, 7, 10, 7.5 ], "texture": "#texture" },
				"south": { "uv": [ 6, 7, 6.5, 7.5 ], "texture": "#texture" },
				"west": { "uv": [ 1, 7, 3, 7.5 ], "texture": "#texture" },
				"east": { "uv": [ 13, 7, 15, 7.5 ], "texture": "#texture" }
			}
		},
		{
			"__comment": "Box117",
			"from": [ 5.5, 24.5, 1.2 ],
			"to": [ 6, 25, 2.8 ],
			"rotation": { "origin": [ 5.5, 21, 2 ], "axis": "x", "angle": 45 },
			"faces": {
				"down": { "uv": [ 6, 7, 6.5, 7.5 ], "texture": "#texture" },
				"up": { "uv": [ 10, 7.5, 9.5, 7 ], "texture": "#texture" },
				"north": { "uv": [ 6.5, 15, 6, 13 ], "texture": "#texture" },
				"south": { "uv": [ 6, 1, 6.5, 3 ], "texture": "#texture" },
				"west": { "uv": [ 1, 7, 3, 7.5 ], "texture": "#texture", "rotation": 90 },
				"east": { "uv": [ 13, 7, 15, 7.5 ], "texture": "#texture", "rotation": 270 }
			}
		},
		{
			"__comment": "Box117",
			"from": [ 5.5, 20.2, 5.5 ],
			"to": [ 6, 21.8, 6 ],
			"rotation": { "origin": [ 5.5, 21, 2 ], "axis": "x", "angle": -22.5 },
			"faces": {
				"down": { "uv": [ 6, 7, 6.5, 7.5 ], "texture": "#texture" },
				"up": { "uv": [ 10, 7.5, 9.5, 7 ], "texture": "#texture" },
				"north": { "uv": [ 6.5, 15, 6, 13 ], "texture": "#texture" },
				"south": { "uv": [ 6, 1, 6.5, 3 ], "texture": "#texture" },
				"west": { "uv": [ 1, 7, 3, 7.5 ], "texture": "#texture", "rotation": 90 },
				"east": { "uv": [ 13, 7, 15, 7.5 ], "texture": "#texture", "rotation": 270 }
			}
		},
		{
			"__comment": "Box117",
			"from": [ 5.5, 20.2, 5.5 ],
			"to": [ 6, 21.8, 6 ],
			"faces": {
				"down": { "uv": [ 6, 7, 6.5, 7.5 ], "texture": "#texture" },
				"up": { "uv": [ 10, 7.5, 9.5, 7 ], "texture": "#texture" },
				"north": { "uv": [ 6.5, 15, 6, 13 ], "texture": "#texture" },
				"south": { "uv": [ 6, 1, 6.5, 3 ], "texture": "#texture" },
				"west": { "uv": [ 1, 7, 3, 7.5 ], "texture": "#texture", "rotation": 90 },
				"east": { "uv": [ 13, 7, 15, 7.5 ], "texture": "#texture", "rotation": 270 }
			}
		},
		{
			"__comment": "Box117",
			"from": [ 5.5, 20.2, -2 ],
			"to": [ 6, 21.8, -1.5 ],
			"rotation": { "origin": [ 5.5, 21, 2 ], "axis": "x", "angle": 22.5 },
			"faces": {
				"down": { "uv": [ 6, 7, 6.5, 7.5 ], "texture": "#texture" },
				"up": { "uv": [ 10, 7.5, 9.5, 7 ], "texture": "#texture" },
				"north": { "uv": [ 6.5, 15, 6, 13 ], "texture": "#texture" },
				"south": { "uv": [ 6, 1, 6.5, 3 ], "texture": "#texture" },
				"west": { "uv": [ 1, 7, 3, 7.5 ], "texture": "#texture", "rotation": 90 },
				"east": { "uv": [ 13, 7, 15, 7.5 ], "texture": "#texture", "rotation": 270 }
			}
		},
		{
			"__comment": "Box117",
			"from": [ 5.5, 20.2, -2 ],
			"to": [ 6, 21.8, -1.5 ],
			"faces": {
				"down": { "uv": [ 6, 7, 6.5, 7.5 ], "texture": "#texture" },
				"up": { "uv": [ 10, 7.5, 9.5, 7 ], "texture": "#texture" },
				"north": { "uv": [ 6.5, 15, 6, 13 ], "texture": "#texture" },
				"south": { "uv": [ 6, 1, 6.5, 3 ], "texture": "#texture" },
				"west": { "uv": [ 1, 7, 3, 7.5 ], "texture": "#texture", "rotation": 90 },
				"east": { "uv": [ 13, 7, 15, 7.5 ], "texture": "#texture", "rotation": 270 }
			}
		},
		{
			"__comment": "Box117",
			"from": [ 5.5, 20.2, -2 ],
			"to": [ 6, 21.8, -1.5 ],
			"rotation": { "origin": [ 5.5, 21, 2 ], "axis": "x", "angle": -22.5 },
			"faces": {
				"down": { "uv": [ 6, 7, 6.5, 7.5 ], "texture": "#texture" },
				"up": { "uv": [ 10, 7.5, 9.5, 7 ], "texture": "#texture" },
				"north": { "uv": [ 6.5, 15, 6, 13 ], "texture": "#texture" },
				"south": { "uv": [ 6, 1, 6.5, 3 ], "texture": "#texture" },
				"west": { "uv": [ 1, 7, 3, 7.5 ], "texture": "#texture", "rotation": 90 },
				"east": { "uv": [ 13, 7, 15, 7.5 ], "texture": "#texture", "rotation": 270 }
			}
		},
		{
			"__comment": "Box117",
			"from": [ 5.5, 17, 1.2 ],
			"to": [ 6, 17.5, 2.8 ],
			"rotation": { "origin": [ 5.5, 21, 2 ], "axis": "x", "angle": 45 },
			"faces": {
				"down": { "uv": [ 6, 7, 6.5, 7.5 ], "texture": "#texture" },
				"up": { "uv": [ 10, 7.5, 9.5, 7 ], "texture": "#texture" },
				"north": { "uv": [ 6.5, 15, 6, 13 ], "texture": "#texture" },
				"south": { "uv": [ 6, 1, 6.5, 3 ], "texture": "#texture" },
				"west": { "uv": [ 1, 7, 3, 7.5 ], "texture": "#texture", "rotation": 90 },
				"east": { "uv": [ 13, 7, 15, 7.5 ], "texture": "#texture", "rotation": 270 }
			}
		},
		{
			"__comment": "Box117",
			"from": [ 5.5, 17, 1.2 ],
			"to": [ 6, 17.5, 2.8 ],
			"rotation": { "origin": [ 5.5, 21, 2 ], "axis": "x", "angle": 22.5 },
			"faces": {
				"down": { "uv": [ 6, 7, 6.5, 7.5 ], "texture": "#texture" },
				"up": { "uv": [ 10, 7.5, 9.5, 7 ], "texture": "#texture" },
				"north": { "uv": [ 6.5, 15, 6, 13 ], "texture": "#texture" },
				"south": { "uv": [ 6, 1, 6.5, 3 ], "texture": "#texture" },
				"west": { "uv": [ 1, 7, 3, 7.5 ], "texture": "#texture", "rotation": 90 },
				"east": { "uv": [ 13, 7, 15, 7.5 ], "texture": "#texture", "rotation": 270 }
			}
		},
		{
			"__comment": "Box117",
			"from": [ 5.5, 17, 1.2 ],
			"to": [ 6, 17.5, 2.8 ],
			"faces": {
				"down": { "uv": [ 6, 7, 6.5, 7.5 ], "texture": "#texture" },
				"up": { "uv": [ 10, 7.5, 9.5, 7 ], "texture": "#texture" },
				"north": { "uv": [ 6.5, 15, 6, 13 ], "texture": "#texture" },
				"south": { "uv": [ 6, 1, 6.5, 3 ], "texture": "#texture" },
				"west": { "uv": [ 1, 7, 3, 7.5 ], "texture": "#texture", "rotation": 90 },
				"east": { "uv": [ 13, 7, 15, 7.5 ], "texture": "#texture", "rotation": 270 }
			}
		},
		{
			"__comment": "Box117",
			"from": [ 5.5, 17, 1.2 ],
			"to": [ 6, 17.5, 2.8 ],
			"rotation": { "origin": [ 5.5, 21, 2 ], "axis": "x", "angle": -22.5 },
			"faces": {
				"down": { "uv": [ 6, 7, 6.5, 7.5 ], "texture": "#texture" },
				"up": { "uv": [ 10, 7.5, 9.5, 7 ], "texture": "#texture" },
				"north": { "uv": [ 6.5, 15, 6, 13 ], "texture": "#texture" },
				"south": { "uv": [ 6, 1, 6.5, 3 ], "texture": "#texture" },
				"west": { "uv": [ 1, 7, 3, 7.5 ], "texture": "#texture", "rotation": 90 },
				"east": { "uv": [ 13, 7, 15, 7.5 ], "texture": "#texture", "rotation": 270 }
			}
		},
		{
			"__comment": "Box117",
			"from": [ 5.5, 20.2, 5.5 ],
			"to": [ 6, 21.8, 6 ],
			"rotation": { "origin": [ 5.5, 21, 2 ], "axis": "x", "angle": 45 },
			"faces": {
				"down": { "uv": [ 6, 7, 6.5, 7.5 ], "texture": "#texture" },
				"up": { "uv": [ 10, 7.5, 9.5, 7 ], "texture": "#texture" },
				"north": { "uv": [ 6.5, 15, 6, 13 ], "texture": "#texture" },
				"south": { "uv": [ 6, 1, 6.5, 3 ], "texture": "#texture" },
				"west": { "uv": [ 1, 7, 3, 7.5 ], "texture": "#texture", "rotation": 90 },
				"east": { "uv": [ 13, 7, 15, 7.5 ], "texture": "#texture", "rotation": 270 }
			}
		},
		{
			"__comment": "Box117",
			"from": [ 5.5, 20.2, 5.5 ],
			"to": [ 6, 21.8, 6 ],
			"rotation": { "origin": [ 5.5, 21, 2 ], "axis": "x", "angle": 22.5 },
			"faces": {
				"down": { "uv": [ 6, 7, 6.5, 7.5 ], "texture": "#texture" },
				"up": { "uv": [ 10, 7.5, 9.5, 7 ], "texture": "#texture" },
				"north": { "uv": [ 6.5, 15, 6, 13 ], "texture": "#texture" },
				"south": { "uv": [ 6, 1, 6.5, 3 ], "texture": "#texture" },
				"west": { "uv": [ 1, 7, 3, 7.5 ], "texture": "#texture", "rotation": 90 },
				"east": { "uv": [ 13, 7, 15, 7.5 ], "texture": "#texture", "rotation": 270 }
			}
		},
		{
			"__comment": "Box138",
			"from": [ 5.4, 24.2, 3 ],
			"to": [ 6.4, 24.9, 3.7 ],
			"faces": {
				"down": { "uv": [ 5.5, 12.3, 6.5, 13 ], "texture": "#texture" },
				"up": { "uv": [ 5.5, 3, 6.5, 3.7 ], "texture": "#texture" },
				"north": { "uv": [ 9.5, 7.149998, 10.5, 7.849998 ], "texture": "#texture" },
				"south": { "uv": [ 5.5, 7.149998, 6.5, 7.849998 ], "texture": "#texture" },
				"west": { "uv": [ 3, 7.149998, 3.7, 7.849998 ], "texture": "#texture" },
				"east": { "uv": [ 12.3, 7.149998, 13, 7.849998 ], "texture": "#texture" }
			}
		}
	],
	"display": {
		"thirdperson_righthand": {
			"rotation":  [ 0, 180, 0 ],
			"translation":  [ 0, -0.695, 0 ],
			"scale":  [ 0.15, 0.15, 0.15 ]
		},
		"thirdperson_lefthand": {
			"rotation":  [ 0, 180, 0 ],
			"translation":  [ 0, -0.695, 0 ],
			"scale":  [ 0.15, 0.15, 0.15 ]
		},
		"firstperson_righthand": {
			"rotation":  [ -14, 180, 16 ],
			"translation":  [ 0.6956, 0.6956, 0 ],
			"scale":  [ 0.2, 0.2, 0.2 ]
		},
		"firstperson_lefthand": {
			"rotation":  [ -14, 180, 16 ],
			"translation":  [ 0.6956, 0.6956, 0 ],
			"scale":  [ 0.2, 0.2, 0.2 ]
		},
		"gui": {
			"rotation":  [ 90, -120, 90 ],
			"translation":  [ -2.086, -2.782, 0 ],
			"scale":  [ 0.5, 0.5, 0.5 ]
		},
		"ground": {
			"rotation":  [ 0, 0, 90 ],
			"translation":  [ 0, -0.695, 0 ],
			"scale":  [ 0.2, 0.2, 0.2 ]
		},
		"fixed": {
			"rotation":  [ 0, -90, 0 ],
			"translation":  [ 0, -4.173, 0 ],
			"scale":  [ 0.6, 0.6, 0.6 ]
		}
	}
}