{
	"__comment": "Designed by Neo2057 with Cubik Studio - https://cubik.studio",
	"textures": {
		"particle": "items/29",
		"texture": "items/29"
	},
	"elements": [ 	 
		{
			"__comment": "Box1",
			"from": [ 6.75, 7.875, 0 ],
			"to": [ 9.25, 16.125, 16 ],
			"faces": {
				"down": { "uv": [ 6.75, 0, 9.25, 16 ], "texture": "#texture" },
				"up": { "uv": [ 6.75, 0, 9.25, 16 ], "texture": "#texture" },
				"north": { "uv": [ 6.75, 0, 9.25, 8.125 ], "texture": "#texture" },
				"south": { "uv": [ 6.75, 0, 9.25, 8.125 ], "texture": "#texture" },
				"west": { "uv": [ 0, 0, 16, 8.125 ], "texture": "#texture" },
				"east": { "uv": [ 0, 0, 16, 8.125 ], "texture": "#texture" }
			}
		},
		{
			"__comment": "Box1",
			"from": [ 7.125, 7.75, -0.125 ],
			"to": [ 8.875, 16.25, 16.125 ],
			"faces": {
				"down": { "uv": [ 6.875, 0, 9.125, 16 ], "texture": "#texture" },
				"up": { "uv": [ 6.875, 0, 9.125, 16 ], "texture": "#texture" },
				"north": { "uv": [ 6.875, 0, 9.125, 8 ], "texture": "#texture" },
				"south": { "uv": [ 6.875, 0, 9.125, 8 ], "texture": "#texture" },
				"west": { "uv": [ 0, 0, 16, 8 ], "texture": "#texture" },
				"east": { "uv": [ 0, 0, 16, 8 ], "texture": "#texture" }
			}
		},
		{
			"__comment": "Box1",
			"from": [ 7.125, 7.875, -0.25 ],
			"to": [ 8.875, 16.125, 16.25 ],
			"faces": {
				"down": { "uv": [ 6.875, 0, 9.125, 16 ], "texture": "#texture" },
				"up": { "uv": [ 6.875, 0, 9.125, 16 ], "texture": "#texture" },
				"north": { "uv": [ 6.875, 0, 9.125, 8 ], "texture": "#texture" },
				"south": { "uv": [ 6.875, 0, 9.125, 8 ], "texture": "#texture" },
				"west": { "uv": [ 0, 0, 16, 8 ], "texture": "#texture" },
				"east": { "uv": [ 0, 0, 16, 8 ], "texture": "#texture" }
			}
		},
		{
			"__comment": "Box1",
			"from": [ 7.125, 16.125, -0.25 ],
			"to": [ 8.875, 16.305, -0.15 ],
			"rotation": { "origin": [ 7.125, 16.125, -0.25 ], "axis": "x", "angle": 45 },
			"faces": {
				"down": { "uv": [ 6.875, 0, 9.125, 16 ], "texture": "#texture" },
				"up": { "uv": [ 6.875, 0, 9.125, 16 ], "texture": "#texture" },
				"north": { "uv": [ 6.875, 0, 9.125, 8 ], "texture": "#texture" },
				"south": { "uv": [ 6.875, 0, 9.125, 8 ], "texture": "#texture" },
				"west": { "uv": [ 0, 0, 16, 8 ], "texture": "#texture" },
				"east": { "uv": [ 0, 0, 16, 8 ], "texture": "#texture" }
			}
		},
		{
			"__comment": "Box1",
			"from": [ 7.125, 7.875, -0.25 ],
			"to": [ 8.875, 8.055, -0.06999999 ],
			"rotation": { "origin": [ 7.125, 7.875, -0.25 ], "axis": "x", "angle": 45 },
			"faces": {
				"down": { "uv": [ 6.875, 0, 9.125, 16 ], "texture": "#texture" },
				"up": { "uv": [ 6.875, 0, 9.125, 16 ], "texture": "#texture" },
				"north": { "uv": [ 6.875, 0, 9.125, 8 ], "texture": "#texture" },
				"south": { "uv": [ 6.875, 0, 9.125, 8 ], "texture": "#texture" },
				"west": { "uv": [ 0, 0, 16, 8 ], "texture": "#texture" },
				"east": { "uv": [ 0, 0, 16, 8 ], "texture": "#texture" }
			}
		},
		{
			"__comment": "Box1",
			"from": [ 7.125, 7.75, 16.125 ],
			"to": [ 8.875, 7.93, 16.305 ],
			"rotation": { "origin": [ 7.125, 7.75, 16.125 ], "axis": "x", "angle": -45 },
			"faces": {
				"down": { "uv": [ 6.875, 0, 9.125, 8 ], "texture": "#texture" },
				"up": { "uv": [ 9.125, 8, 6.875, 0 ], "texture": "#texture" },
				"north": { "uv": [ 9.125, 16, 6.875, 0 ], "texture": "#texture" },
				"south": { "uv": [ 6.875, 0, 9.125, 16 ], "texture": "#texture" },
				"west": { "uv": [ 0, 0, 16, 8 ], "texture": "#texture", "rotation": 90 },
				"east": { "uv": [ 0, 0, 16, 8 ], "texture": "#texture", "rotation": 270 }
			}
		},
		{
			"__comment": "Box1",
			"from": [ 7.125, 16.07, 16.125 ],
			"to": [ 8.875, 16.25, 16.305 ],
			"rotation": { "origin": [ 7.125, 16.25, 16.125 ], "axis": "x", "angle": 45 },
			"faces": {
				"down": { "uv": [ 6.875, 0, 9.125, 8 ], "texture": "#texture" },
				"up": { "uv": [ 9.125, 8, 6.875, 0 ], "texture": "#texture" },
				"north": { "uv": [ 9.125, 16, 6.875, 0 ], "texture": "#texture" },
				"south": { "uv": [ 6.875, 0, 9.125, 16 ], "texture": "#texture" },
				"west": { "uv": [ 0, 0, 16, 8 ], "texture": "#texture", "rotation": 90 },
				"east": { "uv": [ 0, 0, 16, 8 ], "texture": "#texture", "rotation": 270 }
			}
		},
		{
			"__comment": "Box1",
			"from": [ 6.75, 8, -0.125 ],
			"to": [ 9.25, 16, 16.125 ],
			"faces": {
				"down": { "uv": [ 6.75, 0, 9.25, 16 ], "texture": "#texture" },
				"up": { "uv": [ 6.75, 0, 9.25, 16 ], "texture": "#texture" },
				"north": { "uv": [ 6.75, 0, 9.25, 8.125 ], "texture": "#texture" },
				"south": { "uv": [ 6.75, 0, 9.25, 8.125 ], "texture": "#texture" },
				"west": { "uv": [ 0, 0, 16, 8.125 ], "texture": "#texture" },
				"east": { "uv": [ 0, 0, 16, 8.125 ], "texture": "#texture" }
			}
		},
		{
			"__comment": "Box1",
			"from": [ 6.75, 8, -0.125 ],
			"to": [ 9.25, 8.18, 0.05500001 ],
			"rotation": { "origin": [ 6.75, 8, -0.125 ], "axis": "x", "angle": 45 },
			"faces": {
				"down": { "uv": [ 6.875, 0, 9.125, 16 ], "texture": "#texture" },
				"up": { "uv": [ 6.875, 0, 9.125, 16 ], "texture": "#texture" },
				"north": { "uv": [ 6.875, 0, 9.125, 8 ], "texture": "#texture" },
				"south": { "uv": [ 6.875, 0, 9.125, 8 ], "texture": "#texture" },
				"west": { "uv": [ 0, 0, 16, 8 ], "texture": "#texture" },
				"east": { "uv": [ 0, 0, 16, 8 ], "texture": "#texture" }
			}
		},
		{
			"__comment": "Box1",
			"from": [ 6.75, 16, -0.125 ],
			"to": [ 9.25, 16.18, 0.05500001 ],
			"rotation": { "origin": [ 6.75, 16, -0.125 ], "axis": "x", "angle": 45 },
			"faces": {
				"down": { "uv": [ 6.875, 0, 9.125, 16 ], "texture": "#texture" },
				"up": { "uv": [ 6.875, 0, 9.125, 16 ], "texture": "#texture" },
				"north": { "uv": [ 6.875, 0, 9.125, 8 ], "texture": "#texture" },
				"south": { "uv": [ 6.875, 0, 9.125, 8 ], "texture": "#texture" },
				"west": { "uv": [ 0, 0, 16, 8 ], "texture": "#texture" },
				"east": { "uv": [ 0, 0, 16, 8 ], "texture": "#texture" }
			}
		},
		{
			"__comment": "Box1",
			"from": [ 6.75, 8, 15.875 ],
			"to": [ 9.25, 8.18, 16.055 ],
			"rotation": { "origin": [ 6.75, 8, 15.875 ], "axis": "x", "angle": 45 },
			"faces": {
				"down": { "uv": [ 6.875, 0, 9.125, 16 ], "texture": "#texture" },
				"up": { "uv": [ 6.875, 0, 9.125, 16 ], "texture": "#texture" },
				"north": { "uv": [ 6.875, 0, 9.125, 8 ], "texture": "#texture" },
				"south": { "uv": [ 6.875, 0, 9.125, 8 ], "texture": "#texture" },
				"west": { "uv": [ 0, 0, 16, 8 ], "texture": "#texture" },
				"east": { "uv": [ 0, 0, 16, 8 ], "texture": "#texture" }
			}
		},
		{
			"__comment": "Box1",
			"from": [ 6.75, 16, 15.875 ],
			"to": [ 9.25, 16.18, 16.055 ],
			"rotation": { "origin": [ 6.75, 16, 15.875 ], "axis": "x", "angle": 45 },
			"faces": {
				"down": { "uv": [ 6.875, 0, 9.125, 16 ], "texture": "#texture" },
				"up": { "uv": [ 6.875, 0, 9.125, 16 ], "texture": "#texture" },
				"north": { "uv": [ 6.875, 0, 9.125, 8 ], "texture": "#texture" },
				"south": { "uv": [ 6.875, 0, 9.125, 8 ], "texture": "#texture" },
				"west": { "uv": [ 0, 0, 16, 8 ], "texture": "#texture" },
				"east": { "uv": [ 0, 0, 16, 8 ], "texture": "#texture" }
			}
		}
	],
	"display": {
		"thirdperson_righthand": {
			"translation":  [ 0, -0.695, 0 ],
			"scale":  [ 0.15, 0.15, 0.15 ]
		},
		"thirdperson_lefthand": {
			"translation":  [ 0, -0.695, 0 ],
			"scale":  [ 0.15, 0.15, 0.15 ]
		},
		"firstperson_righthand": {
			"translation":  [ 0, 0.6956, 0 ],
			"scale":  [ 0.2, 0.2, 0.2 ]
		},
		"firstperson_lefthand": {
			"translation":  [ 0, 0.6956, 0 ],
			"scale":  [ 0.2, 0.2, 0.2 ]
		},
		"gui": {
			"rotation":  [ 90, 45, -90 ],
			"translation":  [ -2.086, -2.086, 0 ],
			"scale":  [ 0.8, 0.8, 0.8 ]
		},
		"ground": {
			"rotation":  [ 0, 0, 90 ],
			"translation":  [ 0.8, -0.695, 0 ],
			"scale":  [ 0.2, 0.2, 0.2 ]
		},
		"fixed": {
			"rotation":  [ 90, 140, -90 ],
			"translation":  [ 2.7826, -2.782, 0 ]
		}
	}
}