{
	"__comment": "© 2017 purogura83",
	"textures": {
		"6": "items/6",
		"4": "items/4"
	},
	"elements": [ 	 
		{
			"__comment": "Box2",
			"from": [ 6.625, 13.125, -5.375 ],
			"to": [ 9.5, 16.375, -2.875 ],
			"faces": {
				"down": { "uv": [ 6.625, 2.875, 9.5, 5.375 ], "texture": "#4" },
				"up": { "uv": [ 6.625, 10.625, 9.5, 13.125 ], "texture": "#4" },
				"north": { "uv": [ 6.5, 0, 9.375, 2.875 ], "texture": "#4" },
				"south": { "uv": [ 6.625, 0, 9.5, 2.875 ], "texture": "#4" },
				"west": { "uv": [ 10.625, 0, 13.125, 2.875 ], "texture": "#4" },
				"east": { "uv": [ 2.875, 0, 5.375, 2.875 ], "texture": "#4" }
			}
		},
		{
			"__comment": "Box2",
			"from": [ 7.5, 12.625, -2.875 ],
			"to": [ 8.5, 16.625, 16 ],
			"faces": {
				"down": { "uv": [ 6, 15, 7, 16 ], "texture": "#6" },
				"up": { "uv": [ 6, 0, 7, 1 ], "texture": "#6" },
				"north": { "uv": [ 9, 0, 10, 3 ], "texture": "#6" },
				"south": { "uv": [ 6, 0, 7, 3 ], "texture": "#6" },
				"west": { "uv": [ 0, 0, 1, 3 ], "texture": "#6" },
				"east": { "uv": [ 15, 0, 16, 3 ], "texture": "#6" }
			}
		},
		{
			"__comment": "Box2",
			"from": [ 7.5, 12.625, -2.875 ],
			"to": [ 8.5, 16.625, 16 ],
			"rotation": { "origin": [ 8, 14.625, -2.875 ], "axis": "z", "angle": -22.5 },
			"faces": {
				"down": { "uv": [ 0, 0, 1, 3 ], "texture": "#6", "rotation": 270 },
				"up": { "uv": [ 16, 3, 15, 0 ], "texture": "#6", "rotation": 90 },
				"north": { "uv": [ 9, 0, 10, 3 ], "texture": "#6", "rotation": 90 },
				"south": { "uv": [ 6, 0, 7, 3 ], "texture": "#6", "rotation": 270 },
				"west": { "uv": [ 7, 1, 6, 0 ], "texture": "#6", "rotation": 90 },
				"east": { "uv": [ 6, 15, 7, 16 ], "texture": "#6", "rotation": 270 }
			}
		},
		{
			"__comment": "Box2",
			"from": [ 7.5, 12.625, -2.875 ],
			"to": [ 8.5, 16.625, 16 ],
			"rotation": { "origin": [ 8, 14.625, -2.875 ], "axis": "z", "angle": 22.5 },
			"faces": {
				"down": { "uv": [ 0, 0, 1, 3 ], "texture": "#6", "rotation": 270 },
				"up": { "uv": [ 16, 3, 15, 0 ], "texture": "#6", "rotation": 90 },
				"north": { "uv": [ 9, 0, 10, 3 ], "texture": "#6", "rotation": 90 },
				"south": { "uv": [ 6, 0, 7, 3 ], "texture": "#6", "rotation": 270 },
				"west": { "uv": [ 7, 1, 6, 0 ], "texture": "#6", "rotation": 90 },
				"east": { "uv": [ 6, 15, 7, 16 ], "texture": "#6", "rotation": 270 }
			}
		},
		{
			"__comment": "Box2",
			"from": [ 7.5, 12.625, -2.875 ],
			"to": [ 8.5, 16.625, 16 ],
			"rotation": { "origin": [ 8, 14.625, -2.875 ], "axis": "z", "angle": -45 },
			"faces": {
				"down": { "uv": [ 0, 0, 1, 3 ], "texture": "#6", "rotation": 270 },
				"up": { "uv": [ 16, 3, 15, 0 ], "texture": "#6", "rotation": 90 },
				"north": { "uv": [ 9, 0, 10, 3 ], "texture": "#6", "rotation": 90 },
				"south": { "uv": [ 6, 0, 7, 3 ], "texture": "#6", "rotation": 270 },
				"west": { "uv": [ 7, 1, 6, 0 ], "texture": "#6", "rotation": 90 },
				"east": { "uv": [ 6, 15, 7, 16 ], "texture": "#6", "rotation": 270 }
			}
		},
		{
			"__comment": "Box2",
			"from": [ 7.5, 12.625, -2.875 ],
			"to": [ 8.5, 16.625, 16 ],
			"rotation": { "origin": [ 8, 14.625, -2.875 ], "axis": "z", "angle": 45 },
			"faces": {
				"down": { "uv": [ 0, 0, 1, 3 ], "texture": "#6", "rotation": 270 },
				"up": { "uv": [ 16, 3, 15, 0 ], "texture": "#6", "rotation": 90 },
				"north": { "uv": [ 9, 0, 10, 3 ], "texture": "#6", "rotation": 90 },
				"south": { "uv": [ 6, 0, 7, 3 ], "texture": "#6", "rotation": 270 },
				"west": { "uv": [ 7, 1, 6, 0 ], "texture": "#6", "rotation": 90 },
				"east": { "uv": [ 6, 15, 7, 16 ], "texture": "#6", "rotation": 270 }
			}
		},
		{
			"__comment": "Box2",
			"from": [ 6, 14.125, -2.875 ],
			"to": [ 10, 15.125, 16 ],
			"rotation": { "origin": [ 8, 14.625, -2.875 ], "axis": "z", "angle": 22.5 },
			"faces": {
				"down": { "uv": [ 0, 0, 1, 3 ], "texture": "#6", "rotation": 270 },
				"up": { "uv": [ 16, 3, 15, 0 ], "texture": "#6", "rotation": 90 },
				"north": { "uv": [ 9, 0, 10, 3 ], "texture": "#6", "rotation": 90 },
				"south": { "uv": [ 6, 0, 7, 3 ], "texture": "#6", "rotation": 270 },
				"west": { "uv": [ 7, 1, 6, 0 ], "texture": "#6", "rotation": 90 },
				"east": { "uv": [ 6, 15, 7, 16 ], "texture": "#6", "rotation": 270 }
			}
		},
		{
			"__comment": "Box2",
			"from": [ 6, 14.125, -2.875 ],
			"to": [ 10, 15.125, 16 ],
			"rotation": { "origin": [ 8, 14.625, -2.875 ], "axis": "z", "angle": -22.5 },
			"faces": {
				"down": { "uv": [ 0, 0, 1, 3 ], "texture": "#6", "rotation": 270 },
				"up": { "uv": [ 16, 3, 15, 0 ], "texture": "#6", "rotation": 90 },
				"north": { "uv": [ 9, 0, 10, 3 ], "texture": "#6", "rotation": 90 },
				"south": { "uv": [ 6, 0, 7, 3 ], "texture": "#6", "rotation": 270 },
				"west": { "uv": [ 7, 1, 6, 0 ], "texture": "#6", "rotation": 90 },
				"east": { "uv": [ 6, 15, 7, 16 ], "texture": "#6", "rotation": 270 }
			}
		},
		{
			"__comment": "Box2",
			"from": [ 6, 14.125, -2.875 ],
			"to": [ 10, 15.125, 16 ],
			"faces": {
				"down": { "uv": [ 0, 0, 1, 3 ], "texture": "#6", "rotation": 270 },
				"up": { "uv": [ 16, 3, 15, 0 ], "texture": "#6", "rotation": 90 },
				"north": { "uv": [ 9, 0, 10, 3 ], "texture": "#6", "rotation": 90 },
				"south": { "uv": [ 6, 0, 7, 3 ], "texture": "#6", "rotation": 270 },
				"west": { "uv": [ 7, 1, 6, 0 ], "texture": "#6", "rotation": 90 },
				"east": { "uv": [ 6, 15, 7, 16 ], "texture": "#6", "rotation": 270 }
			}
		},
		{
			"__comment": "Box2",
			"from": [ 6.375, 11.125, -5.375 ],
			"to": [ 9.75, 13.25, -2.875 ],
			"faces": {
				"down": { "uv": [ 6.625, 2.875, 9.5, 5.375 ], "texture": "#4" },
				"up": { "uv": [ 6.625, 10.625, 9.5, 13.125 ], "texture": "#4" },
				"north": { "uv": [ 6.5, 0, 9.375, 2.875 ], "texture": "#4" },
				"south": { "uv": [ 6.625, 0, 9.5, 2.875 ], "texture": "#4" },
				"west": { "uv": [ 10.625, 0, 13.125, 2.875 ], "texture": "#4" },
				"east": { "uv": [ 2.875, 0, 5.375, 2.875 ], "texture": "#4" }
			}
		},
		{
			"__comment": "Box12",
			"from": [ 6.375, 13.25, -5.375 ],
			"to": [ 7, 14.25, -2.875 ],
			"rotation": { "origin": [ 6.375, 13.25, -5.375 ], "axis": "z", "angle": -22.5 },
			"faces": {
				"down": { "uv": [ 6.75, 0, 7.375, 1 ], "texture": "#4" },
				"up": { "uv": [ 6.75, 15, 7.375, 16 ], "texture": "#4" },
				"north": { "uv": [ 8.625, 1.75, 9.25, 2.75 ], "texture": "#4" },
				"south": { "uv": [ 6.75, 1.75, 7.375, 2.75 ], "texture": "#4" },
				"west": { "uv": [ 15, 1.75, 16, 2.75 ], "texture": "#4" },
				"east": { "uv": [ 0, 1.75, 1, 2.75 ], "texture": "#4" }
			}
		},
		{
			"__comment": "Box12",
			"from": [ 9.125, 13.25, -5.375 ],
			"to": [ 9.75, 14.25, -2.875 ],
			"rotation": { "origin": [ 9.75, 13.25, -5.375 ], "axis": "z", "angle": 22.5 },
			"faces": {
				"down": { "uv": [ 6.75, 0, 7.375, 1 ], "texture": "#4" },
				"up": { "uv": [ 6.75, 15, 7.375, 16 ], "texture": "#4" },
				"north": { "uv": [ 8.625, 1.75, 9.25, 2.75 ], "texture": "#4" },
				"south": { "uv": [ 6.75, 1.75, 7.375, 2.75 ], "texture": "#4" },
				"west": { "uv": [ 15, 1.75, 16, 2.75 ], "texture": "#4" },
				"east": { "uv": [ 0, 1.75, 1, 2.75 ], "texture": "#4" }
			}
		},
		{
			"__comment": "Box14",
			"from": [ 7.25, 11.25, -2.875 ],
			"to": [ 8.75, 12.75, 5.75 ],
			"faces": {
				"down": { "uv": [ 7.25, 10.25, 8.75, 16 ], "texture": "#4" },
				"up": { "uv": [ 7.25, 0, 8.75, 5.75 ], "texture": "#4" },
				"north": { "uv": [ 7.25, 3.25, 8.75, 4.75 ], "texture": "#4" },
				"south": { "uv": [ 7.25, 3.25, 8.75, 4.75 ], "texture": "#4" },
				"west": { "uv": [ 0, 3.25, 5.75, 4.75 ], "texture": "#4" },
				"east": { "uv": [ 10.25, 3.25, 16, 4.75 ], "texture": "#4" }
			}
		},
		{
			"__comment": "Box14",
			"from": [ 7.815, 11.32, -6 ],
			"to": [ 8.19, 12.695, -3.375 ],
			"faces": {
				"down": { "uv": [ 0, 0.625, 0.375, 1 ], "texture": "#4" },
				"up": { "uv": [ 0, 15, 0.375, 15.375 ], "texture": "#4" },
				"north": { "uv": [ 15.625, 3.625, 16, 5 ], "texture": "#4" },
				"south": { "uv": [ 0, 3.625, 0.375, 5 ], "texture": "#4" },
				"west": { "uv": [ 15, 3.625, 15.375, 5 ], "texture": "#4" },
				"east": { "uv": [ 0.625, 3.625, 1, 5 ], "texture": "#4" }
			}
		},
		{
			"__comment": "Box14",
			"from": [ 7.815, 11.32, -6 ],
			"to": [ 8.19, 12.695, -3.375 ],
			"rotation": { "origin": [ 8, 12, -6 ], "axis": "z", "angle": -22.5 },
			"faces": {
				"down": { "uv": [ 15, 3.625, 15.375, 5 ], "texture": "#4", "rotation": 270 },
				"up": { "uv": [ 1, 5, 0.625, 3.625 ], "texture": "#4", "rotation": 90 },
				"north": { "uv": [ 15.625, 3.625, 16, 5 ], "texture": "#4", "rotation": 90 },
				"south": { "uv": [ 0, 3.625, 0.375, 5 ], "texture": "#4", "rotation": 270 },
				"west": { "uv": [ 0.375, 15.375, 0, 15 ], "texture": "#4", "rotation": 90 },
				"east": { "uv": [ 0, 0.625, 0.375, 1 ], "texture": "#4", "rotation": 270 }
			}
		},
		{
			"__comment": "Box14",
			"from": [ 7.815, 11.32, -6 ],
			"to": [ 8.19, 12.695, -3.375 ],
			"rotation": { "origin": [ 8, 12, -6 ], "axis": "z", "angle": 22.5 },
			"faces": {
				"down": { "uv": [ 15, 3.625, 15.375, 5 ], "texture": "#4", "rotation": 270 },
				"up": { "uv": [ 1, 5, 0.625, 3.625 ], "texture": "#4", "rotation": 90 },
				"north": { "uv": [ 15.625, 3.625, 16, 5 ], "texture": "#4", "rotation": 90 },
				"south": { "uv": [ 0, 3.625, 0.375, 5 ], "texture": "#4", "rotation": 270 },
				"west": { "uv": [ 0.375, 15.375, 0, 15 ], "texture": "#4", "rotation": 90 },
				"east": { "uv": [ 0, 0.625, 0.375, 1 ], "texture": "#4", "rotation": 270 }
			}
		},
		{
			"__comment": "Box14",
			"from": [ 7.815, 11.32, -6 ],
			"to": [ 8.19, 12.695, -3.375 ],
			"rotation": { "origin": [ 8, 12, -6 ], "axis": "z", "angle": -45 },
			"faces": {
				"down": { "uv": [ 15, 3.625, 15.375, 5 ], "texture": "#4", "rotation": 270 },
				"up": { "uv": [ 1, 5, 0.625, 3.625 ], "texture": "#4", "rotation": 90 },
				"north": { "uv": [ 15.625, 3.625, 16, 5 ], "texture": "#4", "rotation": 90 },
				"south": { "uv": [ 0, 3.625, 0.375, 5 ], "texture": "#4", "rotation": 270 },
				"west": { "uv": [ 0.375, 15.375, 0, 15 ], "texture": "#4", "rotation": 90 },
				"east": { "uv": [ 0, 0.625, 0.375, 1 ], "texture": "#4", "rotation": 270 }
			}
		},
		{
			"__comment": "Box14",
			"from": [ 7.815, 11.32, -6 ],
			"to": [ 8.19, 12.695, -3.375 ],
			"rotation": { "origin": [ 8, 12, -6 ], "axis": "z", "angle": 45 },
			"faces": {
				"down": { "uv": [ 15, 3.625, 15.375, 5 ], "texture": "#4", "rotation": 270 },
				"up": { "uv": [ 1, 5, 0.625, 3.625 ], "texture": "#4", "rotation": 90 },
				"north": { "uv": [ 15.625, 3.625, 16, 5 ], "texture": "#4", "rotation": 90 },
				"south": { "uv": [ 0, 3.625, 0.375, 5 ], "texture": "#4", "rotation": 270 },
				"west": { "uv": [ 0.375, 15.375, 0, 15 ], "texture": "#4", "rotation": 90 },
				"east": { "uv": [ 0, 0.625, 0.375, 1 ], "texture": "#4", "rotation": 270 }
			}
		},
		{
			"__comment": "Box14",
			"from": [ 7.305, 11.815, -6 ],
			"to": [ 8.68, 12.19, -3.375 ],
			"rotation": { "origin": [ 8, 12, -6 ], "axis": "z", "angle": 22.5 },
			"faces": {
				"down": { "uv": [ 15, 3.625, 15.375, 5 ], "texture": "#4", "rotation": 270 },
				"up": { "uv": [ 1, 5, 0.625, 3.625 ], "texture": "#4", "rotation": 90 },
				"north": { "uv": [ 15.625, 3.625, 16, 5 ], "texture": "#4", "rotation": 90 },
				"south": { "uv": [ 0, 3.625, 0.375, 5 ], "texture": "#4", "rotation": 270 },
				"west": { "uv": [ 0.375, 15.375, 0, 15 ], "texture": "#4", "rotation": 90 },
				"east": { "uv": [ 0, 0.625, 0.375, 1 ], "texture": "#4", "rotation": 270 }
			}
		},
		{
			"__comment": "Box14",
			"from": [ 7.32, 11.81, -6 ],
			"to": [ 8.695, 12.185, -3.375 ],
			"rotation": { "origin": [ 8, 12, -6 ], "axis": "z", "angle": -22.5 },
			"faces": {
				"down": { "uv": [ 15, 3.625, 15.375, 5 ], "texture": "#4", "rotation": 270 },
				"up": { "uv": [ 1, 5, 0.625, 3.625 ], "texture": "#4", "rotation": 90 },
				"north": { "uv": [ 15.625, 3.625, 16, 5 ], "texture": "#4", "rotation": 90 },
				"south": { "uv": [ 0, 3.625, 0.375, 5 ], "texture": "#4", "rotation": 270 },
				"west": { "uv": [ 0.375, 15.375, 0, 15 ], "texture": "#4", "rotation": 90 },
				"east": { "uv": [ 0, 0.625, 0.375, 1 ], "texture": "#4", "rotation": 270 }
			}
		},
		{
			"__comment": "Box14",
			"from": [ 7.305, 11.815, -6 ],
			"to": [ 8.68, 12.19, -3.375 ],
			"faces": {
				"down": { "uv": [ 15, 3.625, 15.375, 5 ], "texture": "#4", "rotation": 270 },
				"up": { "uv": [ 1, 5, 0.625, 3.625 ], "texture": "#4", "rotation": 90 },
				"north": { "uv": [ 15.625, 3.625, 16, 5 ], "texture": "#4", "rotation": 90 },
				"south": { "uv": [ 0, 3.625, 0.375, 5 ], "texture": "#4", "rotation": 270 },
				"west": { "uv": [ 0.375, 15.375, 0, 15 ], "texture": "#4", "rotation": 90 },
				"east": { "uv": [ 0, 0.625, 0.375, 1 ], "texture": "#4", "rotation": 270 }
			}
		},
		{
			"__comment": "Box14",
			"from": [ 7.25, 11.375, 5.125 ],
			"to": [ 8.75, 12.875, 18.625 ],
			"rotation": { "origin": [ 7.25, 11.375, 5.125 ], "axis": "x", "angle": 22.5 },
			"faces": {
				"down": { "uv": [ 7.25, 10.25, 8.75, 16 ], "texture": "#4" },
				"up": { "uv": [ 7.25, 0, 8.75, 5.75 ], "texture": "#4" },
				"north": { "uv": [ 7.25, 3.25, 8.75, 4.75 ], "texture": "#4" },
				"south": { "uv": [ 7.25, 3.25, 8.75, 4.75 ], "texture": "#4" },
				"west": { "uv": [ 0, 3.25, 5.75, 4.75 ], "texture": "#4" },
				"east": { "uv": [ 10.25, 3.25, 16, 4.75 ], "texture": "#4" }
			}
		},
		{
			"__comment": "Box32",
			"from": [ 6.375, 4.5, 17.5 ],
			"to": [ 9.75, 16.625, 19 ],
			"faces": {
				"down": { "uv": [ 6.375, 13, 9.75, 14.5 ], "texture": "#4" },
				"up": { "uv": [ 6.375, 1.5, 9.75, 3 ], "texture": "#4" },
				"north": { "uv": [ 6.25, 0, 9.625, 11.5 ], "texture": "#4" },
				"south": { "uv": [ 6.375, 0, 9.75, 11.5 ], "texture": "#4" },
				"west": { "uv": [ 1.5, 0, 3, 11.5 ], "texture": "#4" },
				"east": { "uv": [ 13, 0, 14.5, 11.5 ], "texture": "#4" }
			}
		},
		{
			"__comment": "Box2",
			"from": [ 7.5625, 12.75, 16 ],
			"to": [ 8.4375, 16.5, 17.5 ],
			"faces": {
				"down": { "uv": [ 6, 15, 7, 16 ], "texture": "#4" },
				"up": { "uv": [ 6, 0, 7, 1 ], "texture": "#4" },
				"north": { "uv": [ 9, 0, 10, 3 ], "texture": "#4" },
				"south": { "uv": [ 6, 0, 7, 3 ], "texture": "#4" },
				"west": { "uv": [ 0, 0, 1, 3 ], "texture": "#4" },
				"east": { "uv": [ 15, 0, 16, 3 ], "texture": "#4" }
			}
		},
		{
			"__comment": "Box2",
			"from": [ 7.5625, 12.75, 16 ],
			"to": [ 8.4375, 16.5, 17.5 ],
			"rotation": { "origin": [ 8, 14.625, 16 ], "axis": "z", "angle": -22.5 },
			"faces": {
				"down": { "uv": [ 0, 0, 1, 3 ], "texture": "#4", "rotation": 270 },
				"up": { "uv": [ 16, 3, 15, 0 ], "texture": "#4", "rotation": 90 },
				"north": { "uv": [ 9, 0, 10, 3 ], "texture": "#4", "rotation": 90 },
				"south": { "uv": [ 6, 0, 7, 3 ], "texture": "#4", "rotation": 270 },
				"west": { "uv": [ 7, 1, 6, 0 ], "texture": "#4", "rotation": 90 },
				"east": { "uv": [ 6, 15, 7, 16 ], "texture": "#4", "rotation": 270 }
			}
		},
		{
			"__comment": "Box2",
			"from": [ 7.5625, 12.75, 16 ],
			"to": [ 8.4375, 16.5, 17.5 ],
			"rotation": { "origin": [ 8, 14.625, 16 ], "axis": "z", "angle": 22.5 },
			"faces": {
				"down": { "uv": [ 0, 0, 1, 3 ], "texture": "#4", "rotation": 270 },
				"up": { "uv": [ 16, 3, 15, 0 ], "texture": "#4", "rotation": 90 },
				"north": { "uv": [ 9, 0, 10, 3 ], "texture": "#4", "rotation": 90 },
				"south": { "uv": [ 6, 0, 7, 3 ], "texture": "#4", "rotation": 270 },
				"west": { "uv": [ 7, 1, 6, 0 ], "texture": "#4", "rotation": 90 },
				"east": { "uv": [ 6, 15, 7, 16 ], "texture": "#4", "rotation": 270 }
			}
		},
		{
			"__comment": "Box2",
			"from": [ 7.5625, 12.75, 16 ],
			"to": [ 8.4375, 16.5, 17.5 ],
			"rotation": { "origin": [ 8, 14.625, 16 ], "axis": "z", "angle": -45 },
			"faces": {
				"down": { "uv": [ 0, 0, 1, 3 ], "texture": "#4", "rotation": 270 },
				"up": { "uv": [ 16, 3, 15, 0 ], "texture": "#4", "rotation": 90 },
				"north": { "uv": [ 9, 0, 10, 3 ], "texture": "#4", "rotation": 90 },
				"south": { "uv": [ 6, 0, 7, 3 ], "texture": "#4", "rotation": 270 },
				"west": { "uv": [ 7, 1, 6, 0 ], "texture": "#4", "rotation": 90 },
				"east": { "uv": [ 6, 15, 7, 16 ], "texture": "#4", "rotation": 270 }
			}
		},
		{
			"__comment": "Box2",
			"from": [ 7.5625, 12.75, 16 ],
			"to": [ 8.4375, 16.5, 17.5 ],
			"rotation": { "origin": [ 8, 14.625, 16 ], "axis": "z", "angle": 45 },
			"faces": {
				"down": { "uv": [ 0, 0, 1, 3 ], "texture": "#4", "rotation": 270 },
				"up": { "uv": [ 16, 3, 15, 0 ], "texture": "#4", "rotation": 90 },
				"north": { "uv": [ 9, 0, 10, 3 ], "texture": "#4", "rotation": 90 },
				"south": { "uv": [ 6, 0, 7, 3 ], "texture": "#4", "rotation": 270 },
				"west": { "uv": [ 7, 1, 6, 0 ], "texture": "#4", "rotation": 90 },
				"east": { "uv": [ 6, 15, 7, 16 ], "texture": "#4", "rotation": 270 }
			}
		},
		{
			"__comment": "Box2",
			"from": [ 6.125, 14.1875, 16 ],
			"to": [ 9.875, 15.0625, 17.5 ],
			"rotation": { "origin": [ 8, 14.625, 16 ], "axis": "z", "angle": 22.5 },
			"faces": {
				"down": { "uv": [ 0, 0, 1, 3 ], "texture": "#4", "rotation": 270 },
				"up": { "uv": [ 16, 3, 15, 0 ], "texture": "#4", "rotation": 90 },
				"north": { "uv": [ 9, 0, 10, 3 ], "texture": "#4", "rotation": 90 },
				"south": { "uv": [ 6, 0, 7, 3 ], "texture": "#4", "rotation": 270 },
				"west": { "uv": [ 7, 1, 6, 0 ], "texture": "#4", "rotation": 90 },
				"east": { "uv": [ 6, 15, 7, 16 ], "texture": "#4", "rotation": 270 }
			}
		},
		{
			"__comment": "Box2",
			"from": [ 6.125, 14.1875, 16 ],
			"to": [ 9.875, 15.0625, 17.5 ],
			"rotation": { "origin": [ 8, 14.625, 16 ], "axis": "z", "angle": -22.5 },
			"faces": {
				"down": { "uv": [ 0, 0, 1, 3 ], "texture": "#4", "rotation": 270 },
				"up": { "uv": [ 16, 3, 15, 0 ], "texture": "#4", "rotation": 90 },
				"north": { "uv": [ 9, 0, 10, 3 ], "texture": "#4", "rotation": 90 },
				"south": { "uv": [ 6, 0, 7, 3 ], "texture": "#4", "rotation": 270 },
				"west": { "uv": [ 7, 1, 6, 0 ], "texture": "#4", "rotation": 90 },
				"east": { "uv": [ 6, 15, 7, 16 ], "texture": "#4", "rotation": 270 }
			}
		},
		{
			"__comment": "Box2",
			"from": [ 6.125, 14.1875, 16 ],
			"to": [ 9.875, 15.0625, 17.5 ],
			"faces": {
				"down": { "uv": [ 0, 0, 1, 3 ], "texture": "#4", "rotation": 270 },
				"up": { "uv": [ 16, 3, 15, 0 ], "texture": "#4", "rotation": 90 },
				"north": { "uv": [ 9, 0, 10, 3 ], "texture": "#4", "rotation": 90 },
				"south": { "uv": [ 6, 0, 7, 3 ], "texture": "#4", "rotation": 270 },
				"west": { "uv": [ 7, 1, 6, 0 ], "texture": "#4", "rotation": 90 },
				"east": { "uv": [ 6, 15, 7, 16 ], "texture": "#4", "rotation": 270 }
			}
		},
		{
			"__comment": "Box2",
			"from": [ 7.5625, 4.875, 16 ],
			"to": [ 8.4375, 8.625, 17.5 ],
			"faces": {
				"down": { "uv": [ 6, 15, 7, 16 ], "texture": "#4" },
				"up": { "uv": [ 6, 0, 7, 1 ], "texture": "#4" },
				"north": { "uv": [ 9, 0, 10, 3 ], "texture": "#4" },
				"south": { "uv": [ 6, 0, 7, 3 ], "texture": "#4" },
				"west": { "uv": [ 0, 0, 1, 3 ], "texture": "#4" },
				"east": { "uv": [ 15, 0, 16, 3 ], "texture": "#4" }
			}
		},
		{
			"__comment": "Box2",
			"from": [ 7.5625, 4.875, 16 ],
			"to": [ 8.4375, 8.625, 17.5 ],
			"rotation": { "origin": [ 8, 6.75, 16 ], "axis": "z", "angle": -22.5 },
			"faces": {
				"down": { "uv": [ 6, 15, 7, 16 ], "texture": "#4" },
				"up": { "uv": [ 6, 0, 7, 1 ], "texture": "#4" },
				"north": { "uv": [ 9, 0, 10, 3 ], "texture": "#4" },
				"south": { "uv": [ 6, 0, 7, 3 ], "texture": "#4" },
				"west": { "uv": [ 0, 0, 1, 3 ], "texture": "#4" },
				"east": { "uv": [ 15, 0, 16, 3 ], "texture": "#4" }
			}
		},
		{
			"__comment": "Box2",
			"from": [ 7.5625, 4.875, 16 ],
			"to": [ 8.4375, 8.625, 17.5 ],
			"rotation": { "origin": [ 8, 6.75, 16 ], "axis": "z", "angle": 22.5 },
			"faces": {
				"down": { "uv": [ 6, 15, 7, 16 ], "texture": "#4" },
				"up": { "uv": [ 6, 0, 7, 1 ], "texture": "#4" },
				"north": { "uv": [ 9, 0, 10, 3 ], "texture": "#4" },
				"south": { "uv": [ 6, 0, 7, 3 ], "texture": "#4" },
				"west": { "uv": [ 0, 0, 1, 3 ], "texture": "#4" },
				"east": { "uv": [ 15, 0, 16, 3 ], "texture": "#4" }
			}
		},
		{
			"__comment": "Box2",
			"from": [ 7.5625, 4.875, 16 ],
			"to": [ 8.4375, 8.625, 17.5 ],
			"rotation": { "origin": [ 8, 6.75, 16 ], "axis": "z", "angle": -45 },
			"faces": {
				"down": { "uv": [ 6, 15, 7, 16 ], "texture": "#4" },
				"up": { "uv": [ 6, 0, 7, 1 ], "texture": "#4" },
				"north": { "uv": [ 9, 0, 10, 3 ], "texture": "#4" },
				"south": { "uv": [ 6, 0, 7, 3 ], "texture": "#4" },
				"west": { "uv": [ 0, 0, 1, 3 ], "texture": "#4" },
				"east": { "uv": [ 15, 0, 16, 3 ], "texture": "#4" }
			}
		},
		{
			"__comment": "Box2",
			"from": [ 7.5625, 4.875, 16 ],
			"to": [ 8.4375, 8.625, 17.5 ],
			"rotation": { "origin": [ 8, 6.75, 16 ], "axis": "z", "angle": 45 },
			"faces": {
				"down": { "uv": [ 6, 15, 7, 16 ], "texture": "#4" },
				"up": { "uv": [ 6, 0, 7, 1 ], "texture": "#4" },
				"north": { "uv": [ 9, 0, 10, 3 ], "texture": "#4" },
				"south": { "uv": [ 6, 0, 7, 3 ], "texture": "#4" },
				"west": { "uv": [ 0, 0, 1, 3 ], "texture": "#4" },
				"east": { "uv": [ 15, 0, 16, 3 ], "texture": "#4" }
			}
		},
		{
			"__comment": "Box2",
			"from": [ 6.125, 6.3125, 16 ],
			"to": [ 9.875, 7.1875, 17.5 ],
			"rotation": { "origin": [ 8, 6.75, 16 ], "axis": "z", "angle": 22.5 },
			"faces": {
				"down": { "uv": [ 1, 3, 0, 0 ], "texture": "#4", "rotation": 90 },
				"up": { "uv": [ 15, 0, 16, 3 ], "texture": "#4", "rotation": 270 },
				"north": { "uv": [ 9, 0, 10, 3 ], "texture": "#4", "rotation": 90 },
				"south": { "uv": [ 6, 0, 7, 3 ], "texture": "#4", "rotation": 270 },
				"west": { "uv": [ 6, 0, 7, 1 ], "texture": "#4", "rotation": 270 },
				"east": { "uv": [ 7, 16, 6, 15 ], "texture": "#4", "rotation": 90 }
			}
		},
		{
			"__comment": "Box2",
			"from": [ 6.125, 6.3125, 16 ],
			"to": [ 9.875, 7.1875, 17.5 ],
			"rotation": { "origin": [ 8, 6.75, 16 ], "axis": "z", "angle": -22.5 },
			"faces": {
				"down": { "uv": [ 15, 0, 16, 3 ], "texture": "#4", "rotation": 90 },
				"up": { "uv": [ 1, 3, 0, 0 ], "texture": "#4", "rotation": 270 },
				"north": { "uv": [ 9, 0, 10, 3 ], "texture": "#4", "rotation": 270 },
				"south": { "uv": [ 6, 0, 7, 3 ], "texture": "#4", "rotation": 90 },
				"west": { "uv": [ 6, 15, 7, 16 ], "texture": "#4", "rotation": 90 },
				"east": { "uv": [ 7, 1, 6, 0 ], "texture": "#4", "rotation": 270 }
			}
		},
		{
			"__comment": "Box2",
			"from": [ 6.125, 6.3125, 16 ],
			"to": [ 9.875, 7.1875, 17.5 ],
			"faces": {
				"down": { "uv": [ 1, 3, 0, 0 ], "texture": "#4", "rotation": 90 },
				"up": { "uv": [ 15, 0, 16, 3 ], "texture": "#4", "rotation": 270 },
				"north": { "uv": [ 9, 0, 10, 3 ], "texture": "#4", "rotation": 90 },
				"south": { "uv": [ 6, 0, 7, 3 ], "texture": "#4", "rotation": 270 },
				"west": { "uv": [ 6, 0, 7, 1 ], "texture": "#4", "rotation": 270 },
				"east": { "uv": [ 7, 16, 6, 15 ], "texture": "#4", "rotation": 90 }
			}
		},
		{
			"__comment": "Box50",
			"from": [ 6.375, 4.625, 19 ],
			"to": [ 9.75, 16.5, 20.375 ],
			"faces": {
				"down": { "uv": [ 6.375, 11.625, 9.75, 13 ], "texture": "#4" },
				"up": { "uv": [ 6.375, 3, 9.75, 4.375 ], "texture": "#4" },
				"north": { "uv": [ 6.25, 0, 9.625, 11.375 ], "texture": "#4" },
				"south": { "uv": [ 6.375, 0, 9.75, 11.375 ], "texture": "#4" },
				"west": { "uv": [ 3, 0, 4.375, 11.375 ], "texture": "#4" },
				"east": { "uv": [ 11.625, 0, 13, 11.375 ], "texture": "#4" }
			}
		}
	],
	"display": {
		"gui": {
			"rotation":  [ 90, 55, -90 ],
			"translation":  [ -2.086, -1.391, 0 ],
			"scale":  [ 0.7, 0.7, 0.7 ]
		},
		"ground": {
			"rotation":  [ 0, 0, 90 ],
			"translation":  [ 0, -0.5, 0 ],
			"scale":  [ 0.2, 0.2, 0.2 ]
		},
		"fixed": {
			"rotation":  [ 90, -52, 90 ],
			"translation":  [ 2.0869, -1.391, 0 ],
			"scale":  [ 0.75, 0.75, 0.75 ]
		}
	}
}