{
	"__comment": "Designed by Neo2057 with Cubik Studio - https://cubik.studio",
	"textures": {
		"particle": "blocks/e_particle",
		"texture": "items/6",
		"texture2": "blocks/jh406_sight"
	},
	"elements": [ 	 
		{
			"__comment": "Box2",
			"from": [ 5, 12.5, 0.5 ],
			"to": [ 11, 14, 15.5 ],
			"faces": {
				"down": { "uv": [ 5, 0.5, 11, 15.5 ], "texture": "#texture" },
				"up": { "uv": [ 5, 0.5, 11, 15.5 ], "texture": "#texture" },
				"north": { "uv": [ 5, 2, 11, 3.5 ], "texture": "#texture" },
				"south": { "uv": [ 5, 2, 11, 3.5 ], "texture": "#texture" },
				"west": { "uv": [ 0.5, 2, 15.5, 3.5 ], "texture": "#texture" },
				"east": { "uv": [ 0.5, 2, 15.5, 3.5 ], "texture": "#texture" }
			}
		},
		{
			"__comment": "Box3",
			"from": [ 5, 14.5, 0.5 ],
			"to": [ 6, 20, 2.5 ],
			"faces": {
				"down": { "uv": [ 5, 13.5, 6, 15.5 ], "texture": "#texture" },
				"up": { "uv": [ 5, 0.5, 6, 2.5 ], "texture": "#texture" },
				"north": { "uv": [ 10, 0, 11, 1.5 ], "texture": "#texture" },
				"south": { "uv": [ 5, 0, 6, 1.5 ], "texture": "#texture" },
				"west": { "uv": [ 0.5, 0, 2.5, 1.5 ], "texture": "#texture" },
				"east": { "uv": [ 13.5, 0, 15.5, 1.5 ], "texture": "#texture" }
			}
		},
		{
			"__comment": "Box4",
			"from": [ 5, 14, 8.5 ],
			"to": [ 6.5, 14.5, 11.5 ],
			"faces": {
				"down": { "uv": [ 5, 4.5, 6.5, 7.5 ], "texture": "#texture" },
				"up": { "uv": [ 5, 8.5, 6.5, 11.5 ], "texture": "#texture" },
				"north": { "uv": [ 9.5, 1.5, 11, 2 ], "texture": "#texture" },
				"south": { "uv": [ 5, 1.5, 6.5, 2 ], "texture": "#texture" },
				"west": { "uv": [ 8.5, 1.5, 11.5, 2 ], "texture": "#texture" },
				"east": { "uv": [ 4.5, 1.5, 7.5, 2 ], "texture": "#texture" }
			}
		},
		{
			"__comment": "Box5",
			"from": [ 5, 14, 11.5 ],
			"to": [ 11, 15.5, 16.5 ],
			"faces": {
				"down": { "uv": [ 5, 0, 11, 4.5 ], "texture": "#texture" },
				"up": { "uv": [ 5, 11.5, 11, 16 ], "texture": "#texture" },
				"north": { "uv": [ 5, 0.5, 11, 2 ], "texture": "#texture" },
				"south": { "uv": [ 5, 0.5, 11, 2 ], "texture": "#texture" },
				"west": { "uv": [ 11.5, 0.5, 16, 2 ], "texture": "#texture" },
				"east": { "uv": [ 0, 0.5, 4.5, 2 ], "texture": "#texture" }
			}
		},
		{
			"__comment": "Box6",
			"from": [ 5, 14, 7 ],
			"to": [ 6.5, 14.5, 8.5 ],
			"rotation": { "origin": [ 5, 14.5, 8.5 ], "axis": "x", "angle": -45 },
			"faces": {
				"down": { "uv": [ 7.5, 8.5, 8.5, 9.5 ], "texture": "#texture" },
				"up": { "uv": [ 7.5, 6.5, 8.5, 7.5 ], "texture": "#texture" },
				"north": { "uv": [ 8.5, 1.5, 7.5, 0.5 ], "texture": "#texture" },
				"south": { "uv": [ 8.5, 1.5, 7.5, 0.5 ], "texture": "#texture" },
				"west": { "uv": [ 8.5, 0.5, 9.5, 1.5 ], "texture": "#texture", "rotation": 180 },
				"east": { "uv": [ 6.5, 0.5, 7.5, 1.5 ], "texture": "#texture", "rotation": 180 }
			}
		},
		{
			"__comment": "Box7",
			"from": [ 5, 14.5, 8.5 ],
			"to": [ 6.5, 15.5, 11.5 ],
			"rotation": { "origin": [ 5, 15.5, 11.5 ], "axis": "x", "angle": -22.5 },
			"faces": {
				"down": { "uv": [ 7.5, 11.5, 8.5, 12.5 ], "texture": "#texture" },
				"up": { "uv": [ 7.5, 3.5, 8.5, 4.5 ], "texture": "#texture" },
				"north": { "uv": [ 8.5, 0.5, 7.5, 0 ], "texture": "#texture" },
				"south": { "uv": [ 8.5, 0.5, 7.5, 0 ], "texture": "#texture" },
				"west": { "uv": [ 11.5, 0, 12.5, 0.5 ], "texture": "#texture", "rotation": 180 },
				"east": { "uv": [ 3.5, 0, 4.5, 0.5 ], "texture": "#texture", "rotation": 180 }
			}
		},
		{
			"__comment": "Box9",
			"from": [ 5, 12.5, 0 ],
			"to": [ 11, 13.5, 1 ],
			"faces": {
				"down": { "uv": [ 5, 15, 11, 16 ], "texture": "#texture" },
				"up": { "uv": [ 5, 0, 11, 1 ], "texture": "#texture" },
				"north": { "uv": [ 5, 2.5, 11, 3.5 ], "texture": "#texture" },
				"south": { "uv": [ 5, 2.5, 11, 3.5 ], "texture": "#texture" },
				"west": { "uv": [ 0, 2.5, 1, 3.5 ], "texture": "#texture" },
				"east": { "uv": [ 15, 2.5, 16, 3.5 ], "texture": "#texture" }
			}
		},
		{
			"__comment": "Box10",
			"from": [ 5, 13.5, 0 ],
			"to": [ 11, 15, 1 ],
			"rotation": { "origin": [ 5, 13.5, 0 ], "axis": "x", "angle": 22.5 },
			"faces": {
				"down": { "uv": [ 7.5, 15, 8.5, 16 ], "texture": "#texture" },
				"up": { "uv": [ 7.5, 0, 8.5, 1 ], "texture": "#texture" },
				"north": { "uv": [ 7.5, 1.5, 8.5, 2.5 ], "texture": "#texture" },
				"south": { "uv": [ 7.5, 1.5, 8.5, 2.5 ], "texture": "#texture" },
				"west": { "uv": [ 0, 1.5, 1, 2.5 ], "texture": "#texture" },
				"east": { "uv": [ 15, 1.5, 16, 2.5 ], "texture": "#texture" }
			}
		},
		{
			"__comment": "Box11",
			"from": [ 5, 20, -3 ],
			"to": [ 11, 20.5, -0.5 ],
			"faces": {
				"down": { "uv": [ 5, 0.5, 11, 3 ], "texture": "#texture" },
				"up": { "uv": [ 5, 13, 11, 15.5 ], "texture": "#texture" },
				"north": { "uv": [ 5, 11.5, 11, 12 ], "texture": "#texture" },
				"south": { "uv": [ 5, 11.5, 11, 12 ], "texture": "#texture" },
				"west": { "uv": [ 13, 11.5, 15.5, 12 ], "texture": "#texture" },
				"east": { "uv": [ 0.5, 11.5, 3, 12 ], "texture": "#texture" }
			}
		},
		{
			"__comment": "Box12",
			"from": [ 5, 20, -3 ],
			"to": [ 6, 20.7, -2 ],
			"rotation": { "origin": [ 5, 20, -3 ], "axis": "x", "angle": 45 },
			"faces": {
				"down": { "uv": [ 7.5, 2, 8.5, 3 ], "texture": "#texture" },
				"up": { "uv": [ 7.5, 13, 8.5, 14 ], "texture": "#texture" },
				"north": { "uv": [ 7.5, 11, 8.5, 12 ], "texture": "#texture" },
				"south": { "uv": [ 7.5, 11, 8.5, 12 ], "texture": "#texture" },
				"west": { "uv": [ 13, 11, 14, 12 ], "texture": "#texture" },
				"east": { "uv": [ 2, 11, 3, 12 ], "texture": "#texture" }
			}
		},
		{
			"__comment": "Box13",
			"from": [ 5, 19.3, -2.29 ],
			"to": [ 6, 20, -1.29 ],
			"faces": {
				"down": { "uv": [ 7.5, 1.5, 8.5, 2.5 ], "texture": "#texture" },
				"up": { "uv": [ 7.5, 13.5, 8.5, 14.5 ], "texture": "#texture" },
				"north": { "uv": [ 7.5, 11.5, 8.5, 12.5 ], "texture": "#texture" },
				"south": { "uv": [ 7.5, 11.5, 8.5, 12.5 ], "texture": "#texture" },
				"west": { "uv": [ 13.5, 11.5, 14.5, 12.5 ], "texture": "#texture" },
				"east": { "uv": [ 1.5, 11.5, 2.5, 12.5 ], "texture": "#texture" }
			}
		},
		{
			"__comment": "Box14",
			"from": [ 5, 19.3, -2 ],
			"to": [ 6, 20.3, -1 ],
			"rotation": { "origin": [ 5, 19.3, -2 ], "axis": "x", "angle": 22.5 },
			"faces": {
				"down": { "uv": [ 7.5, 1, 8.5, 2 ], "texture": "#texture" },
				"up": { "uv": [ 7.5, 14, 8.5, 15 ], "texture": "#texture" },
				"north": { "uv": [ 7.5, 11.5, 8.5, 12.5 ], "texture": "#texture" },
				"south": { "uv": [ 7.5, 11.5, 8.5, 12.5 ], "texture": "#texture" },
				"west": { "uv": [ 14, 11.5, 15, 12.5 ], "texture": "#texture" },
				"east": { "uv": [ 1, 11.5, 2, 12.5 ], "texture": "#texture" }
			}
		},
		{
			"__comment": "Box15",
			"from": [ 5, 19.5, -2 ],
			"to": [ 6, 20.8, 1.5 ],
			"rotation": { "origin": [ 5, 19.5, -2 ], "axis": "x", "angle": 45 },
			"faces": {
				"down": { "uv": [ 7.5, 0.5, 8.5, 1.5 ], "texture": "#texture" },
				"up": { "uv": [ 7.5, 14.5, 8.5, 15.5 ], "texture": "#texture" },
				"north": { "uv": [ 7.5, 12, 8.5, 13 ], "texture": "#texture" },
				"south": { "uv": [ 7.5, 12, 8.5, 13 ], "texture": "#texture" },
				"west": { "uv": [ 14.5, 12, 15.5, 13 ], "texture": "#texture" },
				"east": { "uv": [ 0.5, 12, 1.5, 13 ], "texture": "#texture" }
			}
		},
		{
			"__comment": "Box16",
			"from": [ 5, 16, 0 ],
			"to": [ 6, 17.5, 1 ],
			"rotation": { "origin": [ 5, 17.5, 0 ], "axis": "x", "angle": -22.5 },
			"faces": {
				"down": { "uv": [ 7.5, 13.5, 8.5, 14.5 ], "texture": "#texture" },
				"up": { "uv": [ 8.5, 14.5, 7.5, 13.5 ], "texture": "#texture" },
				"north": { "uv": [ 8.5, 16, 7.5, 15 ], "texture": "#texture" },
				"south": { "uv": [ 7.5, 0, 8.5, 1 ], "texture": "#texture" },
				"west": { "uv": [ 0, 13.5, 1, 14.5 ], "texture": "#texture", "rotation": 90 },
				"east": { "uv": [ 15, 13.5, 16, 14.5 ], "texture": "#texture", "rotation": 270 }
			}
		},
		{
			"__comment": "Box17",
			"from": [ 5, 18.5, -1 ],
			"to": [ 6, 20, 0.5 ],
			"faces": {
				"down": { "uv": [ 5, 15.5, 6, 16 ], "texture": "#texture" },
				"up": { "uv": [ 5, 0, 6, 0.5 ], "texture": "#texture" },
				"north": { "uv": [ 10, 12, 11, 13.5 ], "texture": "#texture" },
				"south": { "uv": [ 5, 12, 6, 13.5 ], "texture": "#texture" },
				"west": { "uv": [ 0, 12, 0.5, 13.5 ], "texture": "#texture" },
				"east": { "uv": [ 15.5, 12, 16, 13.5 ], "texture": "#texture" }
			}
		},
		{
			"__comment": "Box3",
			"from": [ 10, 14, 0.5 ],
			"to": [ 11, 20, 2.5 ],
			"faces": {
				"down": { "uv": [ 7.5, 13.5, 8.5, 15.5 ], "texture": "#texture" },
				"up": { "uv": [ 7.5, 0.5, 8.5, 2.5 ], "texture": "#texture" },
				"north": { "uv": [ 7.5, 0, 8.5, 2 ], "texture": "#texture" },
				"south": { "uv": [ 7.5, 0, 8.5, 2 ], "texture": "#texture" },
				"west": { "uv": [ 0.5, 0, 2.5, 2 ], "texture": "#texture" },
				"east": { "uv": [ 13.5, 0, 15.5, 2 ], "texture": "#texture" }
			}
		},
		{
			"__comment": "Box4",
			"from": [ 9.5, 14, 8.5 ],
			"to": [ 11, 14.5, 11.5 ],
			"faces": {
				"down": { "uv": [ 7.5, 4.5, 8.5, 7.5 ], "texture": "#texture" },
				"up": { "uv": [ 7.5, 8.5, 8.5, 11.5 ], "texture": "#texture" },
				"north": { "uv": [ 7.5, 1.5, 8.5, 2 ], "texture": "#texture" },
				"south": { "uv": [ 7.5, 1.5, 8.5, 2 ], "texture": "#texture" },
				"west": { "uv": [ 8.5, 1.5, 11.5, 2 ], "texture": "#texture" },
				"east": { "uv": [ 4.5, 1.5, 7.5, 2 ], "texture": "#texture" }
			}
		},
		{
			"__comment": "Box6",
			"from": [ 9.5, 14, 7 ],
			"to": [ 11, 14.5, 8.5 ],
			"rotation": { "origin": [ 9.5, 14.5, 8.5 ], "axis": "x", "angle": -45 },
			"faces": {
				"down": { "uv": [ 7.5, 8.5, 8.5, 9.5 ], "texture": "#texture" },
				"up": { "uv": [ 7.5, 6.5, 8.5, 7.5 ], "texture": "#texture" },
				"north": { "uv": [ 8.5, 1.5, 7.5, 0.5 ], "texture": "#texture" },
				"south": { "uv": [ 8.5, 1.5, 7.5, 0.5 ], "texture": "#texture" },
				"west": { "uv": [ 8.5, 0.5, 9.5, 1.5 ], "texture": "#texture", "rotation": 180 },
				"east": { "uv": [ 6.5, 0.5, 7.5, 1.5 ], "texture": "#texture", "rotation": 180 }
			}
		},
		{
			"__comment": "Box7",
			"from": [ 9.5, 14.5, 8.5 ],
			"to": [ 11, 15.5, 11.5 ],
			"rotation": { "origin": [ 9.5, 15.5, 11.5 ], "axis": "x", "angle": -22.5 },
			"faces": {
				"down": { "uv": [ 7.5, 11.5, 8.5, 12.5 ], "texture": "#texture" },
				"up": { "uv": [ 7.5, 3.5, 8.5, 4.5 ], "texture": "#texture" },
				"north": { "uv": [ 8.5, 0.5, 7.5, 0 ], "texture": "#texture" },
				"south": { "uv": [ 8.5, 0.5, 7.5, 0 ], "texture": "#texture" },
				"west": { "uv": [ 11.5, 0, 12.5, 0.5 ], "texture": "#texture", "rotation": 180 },
				"east": { "uv": [ 3.5, 0, 4.5, 0.5 ], "texture": "#texture", "rotation": 180 }
			}
		},
		{
			"__comment": "Box12",
			"from": [ 10, 20, -3 ],
			"to": [ 11, 20.7, -2 ],
			"rotation": { "origin": [ 10, 20, -3 ], "axis": "x", "angle": 45 },
			"faces": {
				"down": { "uv": [ 7.5, 2, 8.5, 3 ], "texture": "#texture" },
				"up": { "uv": [ 7.5, 13, 8.5, 14 ], "texture": "#texture" },
				"north": { "uv": [ 7.5, 11, 8.5, 12 ], "texture": "#texture" },
				"south": { "uv": [ 7.5, 11, 8.5, 12 ], "texture": "#texture" },
				"west": { "uv": [ 13, 11, 14, 12 ], "texture": "#texture" },
				"east": { "uv": [ 2, 11, 3, 12 ], "texture": "#texture" }
			}
		},
		{
			"__comment": "Box13",
			"from": [ 10, 19.3, -2.29 ],
			"to": [ 11, 20, -1.29 ],
			"faces": {
				"down": { "uv": [ 7.5, 1.5, 8.5, 2.5 ], "texture": "#texture" },
				"up": { "uv": [ 7.5, 13.5, 8.5, 14.5 ], "texture": "#texture" },
				"north": { "uv": [ 7.5, 11.5, 8.5, 12.5 ], "texture": "#texture" },
				"south": { "uv": [ 7.5, 11.5, 8.5, 12.5 ], "texture": "#texture" },
				"west": { "uv": [ 13.5, 11.5, 14.5, 12.5 ], "texture": "#texture" },
				"east": { "uv": [ 1.5, 11.5, 2.5, 12.5 ], "texture": "#texture" }
			}
		},
		{
			"__comment": "Box14",
			"from": [ 10, 19.3, -2 ],
			"to": [ 11, 20.3, -1 ],
			"rotation": { "origin": [ 10, 19.3, -2 ], "axis": "x", "angle": 22.5 },
			"faces": {
				"down": { "uv": [ 7.5, 1, 8.5, 2 ], "texture": "#texture" },
				"up": { "uv": [ 7.5, 14, 8.5, 15 ], "texture": "#texture" },
				"north": { "uv": [ 7.5, 11.5, 8.5, 12.5 ], "texture": "#texture" },
				"south": { "uv": [ 7.5, 11.5, 8.5, 12.5 ], "texture": "#texture" },
				"west": { "uv": [ 14, 11.5, 15, 12.5 ], "texture": "#texture" },
				"east": { "uv": [ 1, 11.5, 2, 12.5 ], "texture": "#texture" }
			}
		},
		{
			"__comment": "Box15",
			"from": [ 10, 19.5, -2 ],
			"to": [ 11, 20.8, 1.5 ],
			"rotation": { "origin": [ 10, 19.5, -2 ], "axis": "x", "angle": 45 },
			"faces": {
				"down": { "uv": [ 7.5, 0.5, 8.5, 1.5 ], "texture": "#texture" },
				"up": { "uv": [ 7.5, 14.5, 8.5, 15.5 ], "texture": "#texture" },
				"north": { "uv": [ 7.5, 12, 8.5, 13 ], "texture": "#texture" },
				"south": { "uv": [ 7.5, 12, 8.5, 13 ], "texture": "#texture" },
				"west": { "uv": [ 14.5, 12, 15.5, 13 ], "texture": "#texture" },
				"east": { "uv": [ 0.5, 12, 1.5, 13 ], "texture": "#texture" }
			}
		},
		{
			"__comment": "Box16",
			"from": [ 10, 16, 0 ],
			"to": [ 11, 17.5, 1 ],
			"rotation": { "origin": [ 10, 17.5, 0 ], "axis": "x", "angle": -22.5 },
			"faces": {
				"down": { "uv": [ 7.5, 13.5, 8.5, 14.5 ], "texture": "#texture" },
				"up": { "uv": [ 8.5, 14.5, 7.5, 13.5 ], "texture": "#texture" },
				"north": { "uv": [ 8.5, 16, 7.5, 15 ], "texture": "#texture" },
				"south": { "uv": [ 7.5, 0, 8.5, 1 ], "texture": "#texture" },
				"west": { "uv": [ 0, 13.5, 1, 14.5 ], "texture": "#texture", "rotation": 90 },
				"east": { "uv": [ 15, 13.5, 16, 14.5 ], "texture": "#texture", "rotation": 270 }
			}
		},
		{
			"__comment": "Box17",
			"from": [ 10, 18.5, -1 ],
			"to": [ 11, 20, 0.5 ],
			"faces": {
				"down": { "uv": [ 7.5, 15.5, 8.5, 16 ], "texture": "#texture" },
				"up": { "uv": [ 7.5, 0, 8.5, 0.5 ], "texture": "#texture" },
				"north": { "uv": [ 7.5, 12, 8.5, 13.5 ], "texture": "#texture" },
				"south": { "uv": [ 7.5, 12, 8.5, 13.5 ], "texture": "#texture" },
				"west": { "uv": [ 0, 12, 0.5, 13.5 ], "texture": "#texture" },
				"east": { "uv": [ 15.5, 12, 16, 13.5 ], "texture": "#texture" }
			}
		},
		{
			"__comment": "Box34",
			"from": [ 7.46, 13.9, 2.294 ],
			"to": [ 8.54, 15.1, 7.693999 ],
			"faces": {
				"down": { "uv": [ 7.55, 8.755, 8.45, 13.255 ], "texture": "#texture" },
				"up": { "uv": [ 7.55, 2.745, 8.45, 7.245 ], "texture": "#texture" },
				"north": { "uv": [ 7.55, 1, 8.450001, 2 ], "texture": "#texture" },
				"south": { "uv": [ 7.55, 1, 8.45, 2 ], "texture": "#texture" },
				"west": { "uv": [ 2.745, 1, 7.245, 2 ], "texture": "#texture" },
				"east": { "uv": [ 8.755, 1, 13.255, 2 ], "texture": "#texture" }
			}
		},
		{
			"__comment": "Box34",
			"from": [ 7.46, 13.9, 2.294 ],
			"to": [ 8.54, 15.1, 7.693999 ],
			"rotation": { "origin": [ 8, 14.5, 5 ], "axis": "y", "angle": -22.5 },
			"faces": {
				"down": { "uv": [ 7.55, 8.755, 8.45, 13.255 ], "texture": "#texture", "rotation": 270 },
				"up": { "uv": [ 7.55, 2.745, 8.45, 7.245 ], "texture": "#texture", "rotation": 90 },
				"north": { "uv": [ 2.745, 1, 7.245, 2 ], "texture": "#texture" },
				"south": { "uv": [ 8.755, 1, 13.255, 2 ], "texture": "#texture" },
				"west": { "uv": [ 7.55, 1, 8.45, 2 ], "texture": "#texture" },
				"east": { "uv": [ 7.55, 1, 8.450001, 2 ], "texture": "#texture" }
			}
		},
		{
			"__comment": "Box34",
			"from": [ 7.46, 13.9, 2.294 ],
			"to": [ 8.54, 15.1, 7.693999 ],
			"rotation": { "origin": [ 8, 14.5, 5 ], "axis": "y", "angle": -45 },
			"faces": {
				"down": { "uv": [ 7.55, 8.755, 8.45, 13.255 ], "texture": "#texture", "rotation": 270 },
				"up": { "uv": [ 7.55, 2.745, 8.45, 7.245 ], "texture": "#texture", "rotation": 90 },
				"north": { "uv": [ 2.745, 1, 7.245, 2 ], "texture": "#texture" },
				"south": { "uv": [ 8.755, 1, 13.255, 2 ], "texture": "#texture" },
				"west": { "uv": [ 7.55, 1, 8.45, 2 ], "texture": "#texture" },
				"east": { "uv": [ 7.55, 1, 8.450001, 2 ], "texture": "#texture" }
			}
		},
		{
			"__comment": "Box34",
			"from": [ 5.306, 13.9, 4.46 ],
			"to": [ 10.706, 15.1, 5.54 ],
			"rotation": { "origin": [ 8, 14.5, 5 ], "axis": "y", "angle": 22.5 },
			"faces": {
				"down": { "uv": [ 7.55, 8.755, 8.45, 13.255 ], "texture": "#texture", "rotation": 270 },
				"up": { "uv": [ 7.55, 2.745, 8.45, 7.245 ], "texture": "#texture", "rotation": 90 },
				"north": { "uv": [ 2.745, 1, 7.245, 2 ], "texture": "#texture" },
				"south": { "uv": [ 8.755, 1, 13.255, 2 ], "texture": "#texture" },
				"west": { "uv": [ 7.55, 1, 8.45, 2 ], "texture": "#texture" },
				"east": { "uv": [ 7.55, 1, 8.450001, 2 ], "texture": "#texture" }
			}
		},
		{
			"__comment": "Box34",
			"from": [ 5.306, 13.9, 4.46 ],
			"to": [ 10.706, 15.1, 5.54 ],
			"faces": {
				"down": { "uv": [ 7.55, 8.755, 8.45, 13.255 ], "texture": "#texture", "rotation": 180 },
				"up": { "uv": [ 7.55, 2.745, 8.45, 7.245 ], "texture": "#texture", "rotation": 180 },
				"north": { "uv": [ 7.55, 1, 8.45, 2 ], "texture": "#texture" },
				"south": { "uv": [ 7.55, 1, 8.450001, 2 ], "texture": "#texture" },
				"west": { "uv": [ 8.755, 1, 13.255, 2 ], "texture": "#texture" },
				"east": { "uv": [ 2.745, 1, 7.245, 2 ], "texture": "#texture" }
			}
		},
		{
			"__comment": "Box34",
			"from": [ 5.306, 13.9, 4.46 ],
			"to": [ 10.706, 15.1, 5.54 ],
			"rotation": { "origin": [ 8, 14.5, 5 ], "axis": "y", "angle": -22.5 },
			"faces": {
				"down": { "uv": [ 7.55, 8.755, 8.45, 13.255 ], "texture": "#texture", "rotation": 180 },
				"up": { "uv": [ 7.55, 2.745, 8.45, 7.245 ], "texture": "#texture", "rotation": 180 },
				"north": { "uv": [ 7.55, 1, 8.45, 2 ], "texture": "#texture" },
				"south": { "uv": [ 7.55, 1, 8.450001, 2 ], "texture": "#texture" },
				"west": { "uv": [ 8.755, 1, 13.255, 2 ], "texture": "#texture" },
				"east": { "uv": [ 2.745, 1, 7.245, 2 ], "texture": "#texture" }
			}
		},
		{
			"__comment": "Box34",
			"from": [ 7.46, 13.9, 2.294 ],
			"to": [ 8.54, 15.1, 7.693999 ],
			"rotation": { "origin": [ 8, 14.5, 5 ], "axis": "y", "angle": 22.5 },
			"faces": {
				"down": { "uv": [ 7.55, 8.755, 8.45, 13.255 ], "texture": "#texture", "rotation": 270 },
				"up": { "uv": [ 7.55, 2.745, 8.45, 7.245 ], "texture": "#texture", "rotation": 90 },
				"north": { "uv": [ 2.745, 1, 7.245, 2 ], "texture": "#texture" },
				"south": { "uv": [ 8.755, 1, 13.255, 2 ], "texture": "#texture" },
				"west": { "uv": [ 7.55, 1, 8.45, 2 ], "texture": "#texture" },
				"east": { "uv": [ 7.55, 1, 8.450001, 2 ], "texture": "#texture" }
			}
		},
		{
			"__comment": "Box34",
			"from": [ 7.46, 13.9, 2.294 ],
			"to": [ 8.54, 15.1, 7.693999 ],
			"rotation": { "origin": [ 8, 14.5, 5 ], "axis": "y", "angle": 45 },
			"faces": {
				"down": { "uv": [ 7.55, 8.755, 8.45, 13.255 ], "texture": "#texture", "rotation": 270 },
				"up": { "uv": [ 7.55, 2.745, 8.45, 7.245 ], "texture": "#texture", "rotation": 90 },
				"north": { "uv": [ 2.745, 1, 7.245, 2 ], "texture": "#texture" },
				"south": { "uv": [ 8.755, 1, 13.255, 2 ], "texture": "#texture" },
				"west": { "uv": [ 7.55, 1, 8.45, 2 ], "texture": "#texture" },
				"east": { "uv": [ 7.55, 1, 8.450001, 2 ], "texture": "#texture" }
			}
		},
		{
			"__comment": "Box47",
			"from": [ 5, 14, 0.56 ],
			"to": [ 11, 14.9, 2.06 ],
			"faces": {
				"down": { "uv": [ 5, 13.95361, 11, 15.45361 ], "texture": "#texture" },
				"up": { "uv": [ 5, 0.5463915, 11, 2.046391 ], "texture": "#texture" },
				"north": { "uv": [ 5, 1.1, 11, 2 ], "texture": "#texture" },
				"south": { "uv": [ 5, 1.1, 11, 2 ], "texture": "#texture" },
				"west": { "uv": [ 0.5463917, 1.1, 2.046392, 2 ], "texture": "#texture" },
				"east": { "uv": [ 13.95361, 1.1, 15.45361, 2 ], "texture": "#texture" }
			}
		},
		{
			"__comment": "Box37",
			"from": [ 5, 19.5, -0.5 ],
			"to": [ 11, 20.5, 2.5 ],
			"faces": {
				"down": { "uv": [ 5, 13.5, 11, 16 ], "texture": "#texture" },
				"up": { "uv": [ 5, 0, 11, 2.5 ], "texture": "#texture" },
				"north": { "uv": [ 5, 11.5, 11, 12.5 ], "texture": "#texture" },
				"south": { "uv": [ 5, 11.5, 11, 12.5 ], "texture": "#texture" },
				"west": { "uv": [ 0, 11.5, 2.5, 12.5 ], "texture": "#texture" },
				"east": { "uv": [ 13.5, 11.5, 16, 12.5 ], "texture": "#texture" }
			}
		},
		{
			"__comment": "Box38",
			"from": [ 5.5, 9, 1 ],
			"to": [ 10.5, 12.5, 15.5 ],
			"faces": {
				"down": { "uv": [ 5.5, 0.5, 10.5, 15 ], "texture": "#texture" },
				"up": { "uv": [ 5.5, 1, 10.5, 15.5 ], "texture": "#texture" },
				"north": { "uv": [ 5.5, 3.5, 10.5, 7 ], "texture": "#texture" },
				"south": { "uv": [ 5.5, 3.5, 10.5, 7 ], "texture": "#texture" },
				"west": { "uv": [ 1, 3.5, 15.5, 7 ], "texture": "#texture" },
				"east": { "uv": [ 0.5, 3.5, 15, 7 ], "texture": "#texture" }
			}
		},
		{
			"__comment": "Box39",
			"from": [ 5, 8.5, 0.5 ],
			"to": [ 6, 12, 13.5 ],
			"faces": {
				"down": { "uv": [ 5, 2.5, 6, 15.5 ], "texture": "#texture" },
				"up": { "uv": [ 5, 0.5, 6, 13.5 ], "texture": "#texture" },
				"north": { "uv": [ 10, 4, 11, 7.5 ], "texture": "#texture" },
				"south": { "uv": [ 5, 4, 6, 7.5 ], "texture": "#texture" },
				"west": { "uv": [ 0.5, 4, 13.5, 7.5 ], "texture": "#texture" },
				"east": { "uv": [ 2.5, 4, 15.5, 7.5 ], "texture": "#texture" }
			}
		},
		{
			"__comment": "Box39",
			"from": [ 10, 8.5, 0.5 ],
			"to": [ 11, 12, 13.5 ],
			"faces": {
				"down": { "uv": [ 5, 2.5, 6, 15.5 ], "texture": "#texture" },
				"up": { "uv": [ 5, 0.5, 6, 13.5 ], "texture": "#texture" },
				"north": { "uv": [ 10, 4, 11, 7.5 ], "texture": "#texture" },
				"south": { "uv": [ 5, 4, 6, 7.5 ], "texture": "#texture" },
				"west": { "uv": [ 0.5, 4, 13.5, 7.5 ], "texture": "#texture" },
				"east": { "uv": [ 2.5, 4, 15.5, 7.5 ], "texture": "#texture" }
			}
		},
		{
			"__comment": "Box41",
			"from": [ 6, 15.5, 1 ],
			"to": [ 10, 19.5, 1.5 ],
			"faces": {
				"down": { "uv": [ 6, 14, 10, 14.5 ], "texture": "#texture2" },
				"up": { "uv": [ 6, 1.5, 10, 2 ], "texture": "#texture2" },
				"north": { "uv": [ 5.5, 6, 10.5, 10.5 ], "texture": "#texture2" },
				"south": { "uv": [ 5.5, 6, 10.5, 10.5 ], "texture": "#texture2" },
				"west": { "uv": [ 1.5, 0, 2, 0.5 ], "texture": "#texture2" },
				"east": { "uv": [ 14, 0, 14.5, 0.5 ], "texture": "#texture2" }
			}
		}
	],
	"display": {
		"thirdperson_righthand": {
			"translation":  [ 0, -0.3, 0 ],
			"scale":  [ 0.1, 0.1, 0.1 ]
		},
		"thirdperson_lefthand": {
			"translation":  [ 0, -0.3, 0 ],
			"scale":  [ 0.1, 0.1, 0.1 ]
		},
		"firstperson_righthand": {
			"scale":  [ 0.4, 0.4, 0.4 ]
		},
		"firstperson_lefthand": {
			"translation":  [ -9, -1.19, 6.26 ]
		},
		"gui": {
			"rotation":  [ 90, 45, -90 ],
			"translation":  [ -2.086, -4.172, 0 ],
			"scale":  [ 0.7, 0.7, 0.7 ]
		},
		"ground": {
			"rotation":  [ 0, 0, 90 ],
			"translation":  [ 0.6956, -0.694, 0 ],
			"scale":  [ 0.2, 0.2, 0.2 ]
		},
		"fixed": {
			"rotation":  [ 90, -45, 90 ],
			"translation":  [ 2.7826, -4.173, 0 ],
			"scale":  [ 0.8, 0.8, 0.8 ]
		}
	}
}