{
	"__comment": "© 2017 AKKECHI @akkechi01 with Cubik Studio - https://cubik.studio",
	"textures": {
		"particle": "blocks/particle",
		"texture": "items/4"
	},
	"elements": [ 	 
		{
			"__comment": "b1",
			"from": [ 8, 7.5, 9.5 ],
			"to": [ 8.0935, 7.97, 9.72 ],
			"faces": {
				"down": { "uv": [ 2.5, 7, 2.5, 7 ], "texture": "#texture", "cullface": "north", "rotation": 90 },
				"up": { "uv": [ 2.5, 7, 2.5, 7 ], "texture": "#texture", "cullface": "north", "rotation": 90 },
				"north": { "uv": [ 2.5, 7, 2.5, 7 ], "texture": "#texture", "cullface": "north", "rotation": 90 },
				"south": { "uv": [ 2.5, 7, 2.5, 7 ], "texture": "#texture", "cullface": "north", "rotation": 90 },
				"west": { "uv": [ 2.5, 7, 2.5, 7 ], "texture": "#texture", "cullface": "north", "rotation": 90 },
				"east": { "uv": [ 2.5, 7, 2.5, 7 ], "texture": "#texture", "cullface": "north", "rotation": 90 }
			}
		},
		{
			"__comment": "b2",
			"from": [ 7.9254, 7.6548, 9.5 ],
			"to": [ 8.0189, 8.1248, 9.72 ],
			"rotation": { "origin": [ 8.3988, 7.999901, 31.62 ], "axis": "z", "angle": 22.5 },
			"faces": {
				"down": { "uv": [ 2.5, 7, 2.5, 7 ], "texture": "#texture", "cullface": "north", "rotation": 90 },
				"up": { "uv": [ 2.5, 7, 2.5, 7 ], "texture": "#texture", "cullface": "north", "rotation": 90 },
				"north": { "uv": [ 2.5, 7, 2.5, 7 ], "texture": "#texture", "cullface": "north", "rotation": 90 },
				"south": { "uv": [ 2.5, 7, 2.5, 7 ], "texture": "#texture", "cullface": "north", "rotation": 90 },
				"west": { "uv": [ 2.5, 7, 2.5, 7 ], "texture": "#texture", "cullface": "north", "rotation": 90 },
				"east": { "uv": [ 2.5, 7, 2.5, 7 ], "texture": "#texture", "cullface": "north", "rotation": 90 }
			}
		},
		{
			"__comment": "b3",
			"from": [ 7.9157, 7.8264, 9.5 ],
			"to": [ 8.0092, 8.296399, 9.72 ],
			"rotation": { "origin": [ 8.3988, 7.999901, 31.62 ], "axis": "z", "angle": 45 },
			"faces": {
				"down": { "uv": [ 2.5, 7, 2.5, 7 ], "texture": "#texture", "cullface": "north", "rotation": 90 },
				"up": { "uv": [ 2.5, 7, 2.5, 7 ], "texture": "#texture", "cullface": "north", "rotation": 90 },
				"north": { "uv": [ 2.5, 7, 2.5, 7 ], "texture": "#texture", "cullface": "north", "rotation": 90 },
				"south": { "uv": [ 2.5, 7, 2.5, 7 ], "texture": "#texture", "cullface": "north", "rotation": 90 },
				"west": { "uv": [ 2.5, 7, 2.5, 7 ], "texture": "#texture", "cullface": "north", "rotation": 90 },
				"east": { "uv": [ 2.5, 7, 2.5, 7 ], "texture": "#texture", "cullface": "north", "rotation": 90 }
			}
		},
		{
			"__comment": "b4",
			"from": [ 7.94, 7.5737, 9.5 ],
			"to": [ 8.41, 7.667199, 9.72 ],
			"rotation": { "origin": [ 8.3988, 7.999901, 31.62 ], "axis": "z", "angle": -22.5 },
			"faces": {
				"down": { "uv": [ 2.5, 7, 2.5, 7 ], "texture": "#texture", "cullface": "north", "rotation": 90 },
				"up": { "uv": [ 2.5, 7, 2.5, 7 ], "texture": "#texture", "cullface": "north", "rotation": 90 },
				"north": { "uv": [ 2.5, 7, 2.5, 7 ], "texture": "#texture", "cullface": "north", "rotation": 90 },
				"south": { "uv": [ 2.5, 7, 2.5, 7 ], "texture": "#texture", "cullface": "north", "rotation": 90 },
				"west": { "uv": [ 2.5, 7, 2.5, 7 ], "texture": "#texture", "cullface": "north", "rotation": 90 },
				"east": { "uv": [ 2.5, 7, 2.5, 7 ], "texture": "#texture", "cullface": "north", "rotation": 90 }
			}
		},
		{
			"__comment": "b5",
			"from": [ 7.8118, 7.6883, 9.5 ],
			"to": [ 8.281799, 7.7818, 9.72 ],
			"faces": {
				"down": { "uv": [ 2.5, 7, 2.5, 7 ], "texture": "#texture", "cullface": "north", "rotation": 90 },
				"up": { "uv": [ 2.5, 7, 2.5, 7 ], "texture": "#texture", "cullface": "north", "rotation": 90 },
				"north": { "uv": [ 2.5, 7, 2.5, 7 ], "texture": "#texture", "cullface": "north", "rotation": 90 },
				"south": { "uv": [ 2.5, 7, 2.5, 7 ], "texture": "#texture", "cullface": "north", "rotation": 90 },
				"west": { "uv": [ 2.5, 7, 2.5, 7 ], "texture": "#texture", "cullface": "north", "rotation": 90 },
				"east": { "uv": [ 2.5, 7, 2.5, 7 ], "texture": "#texture", "cullface": "north", "rotation": 90 }
			}
		},
		{
			"__comment": "b6",
			"from": [ 7.7372, 7.8431, 9.5 ],
			"to": [ 8.207199, 7.9366, 9.72 ],
			"rotation": { "origin": [ 8.3988, 7.999901, 31.62 ], "axis": "z", "angle": 22.5 },
			"faces": {
				"down": { "uv": [ 2.5, 7, 2.5, 7 ], "texture": "#texture", "cullface": "north", "rotation": 90 },
				"up": { "uv": [ 2.5, 7, 2.5, 7 ], "texture": "#texture", "cullface": "north", "rotation": 90 },
				"north": { "uv": [ 2.5, 7, 2.5, 7 ], "texture": "#texture", "cullface": "north", "rotation": 90 },
				"south": { "uv": [ 2.5, 7, 2.5, 7 ], "texture": "#texture", "cullface": "north", "rotation": 90 },
				"west": { "uv": [ 2.5, 7, 2.5, 7 ], "texture": "#texture", "cullface": "north", "rotation": 90 },
				"east": { "uv": [ 2.5, 7, 2.5, 7 ], "texture": "#texture", "cullface": "north", "rotation": 90 }
			}
		},
		{
			"__comment": "b7",
			"from": [ 7.7275, 8.0147, 9.5 ],
			"to": [ 8.1975, 8.108199, 9.72 ],
			"rotation": { "origin": [ 8.3988, 7.999901, 31.62 ], "axis": "z", "angle": 45 },
			"faces": {
				"down": { "uv": [ 2.5, 7, 2.5, 7 ], "texture": "#texture", "cullface": "north", "rotation": 90 },
				"up": { "uv": [ 2.5, 7, 2.5, 7 ], "texture": "#texture", "cullface": "north", "rotation": 90 },
				"north": { "uv": [ 2.5, 7, 2.5, 7 ], "texture": "#texture", "cullface": "north", "rotation": 90 },
				"south": { "uv": [ 2.5, 7, 2.5, 7 ], "texture": "#texture", "cullface": "north", "rotation": 90 },
				"west": { "uv": [ 2.5, 7, 2.5, 7 ], "texture": "#texture", "cullface": "north", "rotation": 90 },
				"east": { "uv": [ 2.5, 7, 2.5, 7 ], "texture": "#texture", "cullface": "north", "rotation": 90 }
			}
		},
		{
			"__comment": "b",
			"from": [ 8.1283, 7.3854, 9.5 ],
			"to": [ 8.2218, 7.855399, 9.72 ],
			"rotation": { "origin": [ 8.3988, 7.999901, 31.62 ], "axis": "z", "angle": -22.5 },
			"faces": {
				"down": { "uv": [ 2.5, 7, 2.5, 7 ], "texture": "#texture", "cullface": "north", "rotation": 90 },
				"up": { "uv": [ 2.5, 7, 2.5, 7 ], "texture": "#texture", "cullface": "north", "rotation": 90 },
				"north": { "uv": [ 2.5, 7, 2.5, 7 ], "texture": "#texture", "cullface": "north", "rotation": 90 },
				"south": { "uv": [ 2.5, 7, 2.5, 7 ], "texture": "#texture", "cullface": "north", "rotation": 90 },
				"west": { "uv": [ 2.5, 7, 2.5, 7 ], "texture": "#texture", "cullface": "north", "rotation": 90 },
				"east": { "uv": [ 2.5, 7, 2.5, 7 ], "texture": "#texture", "cullface": "north", "rotation": 90 }
			}
		},
		{
			"__comment": "c",
			"from": [ 8.1282, 7.3854, 9.27 ],
			"to": [ 8.2217, 7.855399, 9.42 ],
			"rotation": { "origin": [ 8.3988, 7.999901, 31.62 ], "axis": "z", "angle": -22.5 },
			"faces": {
				"down": { "uv": [ 2.5, 7, 2.5, 7 ], "texture": "#texture", "cullface": "north", "rotation": 90 },
				"up": { "uv": [ 2.5, 7, 2.5, 7 ], "texture": "#texture", "cullface": "north", "rotation": 90 },
				"north": { "uv": [ 2.5, 7, 2.5, 7 ], "texture": "#texture", "cullface": "north", "rotation": 90 },
				"south": { "uv": [ 2.5, 7, 2.5, 7 ], "texture": "#texture", "cullface": "north", "rotation": 90 },
				"west": { "uv": [ 2.5, 7, 2.5, 7 ], "texture": "#texture", "cullface": "north", "rotation": 90 },
				"east": { "uv": [ 2.5, 7, 2.5, 7 ], "texture": "#texture", "cullface": "north", "rotation": 90 }
			}
		},
		{
			"__comment": "c1",
			"from": [ 8.0001, 7.5, 9.27 ],
			"to": [ 8.093599, 7.97, 9.42 ],
			"faces": {
				"down": { "uv": [ 2.5, 7, 2.5, 7 ], "texture": "#texture", "cullface": "north", "rotation": 90 },
				"up": { "uv": [ 2.5, 7, 2.5, 7 ], "texture": "#texture", "cullface": "north", "rotation": 90 },
				"north": { "uv": [ 2.5, 7, 2.5, 7 ], "texture": "#texture", "cullface": "north", "rotation": 90 },
				"south": { "uv": [ 2.5, 7, 2.5, 7 ], "texture": "#texture", "cullface": "north", "rotation": 90 },
				"west": { "uv": [ 2.5, 7, 2.5, 7 ], "texture": "#texture", "cullface": "north", "rotation": 90 },
				"east": { "uv": [ 2.5, 7, 2.5, 7 ], "texture": "#texture", "cullface": "north", "rotation": 90 }
			}
		},
		{
			"__comment": "c2",
			"from": [ 7.9255, 7.6548, 9.27 ],
			"to": [ 8.019, 8.1248, 9.42 ],
			"rotation": { "origin": [ 8.3988, 7.999901, 31.62 ], "axis": "z", "angle": 22.5 },
			"faces": {
				"down": { "uv": [ 2.5, 7, 2.5, 7 ], "texture": "#texture", "cullface": "north", "rotation": 90 },
				"up": { "uv": [ 2.5, 7, 2.5, 7 ], "texture": "#texture", "cullface": "north", "rotation": 90 },
				"north": { "uv": [ 2.5, 7, 2.5, 7 ], "texture": "#texture", "cullface": "north", "rotation": 90 },
				"south": { "uv": [ 2.5, 7, 2.5, 7 ], "texture": "#texture", "cullface": "north", "rotation": 90 },
				"west": { "uv": [ 2.5, 7, 2.5, 7 ], "texture": "#texture", "cullface": "north", "rotation": 90 },
				"east": { "uv": [ 2.5, 7, 2.5, 7 ], "texture": "#texture", "cullface": "north", "rotation": 90 }
			}
		},
		{
			"__comment": "c3",
			"from": [ 7.9158, 7.8264, 9.27 ],
			"to": [ 8.0093, 8.296399, 9.42 ],
			"rotation": { "origin": [ 8.3988, 7.999901, 31.62 ], "axis": "z", "angle": 45 },
			"faces": {
				"down": { "uv": [ 2.5, 7, 2.5, 7 ], "texture": "#texture", "cullface": "north", "rotation": 90 },
				"up": { "uv": [ 2.5, 7, 2.5, 7 ], "texture": "#texture", "cullface": "north", "rotation": 90 },
				"north": { "uv": [ 2.5, 7, 2.5, 7 ], "texture": "#texture", "cullface": "north", "rotation": 90 },
				"south": { "uv": [ 2.5, 7, 2.5, 7 ], "texture": "#texture", "cullface": "north", "rotation": 90 },
				"west": { "uv": [ 2.5, 7, 2.5, 7 ], "texture": "#texture", "cullface": "north", "rotation": 90 },
				"east": { "uv": [ 2.5, 7, 2.5, 7 ], "texture": "#texture", "cullface": "north", "rotation": 90 }
			}
		},
		{
			"__comment": "c4",
			"from": [ 7.94, 7.5736, 9.27 ],
			"to": [ 8.41, 7.6671, 9.42 ],
			"rotation": { "origin": [ 8.3988, 7.999901, 31.62 ], "axis": "z", "angle": -22.5 },
			"faces": {
				"down": { "uv": [ 2.5, 7, 2.5, 7 ], "texture": "#texture", "cullface": "north", "rotation": 90 },
				"up": { "uv": [ 2.5, 7, 2.5, 7 ], "texture": "#texture", "cullface": "north", "rotation": 90 },
				"north": { "uv": [ 2.5, 7, 2.5, 7 ], "texture": "#texture", "cullface": "north", "rotation": 90 },
				"south": { "uv": [ 2.5, 7, 2.5, 7 ], "texture": "#texture", "cullface": "north", "rotation": 90 },
				"west": { "uv": [ 2.5, 7, 2.5, 7 ], "texture": "#texture", "cullface": "north", "rotation": 90 },
				"east": { "uv": [ 2.5, 7, 2.5, 7 ], "texture": "#texture", "cullface": "north", "rotation": 90 }
			}
		},
		{
			"__comment": "c5",
			"from": [ 7.8118, 7.6882, 9.27 ],
			"to": [ 8.281799, 7.7817, 9.42 ],
			"faces": {
				"down": { "uv": [ 2.5, 7, 2.5, 7 ], "texture": "#texture", "cullface": "north", "rotation": 90 },
				"up": { "uv": [ 2.5, 7, 2.5, 7 ], "texture": "#texture", "cullface": "north", "rotation": 90 },
				"north": { "uv": [ 2.5, 7, 2.5, 7 ], "texture": "#texture", "cullface": "north", "rotation": 90 },
				"south": { "uv": [ 2.5, 7, 2.5, 7 ], "texture": "#texture", "cullface": "north", "rotation": 90 },
				"west": { "uv": [ 2.5, 7, 2.5, 7 ], "texture": "#texture", "cullface": "north", "rotation": 90 },
				"east": { "uv": [ 2.5, 7, 2.5, 7 ], "texture": "#texture", "cullface": "north", "rotation": 90 }
			}
		},
		{
			"__comment": "c6",
			"from": [ 7.7372, 7.843, 9.27 ],
			"to": [ 8.207199, 7.9365, 9.42 ],
			"rotation": { "origin": [ 8.3988, 7.999901, 31.62 ], "axis": "z", "angle": 22.5 },
			"faces": {
				"down": { "uv": [ 2.5, 7, 2.5, 7 ], "texture": "#texture", "cullface": "north", "rotation": 90 },
				"up": { "uv": [ 2.5, 7, 2.5, 7 ], "texture": "#texture", "cullface": "north", "rotation": 90 },
				"north": { "uv": [ 2.5, 7, 2.5, 7 ], "texture": "#texture", "cullface": "north", "rotation": 90 },
				"south": { "uv": [ 2.5, 7, 2.5, 7 ], "texture": "#texture", "cullface": "north", "rotation": 90 },
				"west": { "uv": [ 2.5, 7, 2.5, 7 ], "texture": "#texture", "cullface": "north", "rotation": 90 },
				"east": { "uv": [ 2.5, 7, 2.5, 7 ], "texture": "#texture", "cullface": "north", "rotation": 90 }
			}
		},
		{
			"__comment": "c7",
			"from": [ 7.7275, 8.0146, 9.27 ],
			"to": [ 8.1975, 8.1081, 9.42 ],
			"rotation": { "origin": [ 8.3988, 7.999901, 31.62 ], "axis": "z", "angle": 45 },
			"faces": {
				"down": { "uv": [ 2.5, 7, 2.5, 7 ], "texture": "#texture", "cullface": "north", "rotation": 90 },
				"up": { "uv": [ 2.5, 7, 2.5, 7 ], "texture": "#texture", "cullface": "north", "rotation": 90 },
				"north": { "uv": [ 2.5, 7, 2.5, 7 ], "texture": "#texture", "cullface": "north", "rotation": 90 },
				"south": { "uv": [ 2.5, 7, 2.5, 7 ], "texture": "#texture", "cullface": "north", "rotation": 90 },
				"west": { "uv": [ 2.5, 7, 2.5, 7 ], "texture": "#texture", "cullface": "north", "rotation": 90 },
				"east": { "uv": [ 2.5, 7, 2.5, 7 ], "texture": "#texture", "cullface": "north", "rotation": 90 }
			}
		},
		{
			"__comment": "e",
			"from": [ 8.177199, 7.829, 8.3 ],
			"to": [ 8.2772, 7.9505, 9 ],
			"rotation": { "origin": [ 8.3988, 7.999901, 31.62 ], "axis": "z", "angle": 22.5 },
			"faces": {
				"down": { "uv": [ 2.5, 7, 2.5, 7 ], "texture": "#texture", "cullface": "north", "rotation": 90 },
				"up": { "uv": [ 2.5, 7, 2.5, 7 ], "texture": "#texture", "cullface": "north", "rotation": 90 },
				"north": { "uv": [ 2.5, 7, 2.5, 7 ], "texture": "#texture", "cullface": "north", "rotation": 90 },
				"south": { "uv": [ 2.5, 7, 2.5, 7 ], "texture": "#texture", "cullface": "north", "rotation": 90 },
				"west": { "uv": [ 2.5, 7, 2.5, 7 ], "texture": "#texture", "cullface": "north", "rotation": 90 },
				"east": { "uv": [ 2.5, 7, 2.5, 7 ], "texture": "#texture", "cullface": "north", "rotation": 90 }
			}
		},
		{
			"__comment": "e1",
			"from": [ 7.87, 7.5597, 8.3 ],
			"to": [ 7.97, 7.6812, 9 ],
			"rotation": { "origin": [ 8.3988, 7.999901, 31.62 ], "axis": "z", "angle": -22.5 },
			"faces": {
				"down": { "uv": [ 2.5, 7, 2.5, 7 ], "texture": "#texture", "cullface": "north", "rotation": 90 },
				"up": { "uv": [ 2.5, 7, 2.5, 7 ], "texture": "#texture", "cullface": "north", "rotation": 90 },
				"north": { "uv": [ 2.5, 7, 2.5, 7 ], "texture": "#texture", "cullface": "north", "rotation": 90 },
				"south": { "uv": [ 2.5, 7, 2.5, 7 ], "texture": "#texture", "cullface": "north", "rotation": 90 },
				"west": { "uv": [ 2.5, 7, 2.5, 7 ], "texture": "#texture", "cullface": "north", "rotation": 90 },
				"east": { "uv": [ 2.5, 7, 2.5, 7 ], "texture": "#texture", "cullface": "north", "rotation": 90 }
			}
		},
		{
			"__comment": "e2",
			"from": [ 7.9115, 8.0948, 8.3 ],
			"to": [ 8.033, 8.1948, 9 ],
			"rotation": { "origin": [ 8.3988, 7.999901, 31.62 ], "axis": "z", "angle": 22.5 },
			"faces": {
				"down": { "uv": [ 2.5, 7, 2.5, 7 ], "texture": "#texture", "cullface": "north", "rotation": 90 },
				"up": { "uv": [ 2.5, 7, 2.5, 7 ], "texture": "#texture", "cullface": "north", "rotation": 90 },
				"north": { "uv": [ 2.5, 7, 2.5, 7 ], "texture": "#texture", "cullface": "north", "rotation": 90 },
				"south": { "uv": [ 2.5, 7, 2.5, 7 ], "texture": "#texture", "cullface": "north", "rotation": 90 },
				"west": { "uv": [ 2.5, 7, 2.5, 7 ], "texture": "#texture", "cullface": "north", "rotation": 90 },
				"east": { "uv": [ 2.5, 7, 2.5, 7 ], "texture": "#texture", "cullface": "north", "rotation": 90 }
			}
		},
		{
			"__comment": "e3",
			"from": [ 8.1143, 7.8254, 8.3 ],
			"to": [ 8.2358, 7.9254, 9 ],
			"rotation": { "origin": [ 8.3988, 7.999901, 31.62 ], "axis": "z", "angle": -22.5 },
			"faces": {
				"down": { "uv": [ 2.5, 7, 2.5, 7 ], "texture": "#texture", "cullface": "north", "rotation": 90 },
				"up": { "uv": [ 2.5, 7, 2.5, 7 ], "texture": "#texture", "cullface": "north", "rotation": 90 },
				"north": { "uv": [ 2.5, 7, 2.5, 7 ], "texture": "#texture", "cullface": "north", "rotation": 90 },
				"south": { "uv": [ 2.5, 7, 2.5, 7 ], "texture": "#texture", "cullface": "north", "rotation": 90 },
				"west": { "uv": [ 2.5, 7, 2.5, 7 ], "texture": "#texture", "cullface": "north", "rotation": 90 },
				"east": { "uv": [ 2.5, 7, 2.5, 7 ], "texture": "#texture", "cullface": "north", "rotation": 90 }
			}
		},
		{
			"__comment": "e4",
			"from": [ 7.6672, 7.8291, 8.3 ],
			"to": [ 7.7672, 7.9506, 9 ],
			"rotation": { "origin": [ 8.3988, 7.999901, 31.62 ], "axis": "z", "angle": 22.5 },
			"faces": {
				"down": { "uv": [ 2.5, 7, 2.5, 7 ], "texture": "#texture", "cullface": "north", "rotation": 90 },
				"up": { "uv": [ 2.5, 7, 2.5, 7 ], "texture": "#texture", "cullface": "north", "rotation": 90 },
				"north": { "uv": [ 2.5, 7, 2.5, 7 ], "texture": "#texture", "cullface": "north", "rotation": 90 },
				"south": { "uv": [ 2.5, 7, 2.5, 7 ], "texture": "#texture", "cullface": "north", "rotation": 90 },
				"west": { "uv": [ 2.5, 7, 2.5, 7 ], "texture": "#texture", "cullface": "north", "rotation": 90 },
				"east": { "uv": [ 2.5, 7, 2.5, 7 ], "texture": "#texture", "cullface": "north", "rotation": 90 }
			}
		},
		{
			"__comment": "e5",
			"from": [ 8.1142, 7.3154, 8.3 ],
			"to": [ 8.2357, 7.4154, 9 ],
			"rotation": { "origin": [ 8.3988, 7.999901, 31.62 ], "axis": "z", "angle": -22.5 },
			"faces": {
				"down": { "uv": [ 2.5, 7, 2.5, 7 ], "texture": "#texture", "cullface": "north", "rotation": 90 },
				"up": { "uv": [ 2.5, 7, 2.5, 7 ], "texture": "#texture", "cullface": "north", "rotation": 90 },
				"north": { "uv": [ 2.5, 7, 2.5, 7 ], "texture": "#texture", "cullface": "north", "rotation": 90 },
				"south": { "uv": [ 2.5, 7, 2.5, 7 ], "texture": "#texture", "cullface": "north", "rotation": 90 },
				"west": { "uv": [ 2.5, 7, 2.5, 7 ], "texture": "#texture", "cullface": "north", "rotation": 90 },
				"east": { "uv": [ 2.5, 7, 2.5, 7 ], "texture": "#texture", "cullface": "north", "rotation": 90 }
			}
		},
		{
			"__comment": "e6",
			"from": [ 7.9114, 7.5848, 8.3 ],
			"to": [ 8.0329, 7.684799, 9 ],
			"rotation": { "origin": [ 8.3988, 7.999901, 31.62 ], "axis": "z", "angle": 22.5 },
			"faces": {
				"down": { "uv": [ 2.5, 7, 2.5, 7 ], "texture": "#texture", "cullface": "north", "rotation": 90 },
				"up": { "uv": [ 2.5, 7, 2.5, 7 ], "texture": "#texture", "cullface": "north", "rotation": 90 },
				"north": { "uv": [ 2.5, 7, 2.5, 7 ], "texture": "#texture", "cullface": "north", "rotation": 90 },
				"south": { "uv": [ 2.5, 7, 2.5, 7 ], "texture": "#texture", "cullface": "north", "rotation": 90 },
				"west": { "uv": [ 2.5, 7, 2.5, 7 ], "texture": "#texture", "cullface": "north", "rotation": 90 },
				"east": { "uv": [ 2.5, 7, 2.5, 7 ], "texture": "#texture", "cullface": "north", "rotation": 90 }
			}
		},
		{
			"__comment": "e7",
			"from": [ 8.38, 7.5596, 8.3 ],
			"to": [ 8.48, 7.6811, 9 ],
			"rotation": { "origin": [ 8.3988, 7.999901, 31.62 ], "axis": "z", "angle": -22.5 },
			"faces": {
				"down": { "uv": [ 2.5, 7, 2.5, 7 ], "texture": "#texture", "cullface": "north", "rotation": 90 },
				"up": { "uv": [ 2.5, 7, 2.5, 7 ], "texture": "#texture", "cullface": "north", "rotation": 90 },
				"north": { "uv": [ 2.5, 7, 2.5, 7 ], "texture": "#texture", "cullface": "north", "rotation": 90 },
				"south": { "uv": [ 2.5, 7, 2.5, 7 ], "texture": "#texture", "cullface": "north", "rotation": 90 },
				"west": { "uv": [ 2.5, 7, 2.5, 7 ], "texture": "#texture", "cullface": "north", "rotation": 90 },
				"east": { "uv": [ 2.5, 7, 2.5, 7 ], "texture": "#texture", "cullface": "north", "rotation": 90 }
			}
		},
		{
			"__comment": "f",
			"from": [ 7.6472, 7.8247, 8.15 ],
			"to": [ 7.7672, 7.9547, 8.3 ],
			"rotation": { "origin": [ 8.3988, 7.999901, 31.62 ], "axis": "z", "angle": 22.5 },
			"faces": {
				"down": { "uv": [ 2.5, 7, 2.5, 7 ], "texture": "#texture", "cullface": "north", "rotation": 90 },
				"up": { "uv": [ 2.5, 7, 2.5, 7 ], "texture": "#texture", "cullface": "north", "rotation": 90 },
				"north": { "uv": [ 2.5, 7, 2.5, 7 ], "texture": "#texture", "cullface": "north", "rotation": 90 },
				"south": { "uv": [ 2.5, 7, 2.5, 7 ], "texture": "#texture", "cullface": "north", "rotation": 90 },
				"west": { "uv": [ 2.5, 7, 2.5, 7 ], "texture": "#texture", "cullface": "north", "rotation": 90 },
				"east": { "uv": [ 2.5, 7, 2.5, 7 ], "texture": "#texture", "cullface": "north", "rotation": 90 }
			}
		},
		{
			"__comment": "f1",
			"from": [ 7.7218, 7.6699, 8.15 ],
			"to": [ 7.8418, 7.799899, 8.3 ],
			"faces": {
				"down": { "uv": [ 2.5, 7, 2.5, 7 ], "texture": "#texture", "cullface": "north", "rotation": 90 },
				"up": { "uv": [ 2.5, 7, 2.5, 7 ], "texture": "#texture", "cullface": "north", "rotation": 90 },
				"north": { "uv": [ 2.5, 7, 2.5, 7 ], "texture": "#texture", "cullface": "north", "rotation": 90 },
				"south": { "uv": [ 2.5, 7, 2.5, 7 ], "texture": "#texture", "cullface": "north", "rotation": 90 },
				"west": { "uv": [ 2.5, 7, 2.5, 7 ], "texture": "#texture", "cullface": "north", "rotation": 90 },
				"east": { "uv": [ 2.5, 7, 2.5, 7 ], "texture": "#texture", "cullface": "north", "rotation": 90 }
			}
		},
		{
			"__comment": "f2",
			"from": [ 7.85, 7.5553, 8.15 ],
			"to": [ 7.97, 7.6853, 8.3 ],
			"rotation": { "origin": [ 8.3988, 7.999901, 31.62 ], "axis": "z", "angle": -22.5 },
			"faces": {
				"down": { "uv": [ 2.5, 7, 2.5, 7 ], "texture": "#texture", "cullface": "north", "rotation": 90 },
				"up": { "uv": [ 2.5, 7, 2.5, 7 ], "texture": "#texture", "cullface": "north", "rotation": 90 },
				"north": { "uv": [ 2.5, 7, 2.5, 7 ], "texture": "#texture", "cullface": "north", "rotation": 90 },
				"south": { "uv": [ 2.5, 7, 2.5, 7 ], "texture": "#texture", "cullface": "north", "rotation": 90 },
				"west": { "uv": [ 2.5, 7, 2.5, 7 ], "texture": "#texture", "cullface": "north", "rotation": 90 },
				"east": { "uv": [ 2.5, 7, 2.5, 7 ], "texture": "#texture", "cullface": "north", "rotation": 90 }
			}
		},
		{
			"__comment": "f3",
			"from": [ 8.0123, 7.4985, 8.15 ],
			"to": [ 8.132299, 7.628499, 8.3 ],
			"rotation": { "origin": [ 8.3988, 7.999901, 31.62 ], "axis": "z", "angle": -45 },
			"faces": {
				"down": { "uv": [ 2.5, 7, 2.5, 7 ], "texture": "#texture", "cullface": "north", "rotation": 90 },
				"up": { "uv": [ 2.5, 7, 2.5, 7 ], "texture": "#texture", "cullface": "north", "rotation": 90 },
				"north": { "uv": [ 2.5, 7, 2.5, 7 ], "texture": "#texture", "cullface": "north", "rotation": 90 },
				"south": { "uv": [ 2.5, 7, 2.5, 7 ], "texture": "#texture", "cullface": "north", "rotation": 90 },
				"west": { "uv": [ 2.5, 7, 2.5, 7 ], "texture": "#texture", "cullface": "north", "rotation": 90 },
				"east": { "uv": [ 2.5, 7, 2.5, 7 ], "texture": "#texture", "cullface": "north", "rotation": 90 }
			}
		},
		{
			"__comment": "f4",
			"from": [ 7.9071, 8.0948, 8.15 ],
			"to": [ 8.0371, 8.214801, 8.3 ],
			"rotation": { "origin": [ 8.3988, 7.999901, 31.62 ], "axis": "z", "angle": 22.5 },
			"faces": {
				"down": { "uv": [ 2.5, 7, 2.5, 7 ], "texture": "#texture", "cullface": "north", "rotation": 90 },
				"up": { "uv": [ 2.5, 7, 2.5, 7 ], "texture": "#texture", "cullface": "north", "rotation": 90 },
				"north": { "uv": [ 2.5, 7, 2.5, 7 ], "texture": "#texture", "cullface": "north", "rotation": 90 },
				"south": { "uv": [ 2.5, 7, 2.5, 7 ], "texture": "#texture", "cullface": "north", "rotation": 90 },
				"west": { "uv": [ 2.5, 7, 2.5, 7 ], "texture": "#texture", "cullface": "north", "rotation": 90 },
				"east": { "uv": [ 2.5, 7, 2.5, 7 ], "texture": "#texture", "cullface": "north", "rotation": 90 }
			}
		},
		{
			"__comment": "f5",
			"from": [ 7.9817, 7.94, 8.15 ],
			"to": [ 8.1117, 8.059999, 8.3 ],
			"faces": {
				"down": { "uv": [ 2.5, 7, 2.5, 7 ], "texture": "#texture", "cullface": "north", "rotation": 90 },
				"up": { "uv": [ 2.5, 7, 2.5, 7 ], "texture": "#texture", "cullface": "north", "rotation": 90 },
				"north": { "uv": [ 2.5, 7, 2.5, 7 ], "texture": "#texture", "cullface": "north", "rotation": 90 },
				"south": { "uv": [ 2.5, 7, 2.5, 7 ], "texture": "#texture", "cullface": "north", "rotation": 90 },
				"west": { "uv": [ 2.5, 7, 2.5, 7 ], "texture": "#texture", "cullface": "north", "rotation": 90 },
				"east": { "uv": [ 2.5, 7, 2.5, 7 ], "texture": "#texture", "cullface": "north", "rotation": 90 }
			}
		},
		{
			"__comment": "f6",
			"from": [ 8.1099, 7.8254, 8.15 ],
			"to": [ 8.2399, 7.9454, 8.3 ],
			"rotation": { "origin": [ 8.3988, 7.999901, 31.62 ], "axis": "z", "angle": -22.5 },
			"faces": {
				"down": { "uv": [ 2.5, 7, 2.5, 7 ], "texture": "#texture", "cullface": "north", "rotation": 90 },
				"up": { "uv": [ 2.5, 7, 2.5, 7 ], "texture": "#texture", "cullface": "north", "rotation": 90 },
				"north": { "uv": [ 2.5, 7, 2.5, 7 ], "texture": "#texture", "cullface": "north", "rotation": 90 },
				"south": { "uv": [ 2.5, 7, 2.5, 7 ], "texture": "#texture", "cullface": "north", "rotation": 90 },
				"west": { "uv": [ 2.5, 7, 2.5, 7 ], "texture": "#texture", "cullface": "north", "rotation": 90 },
				"east": { "uv": [ 2.5, 7, 2.5, 7 ], "texture": "#texture", "cullface": "north", "rotation": 90 }
			}
		},
		{
			"__comment": "f7",
			"from": [ 8.2722, 7.7686, 8.15 ],
			"to": [ 8.4022, 7.8886, 8.3 ],
			"rotation": { "origin": [ 8.3988, 7.999901, 31.62 ], "axis": "z", "angle": -45 },
			"faces": {
				"down": { "uv": [ 2.5, 7, 2.5, 7 ], "texture": "#texture", "cullface": "north", "rotation": 90 },
				"up": { "uv": [ 2.5, 7, 2.5, 7 ], "texture": "#texture", "cullface": "north", "rotation": 90 },
				"north": { "uv": [ 2.5, 7, 2.5, 7 ], "texture": "#texture", "cullface": "north", "rotation": 90 },
				"south": { "uv": [ 2.5, 7, 2.5, 7 ], "texture": "#texture", "cullface": "north", "rotation": 90 },
				"west": { "uv": [ 2.5, 7, 2.5, 7 ], "texture": "#texture", "cullface": "north", "rotation": 90 },
				"east": { "uv": [ 2.5, 7, 2.5, 7 ], "texture": "#texture", "cullface": "north", "rotation": 90 }
			}
		},
		{
			"__comment": "f8",
			"from": [ 8.177199, 7.8249, 8.15 ],
			"to": [ 8.297199, 7.9549, 8.3 ],
			"rotation": { "origin": [ 8.3988, 7.999901, 31.62 ], "axis": "z", "angle": 22.5 },
			"faces": {
				"down": { "uv": [ 2.5, 7, 2.5, 7 ], "texture": "#texture", "cullface": "north", "rotation": 90 },
				"up": { "uv": [ 2.5, 7, 2.5, 7 ], "texture": "#texture", "cullface": "north", "rotation": 90 },
				"north": { "uv": [ 2.5, 7, 2.5, 7 ], "texture": "#texture", "cullface": "north", "rotation": 90 },
				"south": { "uv": [ 2.5, 7, 2.5, 7 ], "texture": "#texture", "cullface": "north", "rotation": 90 },
				"west": { "uv": [ 2.5, 7, 2.5, 7 ], "texture": "#texture", "cullface": "north", "rotation": 90 },
				"east": { "uv": [ 2.5, 7, 2.5, 7 ], "texture": "#texture", "cullface": "north", "rotation": 90 }
			}
		},
		{
			"__comment": "f9",
			"from": [ 8.2518, 7.6701, 8.15 ],
			"to": [ 8.371799, 7.8001, 8.3 ],
			"faces": {
				"down": { "uv": [ 2.5, 7, 2.5, 7 ], "texture": "#texture", "cullface": "north", "rotation": 90 },
				"up": { "uv": [ 2.5, 7, 2.5, 7 ], "texture": "#texture", "cullface": "north", "rotation": 90 },
				"north": { "uv": [ 2.5, 7, 2.5, 7 ], "texture": "#texture", "cullface": "north", "rotation": 90 },
				"south": { "uv": [ 2.5, 7, 2.5, 7 ], "texture": "#texture", "cullface": "north", "rotation": 90 },
				"west": { "uv": [ 2.5, 7, 2.5, 7 ], "texture": "#texture", "cullface": "north", "rotation": 90 },
				"east": { "uv": [ 2.5, 7, 2.5, 7 ], "texture": "#texture", "cullface": "north", "rotation": 90 }
			}
		},
		{
			"__comment": "f10",
			"from": [ 8.38, 7.5555, 8.15 ],
			"to": [ 8.499999, 7.6855, 8.3 ],
			"rotation": { "origin": [ 8.3988, 7.999901, 31.62 ], "axis": "z", "angle": -22.5 },
			"faces": {
				"down": { "uv": [ 2.5, 7, 2.5, 7 ], "texture": "#texture", "cullface": "north", "rotation": 90 },
				"up": { "uv": [ 2.5, 7, 2.5, 7 ], "texture": "#texture", "cullface": "north", "rotation": 90 },
				"north": { "uv": [ 2.5, 7, 2.5, 7 ], "texture": "#texture", "cullface": "north", "rotation": 90 },
				"south": { "uv": [ 2.5, 7, 2.5, 7 ], "texture": "#texture", "cullface": "north", "rotation": 90 },
				"west": { "uv": [ 2.5, 7, 2.5, 7 ], "texture": "#texture", "cullface": "north", "rotation": 90 },
				"east": { "uv": [ 2.5, 7, 2.5, 7 ], "texture": "#texture", "cullface": "north", "rotation": 90 }
			}
		},
		{
			"__comment": "f11",
			"from": [ 8.5423, 7.4987, 8.15 ],
			"to": [ 8.662299, 7.6287, 8.3 ],
			"rotation": { "origin": [ 8.3988, 7.999901, 31.62 ], "axis": "z", "angle": -45 },
			"faces": {
				"down": { "uv": [ 2.5, 7, 2.5, 7 ], "texture": "#texture", "cullface": "north", "rotation": 90 },
				"up": { "uv": [ 2.5, 7, 2.5, 7 ], "texture": "#texture", "cullface": "north", "rotation": 90 },
				"north": { "uv": [ 2.5, 7, 2.5, 7 ], "texture": "#texture", "cullface": "north", "rotation": 90 },
				"south": { "uv": [ 2.5, 7, 2.5, 7 ], "texture": "#texture", "cullface": "north", "rotation": 90 },
				"west": { "uv": [ 2.5, 7, 2.5, 7 ], "texture": "#texture", "cullface": "north", "rotation": 90 },
				"east": { "uv": [ 2.5, 7, 2.5, 7 ], "texture": "#texture", "cullface": "north", "rotation": 90 }
			}
		},
		{
			"__comment": "f12",
			"from": [ 7.9071, 8.0948, 8.15 ],
			"to": [ 8.0371, 8.214801, 8.3 ],
			"rotation": { "origin": [ 8.3988, 7.999901, 31.62 ], "axis": "z", "angle": 22.5 },
			"faces": {
				"down": { "uv": [ 2.5, 7, 2.5, 7 ], "texture": "#texture", "cullface": "north", "rotation": 90 },
				"up": { "uv": [ 2.5, 7, 2.5, 7 ], "texture": "#texture", "cullface": "north", "rotation": 90 },
				"north": { "uv": [ 2.5, 7, 2.5, 7 ], "texture": "#texture", "cullface": "north", "rotation": 90 },
				"south": { "uv": [ 2.5, 7, 2.5, 7 ], "texture": "#texture", "cullface": "north", "rotation": 90 },
				"west": { "uv": [ 2.5, 7, 2.5, 7 ], "texture": "#texture", "cullface": "north", "rotation": 90 },
				"east": { "uv": [ 2.5, 7, 2.5, 7 ], "texture": "#texture", "cullface": "north", "rotation": 90 }
			}
		},
		{
			"__comment": "f13",
			"from": [ 7.9073, 7.5648, 8.15 ],
			"to": [ 8.0373, 7.6848, 8.3 ],
			"rotation": { "origin": [ 8.3988, 7.999901, 31.62 ], "axis": "z", "angle": 22.5 },
			"faces": {
				"down": { "uv": [ 2.5, 7, 2.5, 7 ], "texture": "#texture", "cullface": "north", "rotation": 90 },
				"up": { "uv": [ 2.5, 7, 2.5, 7 ], "texture": "#texture", "cullface": "north", "rotation": 90 },
				"north": { "uv": [ 2.5, 7, 2.5, 7 ], "texture": "#texture", "cullface": "north", "rotation": 90 },
				"south": { "uv": [ 2.5, 7, 2.5, 7 ], "texture": "#texture", "cullface": "north", "rotation": 90 },
				"west": { "uv": [ 2.5, 7, 2.5, 7 ], "texture": "#texture", "cullface": "north", "rotation": 90 },
				"east": { "uv": [ 2.5, 7, 2.5, 7 ], "texture": "#texture", "cullface": "north", "rotation": 90 }
			}
		},
		{
			"__comment": "f14",
			"from": [ 7.9819, 7.41, 8.15 ],
			"to": [ 8.111899, 7.53, 8.3 ],
			"faces": {
				"down": { "uv": [ 2.5, 7, 2.5, 7 ], "texture": "#texture", "cullface": "north", "rotation": 90 },
				"up": { "uv": [ 2.5, 7, 2.5, 7 ], "texture": "#texture", "cullface": "north", "rotation": 90 },
				"north": { "uv": [ 2.5, 7, 2.5, 7 ], "texture": "#texture", "cullface": "north", "rotation": 90 },
				"south": { "uv": [ 2.5, 7, 2.5, 7 ], "texture": "#texture", "cullface": "north", "rotation": 90 },
				"west": { "uv": [ 2.5, 7, 2.5, 7 ], "texture": "#texture", "cullface": "north", "rotation": 90 },
				"east": { "uv": [ 2.5, 7, 2.5, 7 ], "texture": "#texture", "cullface": "north", "rotation": 90 }
			}
		},
		{
			"__comment": "f15",
			"from": [ 8.1101, 7.2954, 8.15 ],
			"to": [ 8.2401, 7.4154, 8.3 ],
			"rotation": { "origin": [ 8.3988, 7.999901, 31.62 ], "axis": "z", "angle": -22.5 },
			"faces": {
				"down": { "uv": [ 2.5, 7, 2.5, 7 ], "texture": "#texture", "cullface": "north", "rotation": 90 },
				"up": { "uv": [ 2.5, 7, 2.5, 7 ], "texture": "#texture", "cullface": "north", "rotation": 90 },
				"north": { "uv": [ 2.5, 7, 2.5, 7 ], "texture": "#texture", "cullface": "north", "rotation": 90 },
				"south": { "uv": [ 2.5, 7, 2.5, 7 ], "texture": "#texture", "cullface": "north", "rotation": 90 },
				"west": { "uv": [ 2.5, 7, 2.5, 7 ], "texture": "#texture", "cullface": "north", "rotation": 90 },
				"east": { "uv": [ 2.5, 7, 2.5, 7 ], "texture": "#texture", "cullface": "north", "rotation": 90 }
			}
		},
		{
			"__comment": "f16",
			"from": [ 8.2724, 7.2386, 8.15 ],
			"to": [ 8.4024, 7.3586, 8.3 ],
			"rotation": { "origin": [ 8.3988, 7.999901, 31.62 ], "axis": "z", "angle": -45 },
			"faces": {
				"down": { "uv": [ 2.5, 7, 2.5, 7 ], "texture": "#texture", "cullface": "north", "rotation": 90 },
				"up": { "uv": [ 2.5, 7, 2.5, 7 ], "texture": "#texture", "cullface": "north", "rotation": 90 },
				"north": { "uv": [ 2.5, 7, 2.5, 7 ], "texture": "#texture", "cullface": "north", "rotation": 90 },
				"south": { "uv": [ 2.5, 7, 2.5, 7 ], "texture": "#texture", "cullface": "north", "rotation": 90 },
				"west": { "uv": [ 2.5, 7, 2.5, 7 ], "texture": "#texture", "cullface": "north", "rotation": 90 },
				"east": { "uv": [ 2.5, 7, 2.5, 7 ], "texture": "#texture", "cullface": "north", "rotation": 90 }
			}
		},
		{
			"__comment": "g",
			"from": [ 8.1371, 7.4304, 9.15 ],
			"to": [ 8.2128, 7.810399, 9.95 ],
			"rotation": { "origin": [ 8.3988, 7.999901, 31.62 ], "axis": "z", "angle": -22.5 },
			"faces": {
				"down": { "uv": [ 2.5, 7, 2.5, 7 ], "texture": "#texture", "cullface": "north", "rotation": 90 },
				"up": { "uv": [ 2.5, 7, 2.5, 7 ], "texture": "#texture", "cullface": "north", "rotation": 90 },
				"north": { "uv": [ 2.5, 7, 2.5, 7 ], "texture": "#texture", "cullface": "north", "rotation": 90 },
				"south": { "uv": [ 2.5, 7, 2.5, 7 ], "texture": "#texture", "cullface": "north", "rotation": 90 },
				"west": { "uv": [ 2.5, 7, 2.5, 7 ], "texture": "#texture", "cullface": "north", "rotation": 90 },
				"east": { "uv": [ 2.5, 7, 2.5, 7 ], "texture": "#texture", "cullface": "north", "rotation": 90 }
			}
		},
		{
			"__comment": "g1",
			"from": [ 8.009, 7.545, 9.15 ],
			"to": [ 8.0847, 7.925, 9.95 ],
			"faces": {
				"down": { "uv": [ 2.5, 7, 2.5, 7 ], "texture": "#texture", "cullface": "north", "rotation": 90 },
				"up": { "uv": [ 2.5, 7, 2.5, 7 ], "texture": "#texture", "cullface": "north", "rotation": 90 },
				"north": { "uv": [ 2.5, 7, 2.5, 7 ], "texture": "#texture", "cullface": "north", "rotation": 90 },
				"south": { "uv": [ 2.5, 7, 2.5, 7 ], "texture": "#texture", "cullface": "north", "rotation": 90 },
				"west": { "uv": [ 2.5, 7, 2.5, 7 ], "texture": "#texture", "cullface": "north", "rotation": 90 },
				"east": { "uv": [ 2.5, 7, 2.5, 7 ], "texture": "#texture", "cullface": "north", "rotation": 90 }
			}
		},
		{
			"__comment": "g2",
			"from": [ 7.9344, 7.6998, 9.15 ],
			"to": [ 8.010099, 8.0798, 9.95 ],
			"rotation": { "origin": [ 8.3988, 7.999901, 31.62 ], "axis": "z", "angle": 22.5 },
			"faces": {
				"down": { "uv": [ 2.5, 7, 2.5, 7 ], "texture": "#texture", "cullface": "north", "rotation": 90 },
				"up": { "uv": [ 2.5, 7, 2.5, 7 ], "texture": "#texture", "cullface": "north", "rotation": 90 },
				"north": { "uv": [ 2.5, 7, 2.5, 7 ], "texture": "#texture", "cullface": "north", "rotation": 90 },
				"south": { "uv": [ 2.5, 7, 2.5, 7 ], "texture": "#texture", "cullface": "north", "rotation": 90 },
				"west": { "uv": [ 2.5, 7, 2.5, 7 ], "texture": "#texture", "cullface": "north", "rotation": 90 },
				"east": { "uv": [ 2.5, 7, 2.5, 7 ], "texture": "#texture", "cullface": "north", "rotation": 90 }
			}
		},
		{
			"__comment": "g3",
			"from": [ 7.9247, 7.8714, 9.15 ],
			"to": [ 8.000399, 8.251399, 9.95 ],
			"rotation": { "origin": [ 8.3988, 7.999901, 31.62 ], "axis": "z", "angle": 45 },
			"faces": {
				"down": { "uv": [ 2.5, 7, 2.5, 7 ], "texture": "#texture", "cullface": "north", "rotation": 90 },
				"up": { "uv": [ 2.5, 7, 2.5, 7 ], "texture": "#texture", "cullface": "north", "rotation": 90 },
				"north": { "uv": [ 2.5, 7, 2.5, 7 ], "texture": "#texture", "cullface": "north", "rotation": 90 },
				"south": { "uv": [ 2.5, 7, 2.5, 7 ], "texture": "#texture", "cullface": "north", "rotation": 90 },
				"west": { "uv": [ 2.5, 7, 2.5, 7 ], "texture": "#texture", "cullface": "north", "rotation": 90 },
				"east": { "uv": [ 2.5, 7, 2.5, 7 ], "texture": "#texture", "cullface": "north", "rotation": 90 }
			}
		},
		{
			"__comment": "g4",
			"from": [ 7.985, 7.5825, 9.15 ],
			"to": [ 8.365, 7.6582, 9.95 ],
			"rotation": { "origin": [ 8.3988, 7.999901, 31.62 ], "axis": "z", "angle": -22.5 },
			"faces": {
				"down": { "uv": [ 2.5, 7, 2.5, 7 ], "texture": "#texture", "cullface": "north", "rotation": 90 },
				"up": { "uv": [ 2.5, 7, 2.5, 7 ], "texture": "#texture", "cullface": "north", "rotation": 90 },
				"north": { "uv": [ 2.5, 7, 2.5, 7 ], "texture": "#texture", "cullface": "north", "rotation": 90 },
				"south": { "uv": [ 2.5, 7, 2.5, 7 ], "texture": "#texture", "cullface": "north", "rotation": 90 },
				"west": { "uv": [ 2.5, 7, 2.5, 7 ], "texture": "#texture", "cullface": "north", "rotation": 90 },
				"east": { "uv": [ 2.5, 7, 2.5, 7 ], "texture": "#texture", "cullface": "north", "rotation": 90 }
			}
		},
		{
			"__comment": "g5",
			"from": [ 7.8568, 7.6971, 9.15 ],
			"to": [ 8.236799, 7.772799, 9.95 ],
			"faces": {
				"down": { "uv": [ 2.5, 7, 2.5, 7 ], "texture": "#texture", "cullface": "north", "rotation": 90 },
				"up": { "uv": [ 2.5, 7, 2.5, 7 ], "texture": "#texture", "cullface": "north", "rotation": 90 },
				"north": { "uv": [ 2.5, 7, 2.5, 7 ], "texture": "#texture", "cullface": "north", "rotation": 90 },
				"south": { "uv": [ 2.5, 7, 2.5, 7 ], "texture": "#texture", "cullface": "north", "rotation": 90 },
				"west": { "uv": [ 2.5, 7, 2.5, 7 ], "texture": "#texture", "cullface": "north", "rotation": 90 },
				"east": { "uv": [ 2.5, 7, 2.5, 7 ], "texture": "#texture", "cullface": "north", "rotation": 90 }
			}
		},
		{
			"__comment": "g6",
			"from": [ 7.7822, 7.8519, 9.15 ],
			"to": [ 8.162199, 7.9276, 9.95 ],
			"rotation": { "origin": [ 8.3988, 7.999901, 31.62 ], "axis": "z", "angle": 22.5 },
			"faces": {
				"down": { "uv": [ 2.5, 7, 2.5, 7 ], "texture": "#texture", "cullface": "north", "rotation": 90 },
				"up": { "uv": [ 2.5, 7, 2.5, 7 ], "texture": "#texture", "cullface": "north", "rotation": 90 },
				"north": { "uv": [ 2.5, 7, 2.5, 7 ], "texture": "#texture", "cullface": "north", "rotation": 90 },
				"south": { "uv": [ 2.5, 7, 2.5, 7 ], "texture": "#texture", "cullface": "north", "rotation": 90 },
				"west": { "uv": [ 2.5, 7, 2.5, 7 ], "texture": "#texture", "cullface": "north", "rotation": 90 },
				"east": { "uv": [ 2.5, 7, 2.5, 7 ], "texture": "#texture", "cullface": "north", "rotation": 90 }
			}
		},
		{
			"__comment": "g7",
			"from": [ 7.7725, 8.023499, 9.15 ],
			"to": [ 8.1525, 8.099199, 9.95 ],
			"rotation": { "origin": [ 8.3988, 7.999901, 31.62 ], "axis": "z", "angle": 45 },
			"faces": {
				"down": { "uv": [ 2.5, 7, 2.5, 7 ], "texture": "#texture", "cullface": "north", "rotation": 90 },
				"up": { "uv": [ 2.5, 7, 2.5, 7 ], "texture": "#texture", "cullface": "north", "rotation": 90 },
				"north": { "uv": [ 2.5, 7, 2.5, 7 ], "texture": "#texture", "cullface": "north", "rotation": 90 },
				"south": { "uv": [ 2.5, 7, 2.5, 7 ], "texture": "#texture", "cullface": "north", "rotation": 90 },
				"west": { "uv": [ 2.5, 7, 2.5, 7 ], "texture": "#texture", "cullface": "north", "rotation": 90 },
				"east": { "uv": [ 2.5, 7, 2.5, 7 ], "texture": "#texture", "cullface": "north", "rotation": 90 }
			}
		},
		{
			"__comment": "b",
			"from": [ 8.1102, 7.2954, 9 ],
			"to": [ 8.2397, 7.945399, 9.15 ],
			"rotation": { "origin": [ 8.3988, 7.999901, 31.62 ], "axis": "z", "angle": -22.5 },
			"faces": {
				"down": { "uv": [ 2.5, 7, 2.5, 7 ], "texture": "#texture", "cullface": "north", "rotation": 90 },
				"up": { "uv": [ 2.5, 7, 2.5, 7 ], "texture": "#texture", "cullface": "north", "rotation": 90 },
				"north": { "uv": [ 2.5, 7, 2.5, 7 ], "texture": "#texture", "cullface": "north", "rotation": 90 },
				"south": { "uv": [ 2.5, 7, 2.5, 7 ], "texture": "#texture", "cullface": "north", "rotation": 90 },
				"west": { "uv": [ 2.5, 7, 2.5, 7 ], "texture": "#texture", "cullface": "north", "rotation": 90 },
				"east": { "uv": [ 2.5, 7, 2.5, 7 ], "texture": "#texture", "cullface": "north", "rotation": 90 }
			}
		},
		{
			"__comment": "b1",
			"from": [ 7.9821, 7.41, 9 ],
			"to": [ 8.111601, 8.059999, 9.15 ],
			"faces": {
				"down": { "uv": [ 2.5, 7, 2.5, 7 ], "texture": "#texture", "cullface": "north", "rotation": 90 },
				"up": { "uv": [ 2.5, 7, 2.5, 7 ], "texture": "#texture", "cullface": "north", "rotation": 90 },
				"north": { "uv": [ 2.5, 7, 2.5, 7 ], "texture": "#texture", "cullface": "north", "rotation": 90 },
				"south": { "uv": [ 2.5, 7, 2.5, 7 ], "texture": "#texture", "cullface": "north", "rotation": 90 },
				"west": { "uv": [ 2.5, 7, 2.5, 7 ], "texture": "#texture", "cullface": "north", "rotation": 90 },
				"east": { "uv": [ 2.5, 7, 2.5, 7 ], "texture": "#texture", "cullface": "north", "rotation": 90 }
			}
		},
		{
			"__comment": "b2",
			"from": [ 7.9075, 7.5648, 9 ],
			"to": [ 8.037, 8.2148, 9.15 ],
			"rotation": { "origin": [ 8.3988, 7.999901, 31.62 ], "axis": "z", "angle": 22.5 },
			"faces": {
				"down": { "uv": [ 2.5, 7, 2.5, 7 ], "texture": "#texture", "cullface": "north", "rotation": 90 },
				"up": { "uv": [ 2.5, 7, 2.5, 7 ], "texture": "#texture", "cullface": "north", "rotation": 90 },
				"north": { "uv": [ 2.5, 7, 2.5, 7 ], "texture": "#texture", "cullface": "north", "rotation": 90 },
				"south": { "uv": [ 2.5, 7, 2.5, 7 ], "texture": "#texture", "cullface": "north", "rotation": 90 },
				"west": { "uv": [ 2.5, 7, 2.5, 7 ], "texture": "#texture", "cullface": "north", "rotation": 90 },
				"east": { "uv": [ 2.5, 7, 2.5, 7 ], "texture": "#texture", "cullface": "north", "rotation": 90 }
			}
		},
		{
			"__comment": "b3",
			"from": [ 7.8978, 7.7364, 9 ],
			"to": [ 8.0273, 8.386399, 9.15 ],
			"rotation": { "origin": [ 8.3988, 7.999901, 31.62 ], "axis": "z", "angle": 45 },
			"faces": {
				"down": { "uv": [ 2.5, 7, 2.5, 7 ], "texture": "#texture", "cullface": "north", "rotation": 90 },
				"up": { "uv": [ 2.5, 7, 2.5, 7 ], "texture": "#texture", "cullface": "north", "rotation": 90 },
				"north": { "uv": [ 2.5, 7, 2.5, 7 ], "texture": "#texture", "cullface": "north", "rotation": 90 },
				"south": { "uv": [ 2.5, 7, 2.5, 7 ], "texture": "#texture", "cullface": "north", "rotation": 90 },
				"west": { "uv": [ 2.5, 7, 2.5, 7 ], "texture": "#texture", "cullface": "north", "rotation": 90 },
				"east": { "uv": [ 2.5, 7, 2.5, 7 ], "texture": "#texture", "cullface": "north", "rotation": 90 }
			}
		},
		{
			"__comment": "b4",
			"from": [ 7.85, 7.5556, 9 ],
			"to": [ 8.5, 7.6851, 9.15 ],
			"rotation": { "origin": [ 8.3988, 7.999901, 31.62 ], "axis": "z", "angle": -22.5 },
			"faces": {
				"down": { "uv": [ 2.5, 7, 2.5, 7 ], "texture": "#texture", "cullface": "north", "rotation": 90 },
				"up": { "uv": [ 2.5, 7, 2.5, 7 ], "texture": "#texture", "cullface": "north", "rotation": 90 },
				"north": { "uv": [ 2.5, 7, 2.5, 7 ], "texture": "#texture", "cullface": "north", "rotation": 90 },
				"south": { "uv": [ 2.5, 7, 2.5, 7 ], "texture": "#texture", "cullface": "north", "rotation": 90 },
				"west": { "uv": [ 2.5, 7, 2.5, 7 ], "texture": "#texture", "cullface": "north", "rotation": 90 },
				"east": { "uv": [ 2.5, 7, 2.5, 7 ], "texture": "#texture", "cullface": "north", "rotation": 90 }
			}
		},
		{
			"__comment": "b5",
			"from": [ 7.7218, 7.6702, 9 ],
			"to": [ 8.371799, 7.7997, 9.15 ],
			"faces": {
				"down": { "uv": [ 2.5, 7, 2.5, 7 ], "texture": "#texture", "cullface": "north", "rotation": 90 },
				"up": { "uv": [ 2.5, 7, 2.5, 7 ], "texture": "#texture", "cullface": "north", "rotation": 90 },
				"north": { "uv": [ 2.5, 7, 2.5, 7 ], "texture": "#texture", "cullface": "north", "rotation": 90 },
				"south": { "uv": [ 2.5, 7, 2.5, 7 ], "texture": "#texture", "cullface": "north", "rotation": 90 },
				"west": { "uv": [ 2.5, 7, 2.5, 7 ], "texture": "#texture", "cullface": "north", "rotation": 90 },
				"east": { "uv": [ 2.5, 7, 2.5, 7 ], "texture": "#texture", "cullface": "north", "rotation": 90 }
			}
		},
		{
			"__comment": "b6",
			"from": [ 7.6472, 7.825, 9 ],
			"to": [ 8.297199, 7.954499, 9.15 ],
			"rotation": { "origin": [ 8.3988, 7.999901, 31.62 ], "axis": "z", "angle": 22.5 },
			"faces": {
				"down": { "uv": [ 2.5, 7, 2.5, 7 ], "texture": "#texture", "cullface": "north", "rotation": 90 },
				"up": { "uv": [ 2.5, 7, 2.5, 7 ], "texture": "#texture", "cullface": "north", "rotation": 90 },
				"north": { "uv": [ 2.5, 7, 2.5, 7 ], "texture": "#texture", "cullface": "north", "rotation": 90 },
				"south": { "uv": [ 2.5, 7, 2.5, 7 ], "texture": "#texture", "cullface": "north", "rotation": 90 },
				"west": { "uv": [ 2.5, 7, 2.5, 7 ], "texture": "#texture", "cullface": "north", "rotation": 90 },
				"east": { "uv": [ 2.5, 7, 2.5, 7 ], "texture": "#texture", "cullface": "north", "rotation": 90 }
			}
		},
		{
			"__comment": "b7",
			"from": [ 7.6375, 7.9966, 9 ],
			"to": [ 8.287499, 8.126101, 9.15 ],
			"rotation": { "origin": [ 8.3988, 7.999901, 31.62 ], "axis": "z", "angle": 45 },
			"faces": {
				"down": { "uv": [ 2.5, 7, 2.5, 7 ], "texture": "#texture", "cullface": "north", "rotation": 90 },
				"up": { "uv": [ 2.5, 7, 2.5, 7 ], "texture": "#texture", "cullface": "north", "rotation": 90 },
				"north": { "uv": [ 2.5, 7, 2.5, 7 ], "texture": "#texture", "cullface": "north", "rotation": 90 },
				"south": { "uv": [ 2.5, 7, 2.5, 7 ], "texture": "#texture", "cullface": "north", "rotation": 90 },
				"west": { "uv": [ 2.5, 7, 2.5, 7 ], "texture": "#texture", "cullface": "north", "rotation": 90 },
				"east": { "uv": [ 2.5, 7, 2.5, 7 ], "texture": "#texture", "cullface": "north", "rotation": 90 }
			}
		}
	],
	"display": {
		"thirdperson_righthand": {
			"rotation":  [ 36, 41, 13 ],
			"translation":  [ 0, 1.6562, -0.694 ]
		},
		"thirdperson_lefthand": {
			"rotation":  [ 36, 41, 13 ],
			"translation":  [ 0, 1.6562, -0.694 ]
		},
		"firstperson_righthand": {
			"rotation":  [ 21, 28, -3 ],
			"translation":  [ -1.391, 4.8695, 0 ],
			"scale":  [ 2, 2, 2 ]
		},
		"firstperson_lefthand": {
			"rotation":  [ 21, 28, -3 ],
			"translation":  [ -1.391, 4.8695, 0 ],
			"scale":  [ 2, 2, 2 ]
		},
		"gui": {
			"rotation":  [ 88, 45, 0 ],
			"translation":  [ -2.086, 2.0869, 0 ],
			"scale":  [ 9, 9, 9 ]
		},
		"fixed": {
			"rotation":  [ 90, -46, 90 ],
			"translation":  [ 1.8052, 2.9743, 0.1 ],
			"scale":  [ 3, 3, 3 ]
		}
	}
}