{
	"__comment": "Designed by Purogura with Cubik Studio - https://cubik.studio",
	"textures": {
		"particle": "items/e_particle",
		"texture": "items/9",
		"6": "items/6",
		"4": "items/4",
		"2": "items/2",
		"10": "items/10",
		"scope": "blocks/scope",
		"texture1": "USMC_Scope_Mounted_M40_1500x"
	},
	"elements": [
		{
			"__comment": "Box53",
			"from": [ 7.46, 16.7, -7.5 ],
			"to": [ 8.54, 17.1, -3.5 ],
			"rotation": { "origin": [ 8, 18, -7.5 ], "axis": "z", "angle": -45 },
			"faces": {
				"down": { "uv": [ 7.5, 3.5, 8.5, 7.5 ], "texture": "#texture" },
				"up": { "uv": [ 7.5, 8.5, 8.5, 12.5 ], "texture": "#texture" },
				"north": { "uv": [ 7.5, 12.5, 8.5, 15 ], "texture": "#texture" },
				"south": { "uv": [ 7.5, 12.5, 8.5, 15 ], "texture": "#texture" },
				"west": { "uv": [ 8.5, 12.5, 12.5, 15 ], "texture": "#texture" },
				"east": { "uv": [ 3.5, 12.5, 7.5, 15 ], "texture": "#texture" }
			}
		},
		{
			"__comment": "Box55",
			"from": [ 7.5, 16.5, -0.5 ],
			"to": [ 8.5, 17.5, 0.5 ],
			"faces": {
				"down": { "uv": [ 7.5, 15.5, 8.5, 16 ], "texture": "#texture" },
				"up": { "uv": [ 7.5, 0, 8.5, 0.5 ], "texture": "#texture" },
				"north": { "uv": [ 7.5, 13, 8.5, 15.5 ], "texture": "#texture" },
				"south": { "uv": [ 7.5, 13, 8.5, 15.5 ], "texture": "#texture" },
				"west": { "uv": [ 0, 13, 0.5, 15.5 ], "texture": "#texture" },
				"east": { "uv": [ 15.5, 13, 16, 15.5 ], "texture": "#texture" }
			}
		},
		{
			"__comment": "Box56",
			"from": [ 7.5, 18.5, 2.5 ],
			"to": [ 8.5, 19.5, 4 ],
			"faces": {
				"down": { "uv": [ 7.5, 12, 8.5, 13.5 ], "texture": "#texture" },
				"up": { "uv": [ 7.5, 2.5, 8.5, 4 ], "texture": "#texture" },
				"north": { "uv": [ 7.5, 12.5, 8.5, 14.5 ], "texture": "#texture" },
				"south": { "uv": [ 7.5, 12.5, 8.5, 14.5 ], "texture": "#texture" },
				"west": { "uv": [ 2.5, 12.5, 4, 14.5 ], "texture": "#texture" },
				"east": { "uv": [ 12, 12.5, 13.5, 14.5 ], "texture": "#texture" }
			}
		},
		{
			"__comment": "Box57",
			"from": [ 7.5, 16.5, 6 ],
			"to": [ 8.5, 17.5, 7 ],
			"faces": {
				"down": { "uv": [ 7.5, 9, 8.5, 10 ], "texture": "#texture" },
				"up": { "uv": [ 7.5, 6, 8.5, 7 ], "texture": "#texture" },
				"north": { "uv": [ 7.5, 13, 8.5, 15.5 ], "texture": "#texture" },
				"south": { "uv": [ 7.5, 13, 8.5, 15.5 ], "texture": "#texture" },
				"west": { "uv": [ 6, 13, 7, 15.5 ], "texture": "#texture" },
				"east": { "uv": [ 9, 13, 10, 15.5 ], "texture": "#texture" }
			}
		},
		{
			"__comment": "Box58",
			"from": [ 7.585, 17, -3.5 ],
			"to": [ 8.415, 17.25, -2 ],
			"faces": {
				"down": { "uv": [ 7.5, 2, 8.5, 3.5 ], "texture": "#texture" },
				"up": { "uv": [ 7.5, 12.5, 8.5, 14 ], "texture": "#texture" },
				"north": { "uv": [ 7.5, 13, 8.5, 15 ], "texture": "#texture" },
				"south": { "uv": [ 7.5, 13, 8.5, 15 ], "texture": "#texture" },
				"west": { "uv": [ 12.5, 13, 14, 15 ], "texture": "#texture" },
				"east": { "uv": [ 2, 13, 3.5, 15 ], "texture": "#texture" }
			}
		},
		{
			"__comment": "Box60",
			"from": [ 7.535, 16.875, 11 ],
			"to": [ 8.465, 17.125, 13 ],
			"faces": {
				"down": { "uv": [ 7.5, 3, 8.5, 5 ], "texture": "#texture" },
				"up": { "uv": [ 7.5, 11, 8.5, 13 ], "texture": "#texture" },
				"north": { "uv": [ 7.5, 14.75, 8.5, 15.25 ], "texture": "#texture" },
				"south": { "uv": [ 7.5, 14.75, 8.5, 15.25 ], "texture": "#texture" },
				"west": { "uv": [ 11, 14.75, 13, 15.25 ], "texture": "#texture" },
				"east": { "uv": [ 3, 14.75, 5, 15.25 ], "texture": "#texture" }
			}
		},
		{
			"__comment": "Box60",
			"from": [ 7.535, 16.875, 11 ],
			"to": [ 8.465, 17.125, 13 ],
			"rotation": { "origin": [ 8, 18, 11 ], "axis": "z", "angle": 45 },
			"faces": {
				"down": { "uv": [ 5, 15.25, 3, 14.75 ], "texture": "#texture", "rotation": 270 },
				"up": { "uv": [ 11, 14.75, 13, 15.25 ], "texture": "#texture", "rotation": 90 },
				"north": { "uv": [ 7.5, 14.75, 8.5, 15.25 ], "texture": "#texture", "rotation": 270 },
				"south": { "uv": [ 7.5, 14.75, 8.5, 15.25 ], "texture": "#texture", "rotation": 90 },
				"west": { "uv": [ 8.5, 5, 7.5, 3 ], "texture": "#texture", "rotation": 270 },
				"east": { "uv": [ 7.5, 11, 8.5, 13 ], "texture": "#texture", "rotation": 90 }
			}
		},
		{
			"__comment": "Box60",
			"from": [ 6.875, 17.535, 11 ],
			"to": [ 7.125, 18.465, 13 ],
			"faces": {
				"down": { "uv": [ 5, 15.25, 3, 14.75 ], "texture": "#texture", "rotation": 270 },
				"up": { "uv": [ 11, 14.75, 13, 15.25 ], "texture": "#texture", "rotation": 90 },
				"north": { "uv": [ 7.5, 14.75, 8.5, 15.25 ], "texture": "#texture", "rotation": 270 },
				"south": { "uv": [ 7.5, 14.75, 8.5, 15.25 ], "texture": "#texture", "rotation": 90 },
				"west": { "uv": [ 8.5, 5, 7.5, 3 ], "texture": "#texture", "rotation": 270 },
				"east": { "uv": [ 7.5, 11, 8.5, 13 ], "texture": "#texture", "rotation": 90 }
			}
		},
		{
			"__comment": "Box60",
			"from": [ 7.535, 16.875, 11 ],
			"to": [ 8.465, 17.125, 13 ],
			"rotation": { "origin": [ 8, 18, 11 ], "axis": "z", "angle": -45 },
			"faces": {
				"down": { "uv": [ 5, 15.25, 3, 14.75 ], "texture": "#texture", "rotation": 270 },
				"up": { "uv": [ 11, 14.75, 13, 15.25 ], "texture": "#texture", "rotation": 90 },
				"north": { "uv": [ 7.5, 14.75, 8.5, 15.25 ], "texture": "#texture", "rotation": 270 },
				"south": { "uv": [ 7.5, 14.75, 8.5, 15.25 ], "texture": "#texture", "rotation": 90 },
				"west": { "uv": [ 8.5, 5, 7.5, 3 ], "texture": "#texture", "rotation": 270 },
				"east": { "uv": [ 7.5, 11, 8.5, 13 ], "texture": "#texture", "rotation": 90 }
			}
		},
		{
			"__comment": "Box60",
			"from": [ 7.535, 18.875, 11 ],
			"to": [ 8.465, 19.125, 13 ],
			"faces": {
				"down": { "uv": [ 5, 15.25, 3, 14.75 ], "texture": "#texture", "rotation": 270 },
				"up": { "uv": [ 11, 14.75, 13, 15.25 ], "texture": "#texture", "rotation": 90 },
				"north": { "uv": [ 7.5, 14.75, 8.5, 15.25 ], "texture": "#texture", "rotation": 270 },
				"south": { "uv": [ 7.5, 14.75, 8.5, 15.25 ], "texture": "#texture", "rotation": 90 },
				"west": { "uv": [ 8.5, 5, 7.5, 3 ], "texture": "#texture", "rotation": 270 },
				"east": { "uv": [ 7.5, 11, 8.5, 13 ], "texture": "#texture", "rotation": 90 }
			}
		},
		{
			"__comment": "Box60",
			"from": [ 8.875, 17.535, 11 ],
			"to": [ 9.125, 18.465, 13 ],
			"faces": {
				"down": { "uv": [ 5, 15.25, 3, 14.75 ], "texture": "#texture", "rotation": 270 },
				"up": { "uv": [ 11, 14.75, 13, 15.25 ], "texture": "#texture", "rotation": 90 },
				"north": { "uv": [ 7.5, 14.75, 8.5, 15.25 ], "texture": "#texture", "rotation": 270 },
				"south": { "uv": [ 7.5, 14.75, 8.5, 15.25 ], "texture": "#texture", "rotation": 90 },
				"west": { "uv": [ 8.5, 5, 7.5, 3 ], "texture": "#texture", "rotation": 270 },
				"east": { "uv": [ 7.5, 11, 8.5, 13 ], "texture": "#texture", "rotation": 90 }
			}
		},
		{
			"__comment": "Box60",
			"from": [ 7.535, 18.875, 11 ],
			"to": [ 8.465, 19.125, 13 ],
			"rotation": { "origin": [ 8, 18, 11 ], "axis": "z", "angle": -45 },
			"faces": {
				"down": { "uv": [ 5, 15.25, 3, 14.75 ], "texture": "#texture", "rotation": 270 },
				"up": { "uv": [ 11, 14.75, 13, 15.25 ], "texture": "#texture", "rotation": 90 },
				"north": { "uv": [ 7.5, 14.75, 8.5, 15.25 ], "texture": "#texture", "rotation": 270 },
				"south": { "uv": [ 7.5, 14.75, 8.5, 15.25 ], "texture": "#texture", "rotation": 90 },
				"west": { "uv": [ 8.5, 5, 7.5, 3 ], "texture": "#texture", "rotation": 270 },
				"east": { "uv": [ 7.5, 11, 8.5, 13 ], "texture": "#texture", "rotation": 90 }
			}
		},
		{
			"__comment": "Box60",
			"from": [ 6.875, 17.535, 11 ],
			"to": [ 7.125, 18.465, 13 ],
			"rotation": { "origin": [ 8, 18, 11 ], "axis": "z", "angle": -45 },
			"faces": {
				"down": { "uv": [ 5, 15.25, 3, 14.75 ], "texture": "#texture", "rotation": 270 },
				"up": { "uv": [ 11, 14.75, 13, 15.25 ], "texture": "#texture", "rotation": 90 },
				"north": { "uv": [ 7.5, 14.75, 8.5, 15.25 ], "texture": "#texture", "rotation": 270 },
				"south": { "uv": [ 7.5, 14.75, 8.5, 15.25 ], "texture": "#texture", "rotation": 90 },
				"west": { "uv": [ 8.5, 5, 7.5, 3 ], "texture": "#texture", "rotation": 270 },
				"east": { "uv": [ 7.5, 11, 8.5, 13 ], "texture": "#texture", "rotation": 90 }
			}
		},
		{
			"__comment": "Box17",
			"from": [ 7.585, 17, 9 ],
			"to": [ 8.415, 17.3, 11 ],
			"faces": {
				"down": { "uv": [ 7.5, 5, 8.5, 7 ], "texture": "#texture" },
				"up": { "uv": [ 7.5, 9, 8.5, 11 ], "texture": "#texture" },
				"north": { "uv": [ 7.5, 14.5, 8.5, 15 ], "texture": "#texture" },
				"south": { "uv": [ 7.5, 14.5, 8.5, 15 ], "texture": "#texture" },
				"west": { "uv": [ 9, 14.5, 11, 15 ], "texture": "#texture" },
				"east": { "uv": [ 5, 14.5, 7, 15 ], "texture": "#texture" }
			}
		},
		{
			"__comment": "Box17",
			"from": [ 7.585, 17, 9 ],
			"to": [ 8.415, 17.3, 11 ],
			"rotation": { "origin": [ 8, 18, 9 ], "axis": "z", "angle": 45 },
			"faces": {
				"down": { "uv": [ 7.5, 5, 8.5, 7 ], "texture": "#texture" },
				"up": { "uv": [ 7.5, 9, 8.5, 11 ], "texture": "#texture" },
				"north": { "uv": [ 7.5, 14.5, 8.5, 15 ], "texture": "#texture" },
				"south": { "uv": [ 7.5, 14.5, 8.5, 15 ], "texture": "#texture" },
				"west": { "uv": [ 9, 14.5, 11, 15 ], "texture": "#texture" },
				"east": { "uv": [ 5, 14.5, 7, 15 ], "texture": "#texture" }
			}
		},
		{
			"__comment": "Box17",
			"from": [ 7, 17.585, 9 ],
			"to": [ 7.3, 18.415, 11 ],
			"faces": {
				"down": { "uv": [ 8.5, 11, 7.5, 9 ], "texture": "#texture" },
				"up": { "uv": [ 8.5, 7, 7.5, 5 ], "texture": "#texture" },
				"north": { "uv": [ 7.5, 14.5, 8.5, 15 ], "texture": "#texture", "rotation": 180 },
				"south": { "uv": [ 7.5, 14.5, 8.5, 15 ], "texture": "#texture", "rotation": 180 },
				"west": { "uv": [ 5, 14.5, 7, 15 ], "texture": "#texture", "rotation": 180 },
				"east": { "uv": [ 9, 14.5, 11, 15 ], "texture": "#texture", "rotation": 180 }
			}
		},
		{
			"__comment": "Box17",
			"from": [ 7, 17.585, 9 ],
			"to": [ 7.3, 18.415, 11 ],
			"rotation": { "origin": [ 8, 18, 9 ], "axis": "z", "angle": -45 },
			"faces": {
				"down": { "uv": [ 8.5, 11, 7.5, 9 ], "texture": "#texture" },
				"up": { "uv": [ 8.5, 7, 7.5, 5 ], "texture": "#texture" },
				"north": { "uv": [ 7.5, 14.5, 8.5, 15 ], "texture": "#texture", "rotation": 180 },
				"south": { "uv": [ 7.5, 14.5, 8.5, 15 ], "texture": "#texture", "rotation": 180 },
				"west": { "uv": [ 5, 14.5, 7, 15 ], "texture": "#texture", "rotation": 180 },
				"east": { "uv": [ 9, 14.5, 11, 15 ], "texture": "#texture", "rotation": 180 }
			}
		},
		{
			"__comment": "Box17",
			"from": [ 7.585, 17, 9 ],
			"to": [ 8.415, 17.3, 11 ],
			"rotation": { "origin": [ 8, 18, 9 ], "axis": "z", "angle": -45 },
			"faces": {
				"down": { "uv": [ 9, 14.5, 11, 15 ], "texture": "#texture", "rotation": 270 },
				"up": { "uv": [ 7, 15, 5, 14.5 ], "texture": "#texture", "rotation": 90 },
				"north": { "uv": [ 8.5, 15, 7.5, 14.5 ], "texture": "#texture", "rotation": 270 },
				"south": { "uv": [ 8.5, 15, 7.5, 14.5 ], "texture": "#texture", "rotation": 90 },
				"west": { "uv": [ 7.5, 9, 8.5, 11 ], "texture": "#texture", "rotation": 270 },
				"east": { "uv": [ 8.5, 7, 7.5, 5 ], "texture": "#texture", "rotation": 90 }
			}
		},
		{
			"__comment": "Box17",
			"from": [ 8.7, 17.585, 9 ],
			"to": [ 9, 18.415, 11 ],
			"faces": {
				"down": { "uv": [ 9, 14.5, 11, 15 ], "texture": "#texture", "rotation": 270 },
				"up": { "uv": [ 7, 15, 5, 14.5 ], "texture": "#texture", "rotation": 90 },
				"north": { "uv": [ 8.5, 15, 7.5, 14.5 ], "texture": "#texture", "rotation": 270 },
				"south": { "uv": [ 8.5, 15, 7.5, 14.5 ], "texture": "#texture", "rotation": 90 },
				"west": { "uv": [ 7.5, 9, 8.5, 11 ], "texture": "#texture", "rotation": 270 },
				"east": { "uv": [ 8.5, 7, 7.5, 5 ], "texture": "#texture", "rotation": 90 }
			}
		},
		{
			"__comment": "Box17",
			"from": [ 7.585, 18.7, 9 ],
			"to": [ 8.415, 19, 11 ],
			"faces": {
				"down": { "uv": [ 9, 14.5, 11, 15 ], "texture": "#texture", "rotation": 270 },
				"up": { "uv": [ 7, 15, 5, 14.5 ], "texture": "#texture", "rotation": 90 },
				"north": { "uv": [ 8.5, 15, 7.5, 14.5 ], "texture": "#texture", "rotation": 270 },
				"south": { "uv": [ 8.5, 15, 7.5, 14.5 ], "texture": "#texture", "rotation": 90 },
				"west": { "uv": [ 7.5, 9, 8.5, 11 ], "texture": "#texture", "rotation": 270 },
				"east": { "uv": [ 8.5, 7, 7.5, 5 ], "texture": "#texture", "rotation": 90 }
			}
		},
		{
			"__comment": "Box17",
			"from": [ 7.585, 18.7, 9 ],
			"to": [ 8.415, 19, 11 ],
			"rotation": { "origin": [ 8, 18, 9 ], "axis": "z", "angle": -45 },
			"faces": {
				"down": { "uv": [ 9, 14.5, 11, 15 ], "texture": "#texture", "rotation": 270 },
				"up": { "uv": [ 7, 15, 5, 14.5 ], "texture": "#texture", "rotation": 90 },
				"north": { "uv": [ 8.5, 15, 7.5, 14.5 ], "texture": "#texture", "rotation": 270 },
				"south": { "uv": [ 8.5, 15, 7.5, 14.5 ], "texture": "#texture", "rotation": 90 },
				"west": { "uv": [ 7.5, 9, 8.5, 11 ], "texture": "#texture", "rotation": 270 },
				"east": { "uv": [ 8.5, 7, 7.5, 5 ], "texture": "#texture", "rotation": 90 }
			}
		},
		{
			"__comment": "Box54",
			"from": [ 7.6885, 17.25, -2 ],
			"to": [ 8.3115, 17.4, 9 ],
			"faces": {
				"down": { "uv": [ 7.75, 7, 8.25, 16 ], "texture": "#texture" },
				"up": { "uv": [ 7.75, 0, 8.25, 9 ], "texture": "#texture" },
				"north": { "uv": [ 7.75, 14.65, 8.25, 14.75 ], "texture": "#texture" },
				"south": { "uv": [ 7.75, 14.65, 8.25, 14.75 ], "texture": "#texture" },
				"west": { "uv": [ 0, 14.65, 9, 14.75 ], "texture": "#texture" },
				"east": { "uv": [ 7, 14.65, 16, 14.75 ], "texture": "#texture" }
			}
		},
		{
			"__comment": "Box54",
			"from": [ 7.6885, 17.25, -2 ],
			"to": [ 8.3115, 17.4, 9 ],
			"rotation": { "origin": [ 8, 18, -2 ], "axis": "z", "angle": -45 },
			"faces": {
				"down": { "uv": [ 7.75, 0, 8.25, 9 ], "texture": "#texture", "rotation": 180 },
				"up": { "uv": [ 7.75, 7, 8.25, 16 ], "texture": "#texture", "rotation": 180 },
				"north": { "uv": [ 8.25, 14.75, 7.75, 14.65 ], "texture": "#texture" },
				"south": { "uv": [ 8.25, 14.75, 7.75, 14.65 ], "texture": "#texture" },
				"west": { "uv": [ 7, 14.65, 16, 14.75 ], "texture": "#texture", "rotation": 180 },
				"east": { "uv": [ 0, 14.65, 9, 14.75 ], "texture": "#texture", "rotation": 180 }
			}
		},
		{
			"__comment": "Box54",
			"from": [ 8.599999, 17.6885, -2 ],
			"to": [ 8.749999, 18.3115, 9 ],
			"faces": {
				"down": { "uv": [ 7.75, 0, 8.25, 9 ], "texture": "#texture", "rotation": 180 },
				"up": { "uv": [ 7.75, 7, 8.25, 16 ], "texture": "#texture", "rotation": 180 },
				"north": { "uv": [ 8.25, 14.75, 7.75, 14.65 ], "texture": "#texture" },
				"south": { "uv": [ 8.25, 14.75, 7.75, 14.65 ], "texture": "#texture" },
				"west": { "uv": [ 7, 14.65, 16, 14.75 ], "texture": "#texture", "rotation": 180 },
				"east": { "uv": [ 0, 14.65, 9, 14.75 ], "texture": "#texture", "rotation": 180 }
			}
		},
		{
			"__comment": "Box54",
			"from": [ 7.6885, 17.25, -2 ],
			"to": [ 8.3115, 17.4, 9 ],
			"rotation": { "origin": [ 8, 18, -2 ], "axis": "z", "angle": 45 },
			"faces": {
				"down": { "uv": [ 7.75, 0, 8.25, 9 ], "texture": "#texture", "rotation": 180 },
				"up": { "uv": [ 7.75, 7, 8.25, 16 ], "texture": "#texture", "rotation": 180 },
				"north": { "uv": [ 8.25, 14.75, 7.75, 14.65 ], "texture": "#texture" },
				"south": { "uv": [ 8.25, 14.75, 7.75, 14.65 ], "texture": "#texture" },
				"west": { "uv": [ 7, 14.65, 16, 14.75 ], "texture": "#texture", "rotation": 180 },
				"east": { "uv": [ 0, 14.65, 9, 14.75 ], "texture": "#texture", "rotation": 180 }
			}
		},
		{
			"__comment": "Box54",
			"from": [ 7.25, 17.6885, -2 ],
			"to": [ 7.4, 18.3115, 9 ],
			"faces": {
				"down": { "uv": [ 7.75, 0, 8.25, 9 ], "texture": "#texture", "rotation": 180 },
				"up": { "uv": [ 7.75, 7, 8.25, 16 ], "texture": "#texture", "rotation": 180 },
				"north": { "uv": [ 8.25, 14.75, 7.75, 14.65 ], "texture": "#texture" },
				"south": { "uv": [ 8.25, 14.75, 7.75, 14.65 ], "texture": "#texture" },
				"west": { "uv": [ 7, 14.65, 16, 14.75 ], "texture": "#texture", "rotation": 180 },
				"east": { "uv": [ 0, 14.65, 9, 14.75 ], "texture": "#texture", "rotation": 180 }
			}
		},
		{
			"__comment": "Box54",
			"from": [ 8.599999, 17.6885, -2 ],
			"to": [ 8.749999, 18.3115, 9 ],
			"rotation": { "origin": [ 8, 18, -2 ], "axis": "z", "angle": 45 },
			"faces": {
				"down": { "uv": [ 7.75, 0, 8.25, 9 ], "texture": "#texture", "rotation": 180 },
				"up": { "uv": [ 7.75, 7, 8.25, 16 ], "texture": "#texture", "rotation": 180 },
				"north": { "uv": [ 8.25, 14.75, 7.75, 14.65 ], "texture": "#texture" },
				"south": { "uv": [ 8.25, 14.75, 7.75, 14.65 ], "texture": "#texture" },
				"west": { "uv": [ 7, 14.65, 16, 14.75 ], "texture": "#texture", "rotation": 180 },
				"east": { "uv": [ 0, 14.65, 9, 14.75 ], "texture": "#texture", "rotation": 180 }
			}
		},
		{
			"__comment": "Box54",
			"from": [ 7.6885, 18.6, -2 ],
			"to": [ 8.3115, 18.75, 9 ],
			"faces": {
				"down": { "uv": [ 7.75, 0, 8.25, 9 ], "texture": "#texture", "rotation": 180 },
				"up": { "uv": [ 7.75, 7, 8.25, 16 ], "texture": "#texture", "rotation": 180 },
				"north": { "uv": [ 8.25, 14.75, 7.75, 14.65 ], "texture": "#texture" },
				"south": { "uv": [ 8.25, 14.75, 7.75, 14.65 ], "texture": "#texture" },
				"west": { "uv": [ 7, 14.65, 16, 14.75 ], "texture": "#texture", "rotation": 180 },
				"east": { "uv": [ 0, 14.65, 9, 14.75 ], "texture": "#texture", "rotation": 180 }
			}
		},
		{
			"__comment": "Box54",
			"from": [ 7.25, 17.6885, -2 ],
			"to": [ 7.4, 18.3115, 9 ],
			"rotation": { "origin": [ 8, 18, -2 ], "axis": "z", "angle": -45 },
			"faces": {
				"down": { "uv": [ 7.75, 0, 8.25, 9 ], "texture": "#texture", "rotation": 180 },
				"up": { "uv": [ 7.75, 7, 8.25, 16 ], "texture": "#texture", "rotation": 180 },
				"north": { "uv": [ 8.25, 14.75, 7.75, 14.65 ], "texture": "#texture" },
				"south": { "uv": [ 8.25, 14.75, 7.75, 14.65 ], "texture": "#texture" },
				"west": { "uv": [ 7, 14.65, 16, 14.75 ], "texture": "#texture", "rotation": 180 },
				"east": { "uv": [ 0, 14.65, 9, 14.75 ], "texture": "#texture", "rotation": 180 }
			}
		},
		{
			"__comment": "Box58",
			"from": [ 7.585, 17, -3.5 ],
			"to": [ 8.415, 17.25, -2 ],
			"rotation": { "origin": [ 8, 18, -3.5 ], "axis": "z", "angle": 45 },
			"faces": {
				"down": { "uv": [ 7.5, 2, 8.5, 3.5 ], "texture": "#texture" },
				"up": { "uv": [ 7.5, 12.5, 8.5, 14 ], "texture": "#texture" },
				"north": { "uv": [ 7.5, 13, 8.5, 15 ], "texture": "#texture" },
				"south": { "uv": [ 7.5, 13, 8.5, 15 ], "texture": "#texture" },
				"west": { "uv": [ 12.5, 13, 14, 15 ], "texture": "#texture" },
				"east": { "uv": [ 2, 13, 3.5, 15 ], "texture": "#texture" }
			}
		},
		{
			"__comment": "Box58",
			"from": [ 7.585, 17, -3.5 ],
			"to": [ 8.415, 17.25, -2 ],
			"rotation": { "origin": [ 8, 18, -3.5 ], "axis": "z", "angle": -45 },
			"faces": {
				"down": { "uv": [ 3.5, 15, 2, 13 ], "texture": "#texture", "rotation": 270 },
				"up": { "uv": [ 12.5, 13, 14, 15 ], "texture": "#texture", "rotation": 90 },
				"north": { "uv": [ 7.5, 13, 8.5, 15 ], "texture": "#texture", "rotation": 270 },
				"south": { "uv": [ 7.5, 13, 8.5, 15 ], "texture": "#texture", "rotation": 90 },
				"west": { "uv": [ 8.5, 3.5, 7.5, 2 ], "texture": "#texture", "rotation": 270 },
				"east": { "uv": [ 7.5, 12.5, 8.5, 14 ], "texture": "#texture", "rotation": 90 }
			}
		},
		{
			"__comment": "Box58",
			"from": [ 7, 17.585, -3.5 ],
			"to": [ 7.25, 18.415, -2 ],
			"faces": {
				"down": { "uv": [ 3.5, 15, 2, 13 ], "texture": "#texture", "rotation": 270 },
				"up": { "uv": [ 12.5, 13, 14, 15 ], "texture": "#texture", "rotation": 90 },
				"north": { "uv": [ 7.5, 13, 8.5, 15 ], "texture": "#texture", "rotation": 270 },
				"south": { "uv": [ 7.5, 13, 8.5, 15 ], "texture": "#texture", "rotation": 90 },
				"west": { "uv": [ 8.5, 3.5, 7.5, 2 ], "texture": "#texture", "rotation": 270 },
				"east": { "uv": [ 7.5, 12.5, 8.5, 14 ], "texture": "#texture", "rotation": 90 }
			}
		},
		{
			"__comment": "Box58",
			"from": [ 8.75, 17.585, -3.5 ],
			"to": [ 9, 18.415, -2 ],
			"faces": {
				"down": { "uv": [ 3.5, 15, 2, 13 ], "texture": "#texture", "rotation": 270 },
				"up": { "uv": [ 12.5, 13, 14, 15 ], "texture": "#texture", "rotation": 90 },
				"north": { "uv": [ 7.5, 13, 8.5, 15 ], "texture": "#texture", "rotation": 270 },
				"south": { "uv": [ 7.5, 13, 8.5, 15 ], "texture": "#texture", "rotation": 90 },
				"west": { "uv": [ 8.5, 3.5, 7.5, 2 ], "texture": "#texture", "rotation": 270 },
				"east": { "uv": [ 7.5, 12.5, 8.5, 14 ], "texture": "#texture", "rotation": 90 }
			}
		},
		{
			"__comment": "Box58",
			"from": [ 7.585, 18.75, -3.5 ],
			"to": [ 8.415, 19, -2 ],
			"rotation": { "origin": [ 8, 18, -3.5 ], "axis": "z", "angle": -45 },
			"faces": {
				"down": { "uv": [ 3.5, 15, 2, 13 ], "texture": "#texture", "rotation": 270 },
				"up": { "uv": [ 12.5, 13, 14, 15 ], "texture": "#texture", "rotation": 90 },
				"north": { "uv": [ 7.5, 13, 8.5, 15 ], "texture": "#texture", "rotation": 270 },
				"south": { "uv": [ 7.5, 13, 8.5, 15 ], "texture": "#texture", "rotation": 90 },
				"west": { "uv": [ 8.5, 3.5, 7.5, 2 ], "texture": "#texture", "rotation": 270 },
				"east": { "uv": [ 7.5, 12.5, 8.5, 14 ], "texture": "#texture", "rotation": 90 }
			}
		},
		{
			"__comment": "Box58",
			"from": [ 7, 17.585, -3.5 ],
			"to": [ 7.25, 18.415, -2 ],
			"rotation": { "origin": [ 8, 18, -3.5 ], "axis": "z", "angle": -45 },
			"faces": {
				"down": { "uv": [ 3.5, 15, 2, 13 ], "texture": "#texture", "rotation": 270 },
				"up": { "uv": [ 12.5, 13, 14, 15 ], "texture": "#texture", "rotation": 90 },
				"north": { "uv": [ 7.5, 13, 8.5, 15 ], "texture": "#texture", "rotation": 270 },
				"south": { "uv": [ 7.5, 13, 8.5, 15 ], "texture": "#texture", "rotation": 90 },
				"west": { "uv": [ 8.5, 3.5, 7.5, 2 ], "texture": "#texture", "rotation": 270 },
				"east": { "uv": [ 7.5, 12.5, 8.5, 14 ], "texture": "#texture", "rotation": 90 }
			}
		},
		{
			"__comment": "Box58",
			"from": [ 7.585, 18.75, -3.5 ],
			"to": [ 8.415, 19, -2 ],
			"faces": {
				"down": { "uv": [ 3.5, 15, 2, 13 ], "texture": "#texture", "rotation": 270 },
				"up": { "uv": [ 12.5, 13, 14, 15 ], "texture": "#texture", "rotation": 90 },
				"north": { "uv": [ 7.5, 13, 8.5, 15 ], "texture": "#texture", "rotation": 270 },
				"south": { "uv": [ 7.5, 13, 8.5, 15 ], "texture": "#texture", "rotation": 90 },
				"west": { "uv": [ 8.5, 3.5, 7.5, 2 ], "texture": "#texture", "rotation": 270 },
				"east": { "uv": [ 7.5, 12.5, 8.5, 14 ], "texture": "#texture", "rotation": 90 }
			}
		},
		{
			"__comment": "Box53",
			"from": [ 7.46, 16.7, -7.5 ],
			"to": [ 8.54, 17.1, -3.5 ],
			"rotation": { "origin": [ 8, 18, -7.5 ], "axis": "z", "angle": 45 },
			"faces": {
				"down": { "uv": [ 3.5, 12.5, 7.5, 15 ], "texture": "#texture", "rotation": 90 },
				"up": { "uv": [ 12.5, 15, 8.5, 12.5 ], "texture": "#texture", "rotation": 270 },
				"north": { "uv": [ 7.5, 12.5, 8.5, 15 ], "texture": "#texture", "rotation": 270 },
				"south": { "uv": [ 7.5, 12.5, 8.5, 15 ], "texture": "#texture", "rotation": 90 },
				"west": { "uv": [ 7.5, 3.5, 8.5, 7.5 ], "texture": "#texture", "rotation": 90 },
				"east": { "uv": [ 8.5, 12.5, 7.5, 8.5 ], "texture": "#texture", "rotation": 270 }
			}
		},
		{
			"__comment": "Box53",
			"from": [ 7.46, 16.7, -7.5 ],
			"to": [ 8.54, 17.1, -3.5 ],
			"faces": {
				"down": { "uv": [ 3.5, 12.5, 7.5, 15 ], "texture": "#texture", "rotation": 90 },
				"up": { "uv": [ 12.5, 15, 8.5, 12.5 ], "texture": "#texture", "rotation": 270 },
				"north": { "uv": [ 7.5, 12.5, 8.5, 15 ], "texture": "#texture", "rotation": 270 },
				"south": { "uv": [ 7.5, 12.5, 8.5, 15 ], "texture": "#texture", "rotation": 90 },
				"west": { "uv": [ 7.5, 3.5, 8.5, 7.5 ], "texture": "#texture", "rotation": 90 },
				"east": { "uv": [ 8.5, 12.5, 7.5, 8.5 ], "texture": "#texture", "rotation": 270 }
			}
		},
		{
			"__comment": "Box53",
			"from": [ 6.7, 17.46, -7.5 ],
			"to": [ 7.1, 18.54, -3.5 ],
			"faces": {
				"down": { "uv": [ 3.5, 12.5, 7.5, 15 ], "texture": "#texture", "rotation": 90 },
				"up": { "uv": [ 12.5, 15, 8.5, 12.5 ], "texture": "#texture", "rotation": 270 },
				"north": { "uv": [ 7.5, 12.5, 8.5, 15 ], "texture": "#texture", "rotation": 270 },
				"south": { "uv": [ 7.5, 12.5, 8.5, 15 ], "texture": "#texture", "rotation": 90 },
				"west": { "uv": [ 7.5, 3.5, 8.5, 7.5 ], "texture": "#texture", "rotation": 90 },
				"east": { "uv": [ 8.5, 12.5, 7.5, 8.5 ], "texture": "#texture", "rotation": 270 }
			}
		},
		{
			"__comment": "Box53",
			"from": [ 8.9, 17.46, -7.5 ],
			"to": [ 9.299999, 18.54, -3.5 ],
			"faces": {
				"down": { "uv": [ 3.5, 12.5, 7.5, 15 ], "texture": "#texture", "rotation": 90 },
				"up": { "uv": [ 12.5, 15, 8.5, 12.5 ], "texture": "#texture", "rotation": 270 },
				"north": { "uv": [ 7.5, 12.5, 8.5, 15 ], "texture": "#texture", "rotation": 270 },
				"south": { "uv": [ 7.5, 12.5, 8.5, 15 ], "texture": "#texture", "rotation": 90 },
				"west": { "uv": [ 7.5, 3.5, 8.5, 7.5 ], "texture": "#texture", "rotation": 90 },
				"east": { "uv": [ 8.5, 12.5, 7.5, 8.5 ], "texture": "#texture", "rotation": 270 }
			}
		},
		{
			"__comment": "Box53",
			"from": [ 7.46, 18.9, -7.5 ],
			"to": [ 8.54, 19.3, -3.5 ],
			"rotation": { "origin": [ 8, 18, -7.5 ], "axis": "z", "angle": -45 },
			"faces": {
				"down": { "uv": [ 3.5, 12.5, 7.5, 15 ], "texture": "#texture", "rotation": 90 },
				"up": { "uv": [ 12.5, 15, 8.5, 12.5 ], "texture": "#texture", "rotation": 270 },
				"north": { "uv": [ 7.5, 12.5, 8.5, 15 ], "texture": "#texture", "rotation": 270 },
				"south": { "uv": [ 7.5, 12.5, 8.5, 15 ], "texture": "#texture", "rotation": 90 },
				"west": { "uv": [ 7.5, 3.5, 8.5, 7.5 ], "texture": "#texture", "rotation": 90 },
				"east": { "uv": [ 8.5, 12.5, 7.5, 8.5 ], "texture": "#texture", "rotation": 270 }
			}
		},
		{
			"__comment": "Box53",
			"from": [ 7.46, 18.9, -7.5 ],
			"to": [ 8.54, 19.3, -3.5 ],
			"faces": {
				"down": { "uv": [ 3.5, 12.5, 7.5, 15 ], "texture": "#texture", "rotation": 90 },
				"up": { "uv": [ 12.5, 15, 8.5, 12.5 ], "texture": "#texture", "rotation": 270 },
				"north": { "uv": [ 7.5, 12.5, 8.5, 15 ], "texture": "#texture", "rotation": 270 },
				"south": { "uv": [ 7.5, 12.5, 8.5, 15 ], "texture": "#texture", "rotation": 90 },
				"west": { "uv": [ 7.5, 3.5, 8.5, 7.5 ], "texture": "#texture", "rotation": 90 },
				"east": { "uv": [ 8.5, 12.5, 7.5, 8.5 ], "texture": "#texture", "rotation": 270 }
			}
		},
		{
			"__comment": "Box53",
			"from": [ 6.7, 17.46, -7.5 ],
			"to": [ 7.1, 18.54, -3.5 ],
			"rotation": { "origin": [ 8, 18, -7.5 ], "axis": "z", "angle": -45 },
			"faces": {
				"down": { "uv": [ 3.5, 12.5, 7.5, 15 ], "texture": "#texture", "rotation": 90 },
				"up": { "uv": [ 12.5, 15, 8.5, 12.5 ], "texture": "#texture", "rotation": 270 },
				"north": { "uv": [ 7.5, 12.5, 8.5, 15 ], "texture": "#texture", "rotation": 270 },
				"south": { "uv": [ 7.5, 12.5, 8.5, 15 ], "texture": "#texture", "rotation": 90 },
				"west": { "uv": [ 7.5, 3.5, 8.5, 7.5 ], "texture": "#texture", "rotation": 90 },
				"east": { "uv": [ 8.5, 12.5, 7.5, 8.5 ], "texture": "#texture", "rotation": 270 }
			}
		},
		{
			"__comment": "Box59",
			"from": [ 7.6475, 17.15, 8 ],
			"to": [ 8.3525, 17.35, 8.5 ],
			"faces": {
				"down": { "uv": [ 7.5, 7.5, 8.5, 8 ], "texture": "#texture" },
				"up": { "uv": [ 7.5, 8, 8.5, 8.5 ], "texture": "#texture" },
				"north": { "uv": [ 7.5, 12.5, 8.5, 15 ], "texture": "#texture" },
				"south": { "uv": [ 7.5, 12.5, 8.5, 15 ], "texture": "#texture" },
				"west": { "uv": [ 8, 12.5, 8.5, 15 ], "texture": "#texture" },
				"east": { "uv": [ 7.5, 12.5, 8, 15 ], "texture": "#texture" }
			}
		},
		{
			"__comment": "Box59",
			"from": [ 7.6475, 17.15, 8 ],
			"to": [ 8.3525, 17.35, 8.5 ],
			"rotation": { "origin": [ 8, 18, 8 ], "axis": "z", "angle": -45 },
			"faces": {
				"down": { "uv": [ 8, 15, 7.5, 12.5 ], "texture": "#texture", "rotation": 270 },
				"up": { "uv": [ 8, 12.5, 8.5, 15 ], "texture": "#texture", "rotation": 90 },
				"north": { "uv": [ 7.5, 12.5, 8.5, 15 ], "texture": "#texture", "rotation": 270 },
				"south": { "uv": [ 7.5, 12.5, 8.5, 15 ], "texture": "#texture", "rotation": 90 },
				"west": { "uv": [ 8.5, 8, 7.5, 7.5 ], "texture": "#texture", "rotation": 270 },
				"east": { "uv": [ 7.5, 8, 8.5, 8.5 ], "texture": "#texture", "rotation": 90 }
			}
		},
		{
			"__comment": "Box59",
			"from": [ 7.6475, 17.15, 8 ],
			"to": [ 8.3525, 17.35, 8.5 ],
			"rotation": { "origin": [ 8, 18, 8 ], "axis": "z", "angle": 45 },
			"faces": {
				"down": { "uv": [ 8, 15, 7.5, 12.5 ], "texture": "#texture", "rotation": 270 },
				"up": { "uv": [ 8, 12.5, 8.5, 15 ], "texture": "#texture", "rotation": 90 },
				"north": { "uv": [ 7.5, 12.5, 8.5, 15 ], "texture": "#texture", "rotation": 270 },
				"south": { "uv": [ 7.5, 12.5, 8.5, 15 ], "texture": "#texture", "rotation": 90 },
				"west": { "uv": [ 8.5, 8, 7.5, 7.5 ], "texture": "#texture", "rotation": 270 },
				"east": { "uv": [ 7.5, 8, 8.5, 8.5 ], "texture": "#texture", "rotation": 90 }
			}
		},
		{
			"__comment": "Box59",
			"from": [ 7.6475, 18.65, 8 ],
			"to": [ 8.3525, 18.85, 8.5 ],
			"faces": {
				"down": { "uv": [ 8, 15, 7.5, 12.5 ], "texture": "#texture", "rotation": 270 },
				"up": { "uv": [ 8, 12.5, 8.5, 15 ], "texture": "#texture", "rotation": 90 },
				"north": { "uv": [ 7.5, 12.5, 8.5, 15 ], "texture": "#texture", "rotation": 270 },
				"south": { "uv": [ 7.5, 12.5, 8.5, 15 ], "texture": "#texture", "rotation": 90 },
				"west": { "uv": [ 8.5, 8, 7.5, 7.5 ], "texture": "#texture", "rotation": 270 },
				"east": { "uv": [ 7.5, 8, 8.5, 8.5 ], "texture": "#texture", "rotation": 90 }
			}
		},
		{
			"__comment": "Box59",
			"from": [ 8.65, 17.6475, 8 ],
			"to": [ 8.849999, 18.3525, 8.5 ],
			"faces": {
				"down": { "uv": [ 8, 15, 7.5, 12.5 ], "texture": "#texture", "rotation": 270 },
				"up": { "uv": [ 8, 12.5, 8.5, 15 ], "texture": "#texture", "rotation": 90 },
				"north": { "uv": [ 7.5, 12.5, 8.5, 15 ], "texture": "#texture", "rotation": 270 },
				"south": { "uv": [ 7.5, 12.5, 8.5, 15 ], "texture": "#texture", "rotation": 90 },
				"west": { "uv": [ 8.5, 8, 7.5, 7.5 ], "texture": "#texture", "rotation": 270 },
				"east": { "uv": [ 7.5, 8, 8.5, 8.5 ], "texture": "#texture", "rotation": 90 }
			}
		},
		{
			"__comment": "Box59",
			"from": [ 7.15, 17.6475, 8 ],
			"to": [ 7.349999, 18.3525, 8.5 ],
			"faces": {
				"down": { "uv": [ 8, 15, 7.5, 12.5 ], "texture": "#texture", "rotation": 270 },
				"up": { "uv": [ 8, 12.5, 8.5, 15 ], "texture": "#texture", "rotation": 90 },
				"north": { "uv": [ 7.5, 12.5, 8.5, 15 ], "texture": "#texture", "rotation": 270 },
				"south": { "uv": [ 7.5, 12.5, 8.5, 15 ], "texture": "#texture", "rotation": 90 },
				"west": { "uv": [ 8.5, 8, 7.5, 7.5 ], "texture": "#texture", "rotation": 270 },
				"east": { "uv": [ 7.5, 8, 8.5, 8.5 ], "texture": "#texture", "rotation": 90 }
			}
		},
		{
			"__comment": "Box59",
			"from": [ 7.15, 17.6475, 8 ],
			"to": [ 7.349999, 18.3525, 8.5 ],
			"rotation": { "origin": [ 8, 18, 8 ], "axis": "z", "angle": -45 },
			"faces": {
				"down": { "uv": [ 8, 15, 7.5, 12.5 ], "texture": "#texture", "rotation": 270 },
				"up": { "uv": [ 8, 12.5, 8.5, 15 ], "texture": "#texture", "rotation": 90 },
				"north": { "uv": [ 7.5, 12.5, 8.5, 15 ], "texture": "#texture", "rotation": 270 },
				"south": { "uv": [ 7.5, 12.5, 8.5, 15 ], "texture": "#texture", "rotation": 90 },
				"west": { "uv": [ 8.5, 8, 7.5, 7.5 ], "texture": "#texture", "rotation": 270 },
				"east": { "uv": [ 7.5, 8, 8.5, 8.5 ], "texture": "#texture", "rotation": 90 }
			}
		},
		{
			"__comment": "Box59",
			"from": [ 7.6475, 18.65, 8 ],
			"to": [ 8.3525, 18.85, 8.5 ],
			"rotation": { "origin": [ 8, 18, 8 ], "axis": "z", "angle": -45 },
			"faces": {
				"down": { "uv": [ 8, 15, 7.5, 12.5 ], "texture": "#texture", "rotation": 270 },
				"up": { "uv": [ 8, 12.5, 8.5, 15 ], "texture": "#texture", "rotation": 90 },
				"north": { "uv": [ 7.5, 12.5, 8.5, 15 ], "texture": "#texture", "rotation": 270 },
				"south": { "uv": [ 7.5, 12.5, 8.5, 15 ], "texture": "#texture", "rotation": 90 },
				"west": { "uv": [ 8.5, 8, 7.5, 7.5 ], "texture": "#texture", "rotation": 270 },
				"east": { "uv": [ 7.5, 8, 8.5, 8.5 ], "texture": "#texture", "rotation": 90 }
			}
		},
		{
			"__comment": "Box59",
			"from": [ 7.6475, 18.6, 8 ],
			"to": [ 8.3525, 19.1, 8.5 ],
			"faces": {
				"down": { "uv": [ 8, 15, 7.5, 12.5 ], "texture": "#texture", "rotation": 270 },
				"up": { "uv": [ 8, 12.5, 8.5, 15 ], "texture": "#texture", "rotation": 90 },
				"north": { "uv": [ 7.5, 12.5, 8.5, 15 ], "texture": "#texture", "rotation": 270 },
				"south": { "uv": [ 7.5, 12.5, 8.5, 15 ], "texture": "#texture", "rotation": 90 },
				"west": { "uv": [ 8.5, 8, 7.5, 7.5 ], "texture": "#texture", "rotation": 270 },
				"east": { "uv": [ 7.5, 8, 8.5, 8.5 ], "texture": "#texture", "rotation": 90 }
			}
		},
		{
			"__comment": "Box59",
			"from": [ 7.6475, 18.65, 6 ],
			"to": [ 8.3525, 18.85, 7 ],
			"rotation": { "origin": [ 8, 18, 6 ], "axis": "z", "angle": -45 },
			"faces": {
				"down": { "uv": [ 8, 15, 7.5, 12.5 ], "texture": "#texture", "rotation": 270 },
				"up": { "uv": [ 8, 12.5, 8.5, 15 ], "texture": "#texture", "rotation": 90 },
				"north": { "uv": [ 7.5, 12.5, 8.5, 15 ], "texture": "#texture", "rotation": 270 },
				"south": { "uv": [ 7.5, 12.5, 8.5, 15 ], "texture": "#texture", "rotation": 90 },
				"west": { "uv": [ 8.5, 8, 7.5, 7.5 ], "texture": "#texture", "rotation": 270 },
				"east": { "uv": [ 7.5, 8, 8.5, 8.5 ], "texture": "#texture", "rotation": 90 }
			}
		},
		{
			"__comment": "Box59",
			"from": [ 7.6475, 17.15, 6 ],
			"to": [ 8.3525, 17.35, 7 ],
			"faces": {
				"down": { "uv": [ 7.5, 7.5, 8.5, 8 ], "texture": "#texture" },
				"up": { "uv": [ 7.5, 8, 8.5, 8.5 ], "texture": "#texture" },
				"north": { "uv": [ 7.5, 12.5, 8.5, 15 ], "texture": "#texture" },
				"south": { "uv": [ 7.5, 12.5, 8.5, 15 ], "texture": "#texture" },
				"west": { "uv": [ 8, 12.5, 8.5, 15 ], "texture": "#texture" },
				"east": { "uv": [ 7.5, 12.5, 8, 15 ], "texture": "#texture" }
			}
		},
		{
			"__comment": "Box59",
			"from": [ 7.6475, 17.15, 6 ],
			"to": [ 8.3525, 17.35, 7 ],
			"rotation": { "origin": [ 8, 18, 6 ], "axis": "z", "angle": -45 },
			"faces": {
				"down": { "uv": [ 8, 15, 7.5, 12.5 ], "texture": "#texture", "rotation": 270 },
				"up": { "uv": [ 8, 12.5, 8.5, 15 ], "texture": "#texture", "rotation": 90 },
				"north": { "uv": [ 7.5, 12.5, 8.5, 15 ], "texture": "#texture", "rotation": 270 },
				"south": { "uv": [ 7.5, 12.5, 8.5, 15 ], "texture": "#texture", "rotation": 90 },
				"west": { "uv": [ 8.5, 8, 7.5, 7.5 ], "texture": "#texture", "rotation": 270 },
				"east": { "uv": [ 7.5, 8, 8.5, 8.5 ], "texture": "#texture", "rotation": 90 }
			}
		},
		{
			"__comment": "Box59",
			"from": [ 7.6475, 17.15, 6 ],
			"to": [ 8.3525, 17.35, 7 ],
			"rotation": { "origin": [ 8, 18, 6 ], "axis": "z", "angle": 45 },
			"faces": {
				"down": { "uv": [ 8, 15, 7.5, 12.5 ], "texture": "#texture", "rotation": 270 },
				"up": { "uv": [ 8, 12.5, 8.5, 15 ], "texture": "#texture", "rotation": 90 },
				"north": { "uv": [ 7.5, 12.5, 8.5, 15 ], "texture": "#texture", "rotation": 270 },
				"south": { "uv": [ 7.5, 12.5, 8.5, 15 ], "texture": "#texture", "rotation": 90 },
				"west": { "uv": [ 8.5, 8, 7.5, 7.5 ], "texture": "#texture", "rotation": 270 },
				"east": { "uv": [ 7.5, 8, 8.5, 8.5 ], "texture": "#texture", "rotation": 90 }
			}
		},
		{
			"__comment": "Box59",
			"from": [ 7.6475, 18.65, 6 ],
			"to": [ 8.3525, 18.85, 7 ],
			"faces": {
				"down": { "uv": [ 8, 15, 7.5, 12.5 ], "texture": "#texture", "rotation": 270 },
				"up": { "uv": [ 8, 12.5, 8.5, 15 ], "texture": "#texture", "rotation": 90 },
				"north": { "uv": [ 7.5, 12.5, 8.5, 15 ], "texture": "#texture", "rotation": 270 },
				"south": { "uv": [ 7.5, 12.5, 8.5, 15 ], "texture": "#texture", "rotation": 90 },
				"west": { "uv": [ 8.5, 8, 7.5, 7.5 ], "texture": "#texture", "rotation": 270 },
				"east": { "uv": [ 7.5, 8, 8.5, 8.5 ], "texture": "#texture", "rotation": 90 }
			}
		},
		{
			"__comment": "Box59",
			"from": [ 8.65, 17.6475, 6 ],
			"to": [ 8.849999, 18.3525, 7 ],
			"faces": {
				"down": { "uv": [ 8, 15, 7.5, 12.5 ], "texture": "#texture", "rotation": 270 },
				"up": { "uv": [ 8, 12.5, 8.5, 15 ], "texture": "#texture", "rotation": 90 },
				"north": { "uv": [ 7.5, 12.5, 8.5, 15 ], "texture": "#texture", "rotation": 270 },
				"south": { "uv": [ 7.5, 12.5, 8.5, 15 ], "texture": "#texture", "rotation": 90 },
				"west": { "uv": [ 8.5, 8, 7.5, 7.5 ], "texture": "#texture", "rotation": 270 },
				"east": { "uv": [ 7.5, 8, 8.5, 8.5 ], "texture": "#texture", "rotation": 90 }
			}
		},
		{
			"__comment": "Box59",
			"from": [ 7.15, 17.6475, 6 ],
			"to": [ 7.349999, 18.3525, 7 ],
			"faces": {
				"down": { "uv": [ 8, 15, 7.5, 12.5 ], "texture": "#texture", "rotation": 270 },
				"up": { "uv": [ 8, 12.5, 8.5, 15 ], "texture": "#texture", "rotation": 90 },
				"north": { "uv": [ 7.5, 12.5, 8.5, 15 ], "texture": "#texture", "rotation": 270 },
				"south": { "uv": [ 7.5, 12.5, 8.5, 15 ], "texture": "#texture", "rotation": 90 },
				"west": { "uv": [ 8.5, 8, 7.5, 7.5 ], "texture": "#texture", "rotation": 270 },
				"east": { "uv": [ 7.5, 8, 8.5, 8.5 ], "texture": "#texture", "rotation": 90 }
			}
		},
		{
			"__comment": "Box59",
			"from": [ 7.15, 17.6475, 6 ],
			"to": [ 7.349999, 18.3525, 7 ],
			"rotation": { "origin": [ 8, 18, 6 ], "axis": "z", "angle": -45 },
			"faces": {
				"down": { "uv": [ 8, 15, 7.5, 12.5 ], "texture": "#texture", "rotation": 270 },
				"up": { "uv": [ 8, 12.5, 8.5, 15 ], "texture": "#texture", "rotation": 90 },
				"north": { "uv": [ 7.5, 12.5, 8.5, 15 ], "texture": "#texture", "rotation": 270 },
				"south": { "uv": [ 7.5, 12.5, 8.5, 15 ], "texture": "#texture", "rotation": 90 },
				"west": { "uv": [ 8.5, 8, 7.5, 7.5 ], "texture": "#texture", "rotation": 270 },
				"east": { "uv": [ 7.5, 8, 8.5, 8.5 ], "texture": "#texture", "rotation": 90 }
			}
		},
		{
			"__comment": "Box59",
			"from": [ 7.15, 17.6475, -0.5 ],
			"to": [ 7.349999, 18.3525, 0.5 ],
			"rotation": { "origin": [ 8, 18, -0.5 ], "axis": "z", "angle": -45 },
			"faces": {
				"down": { "uv": [ 8, 15, 7.5, 12.5 ], "texture": "#texture", "rotation": 270 },
				"up": { "uv": [ 8, 12.5, 8.5, 15 ], "texture": "#texture", "rotation": 90 },
				"north": { "uv": [ 7.5, 12.5, 8.5, 15 ], "texture": "#texture", "rotation": 270 },
				"south": { "uv": [ 7.5, 12.5, 8.5, 15 ], "texture": "#texture", "rotation": 90 },
				"west": { "uv": [ 8.5, 8, 7.5, 7.5 ], "texture": "#texture", "rotation": 270 },
				"east": { "uv": [ 7.5, 8, 8.5, 8.5 ], "texture": "#texture", "rotation": 90 }
			}
		},
		{
			"__comment": "Box59",
			"from": [ 7.6475, 17.15, -0.5 ],
			"to": [ 8.3525, 17.35, 0.5 ],
			"rotation": { "origin": [ 8, 18, -0.5 ], "axis": "z", "angle": 45 },
			"faces": {
				"down": { "uv": [ 8, 15, 7.5, 12.5 ], "texture": "#texture", "rotation": 270 },
				"up": { "uv": [ 8, 12.5, 8.5, 15 ], "texture": "#texture", "rotation": 90 },
				"north": { "uv": [ 7.5, 12.5, 8.5, 15 ], "texture": "#texture", "rotation": 270 },
				"south": { "uv": [ 7.5, 12.5, 8.5, 15 ], "texture": "#texture", "rotation": 90 },
				"west": { "uv": [ 8.5, 8, 7.5, 7.5 ], "texture": "#texture", "rotation": 270 },
				"east": { "uv": [ 7.5, 8, 8.5, 8.5 ], "texture": "#texture", "rotation": 90 }
			}
		},
		{
			"__comment": "Box59",
			"from": [ 7.6475, 18.65, -0.5 ],
			"to": [ 8.3525, 18.85, 0.5 ],
			"faces": {
				"down": { "uv": [ 8, 15, 7.5, 12.5 ], "texture": "#texture", "rotation": 270 },
				"up": { "uv": [ 8, 12.5, 8.5, 15 ], "texture": "#texture", "rotation": 90 },
				"north": { "uv": [ 7.5, 12.5, 8.5, 15 ], "texture": "#texture", "rotation": 270 },
				"south": { "uv": [ 7.5, 12.5, 8.5, 15 ], "texture": "#texture", "rotation": 90 },
				"west": { "uv": [ 8.5, 8, 7.5, 7.5 ], "texture": "#texture", "rotation": 270 },
				"east": { "uv": [ 7.5, 8, 8.5, 8.5 ], "texture": "#texture", "rotation": 90 }
			}
		},
		{
			"__comment": "Box59",
			"from": [ 8.65, 17.6475, -0.5 ],
			"to": [ 8.849999, 18.3525, 0.5 ],
			"faces": {
				"down": { "uv": [ 8, 15, 7.5, 12.5 ], "texture": "#texture", "rotation": 270 },
				"up": { "uv": [ 8, 12.5, 8.5, 15 ], "texture": "#texture", "rotation": 90 },
				"north": { "uv": [ 7.5, 12.5, 8.5, 15 ], "texture": "#texture", "rotation": 270 },
				"south": { "uv": [ 7.5, 12.5, 8.5, 15 ], "texture": "#texture", "rotation": 90 },
				"west": { "uv": [ 8.5, 8, 7.5, 7.5 ], "texture": "#texture", "rotation": 270 },
				"east": { "uv": [ 7.5, 8, 8.5, 8.5 ], "texture": "#texture", "rotation": 90 }
			}
		},
		{
			"__comment": "Box59",
			"from": [ 7.15, 17.6475, -0.5 ],
			"to": [ 7.349999, 18.3525, 0.5 ],
			"faces": {
				"down": { "uv": [ 8, 15, 7.5, 12.5 ], "texture": "#texture", "rotation": 270 },
				"up": { "uv": [ 8, 12.5, 8.5, 15 ], "texture": "#texture", "rotation": 90 },
				"north": { "uv": [ 7.5, 12.5, 8.5, 15 ], "texture": "#texture", "rotation": 270 },
				"south": { "uv": [ 7.5, 12.5, 8.5, 15 ], "texture": "#texture", "rotation": 90 },
				"west": { "uv": [ 8.5, 8, 7.5, 7.5 ], "texture": "#texture", "rotation": 270 },
				"east": { "uv": [ 7.5, 8, 8.5, 8.5 ], "texture": "#texture", "rotation": 90 }
			}
		},
		{
			"__comment": "Box59",
			"from": [ 7.6475, 17.15, -0.5 ],
			"to": [ 8.3525, 17.35, 0.5 ],
			"rotation": { "origin": [ 8, 18, -0.5 ], "axis": "z", "angle": -45 },
			"faces": {
				"down": { "uv": [ 8, 15, 7.5, 12.5 ], "texture": "#texture", "rotation": 270 },
				"up": { "uv": [ 8, 12.5, 8.5, 15 ], "texture": "#texture", "rotation": 90 },
				"north": { "uv": [ 7.5, 12.5, 8.5, 15 ], "texture": "#texture", "rotation": 270 },
				"south": { "uv": [ 7.5, 12.5, 8.5, 15 ], "texture": "#texture", "rotation": 90 },
				"west": { "uv": [ 8.5, 8, 7.5, 7.5 ], "texture": "#texture", "rotation": 270 },
				"east": { "uv": [ 7.5, 8, 8.5, 8.5 ], "texture": "#texture", "rotation": 90 }
			}
		},
		{
			"__comment": "Box59",
			"from": [ 7.6475, 17.15, -0.5 ],
			"to": [ 8.3525, 17.35, 0.5 ],
			"faces": {
				"down": { "uv": [ 7.5, 7.5, 8.5, 8 ], "texture": "#texture" },
				"up": { "uv": [ 7.5, 8, 8.5, 8.5 ], "texture": "#texture" },
				"north": { "uv": [ 7.5, 12.5, 8.5, 15 ], "texture": "#texture" },
				"south": { "uv": [ 7.5, 12.5, 8.5, 15 ], "texture": "#texture" },
				"west": { "uv": [ 8, 12.5, 8.5, 15 ], "texture": "#texture" },
				"east": { "uv": [ 7.5, 12.5, 8, 15 ], "texture": "#texture" }
			}
		},
		{
			"__comment": "Box59",
			"from": [ 7.6475, 18.65, -0.5 ],
			"to": [ 8.3525, 18.85, 0.5 ],
			"rotation": { "origin": [ 8, 18, -0.5 ], "axis": "z", "angle": -45 },
			"faces": {
				"down": { "uv": [ 8, 15, 7.5, 12.5 ], "texture": "#texture", "rotation": 270 },
				"up": { "uv": [ 8, 12.5, 8.5, 15 ], "texture": "#texture", "rotation": 90 },
				"north": { "uv": [ 7.5, 12.5, 8.5, 15 ], "texture": "#texture", "rotation": 270 },
				"south": { "uv": [ 7.5, 12.5, 8.5, 15 ], "texture": "#texture", "rotation": 90 },
				"west": { "uv": [ 8.5, 8, 7.5, 7.5 ], "texture": "#texture", "rotation": 270 },
				"east": { "uv": [ 7.5, 8, 8.5, 8.5 ], "texture": "#texture", "rotation": 90 }
			}
		},
		{
			"__comment": "Box70",
			"from": [ 7.3, 17.32, -3.5 ],
			"to": [ 8.7, 18.72, -2 ],
			"faces": {
				"down": { "uv": [ 5, 13, 6.5, 14.5 ], "texture": "#scope" },
				"up": { "uv": [ 4, 1.5, 5.5, 3 ], "texture": "#scope" },
				"north": { "uv": [ 1, 1, 15, 15 ], "texture": "#scope" },
				"south": { "uv": [ 1, 1, 15, 15 ], "texture": "#scope" },
				"west": { "uv": [ 0, 0, 2.5, 4 ], "texture": "#scope" },
				"east": { "uv": [ 0, 0, 2.5, 3.5 ], "texture": "#scope" }
			}
		}
	],
	"display": {
		"thirdperson_righthand": {
			"rotation":  [ 25, 0, 0 ],
			"translation":  [ 0, -3.477, 0.6956 ],
			"scale":  [ 0.35, 0.35, 0.35 ]
		},
		"thirdperson_lefthand": {
			"scale":  [ 0.7, 0.7, 0.7 ]
		},
		"firstperson_righthand": {
			"rotation":  [ 25, -10, 0 ],
			"translation":  [ -0.695, -6.26, -1.39 ],
			"scale":  [ 0.9, 0.9, 0.9 ]
		},
		"firstperson_lefthand": {
			"translation":  [ -9.006, -1.62, 10.932 ],
			"scale":  [ 1, 1, 0.1304 ]
		},
		"gui": {
			"rotation":  [ 90, 45, -90 ],
			"translation":  [ -3, -10.42, 0 ],
			"scale":  [ 0.96, 0.96, 0.96 ]
		},
		"ground": {
			"rotation":  [ 0, 0, 90 ],
			"translation":  [ 4.8, -0.521, 2.0869 ],
			"scale":  [ 0.5, 0.5, 0.5 ]
		},
		"fixed": {
			"rotation":  [ 90, -45, 90 ],
			"translation":  [ 2.7826, -11.13, 0 ]
		}
	},
	"overrides": [
	]
}