{
	"__comment": "Designed by Neo2057 with Cubik Studio - https://cubik.studio",
	"textures": {
		"particle": "blocks/e_particle",
		"texture": "items/9",
		"texture1": "da23ae8678b786b2058221a855254c2a",
		"texture2": "items/10"
	},
	"elements": [ 	 
		{
			"__comment": "Box2",
			"from": [ 7.125, 16.875, 5.875 ],
			"to": [ 8.875, 20.375, 16.625 ],
			"faces": {
				"down": { "uv": [ 7.125, 0, 8.875, 10.125 ], "texture": "#texture" },
				"up": { "uv": [ 7.125, 5.875, 8.875, 16 ], "texture": "#texture" },
				"north": { "uv": [ 7.125, 11.625, 8.875, 15.125 ], "texture": "#texture" },
				"south": { "uv": [ 7.125, 11.625, 8.875, 15.125 ], "texture": "#texture" },
				"west": { "uv": [ 5.875, 11.625, 16, 15.125 ], "texture": "#texture" },
				"east": { "uv": [ 0, 11.625, 10.125, 15.125 ], "texture": "#texture" }
			}
		},
		{
			"__comment": "Box3",
			"from": [ 7.125, 16.875, 16.5 ],
			"to": [ 8.875, 19.625, 18 ],
			"faces": {
				"down": { "uv": [ 7.125, 0, 8.875, 0.5 ], "texture": "#texture" },
				"up": { "uv": [ 7.125, 15.5, 8.875, 16 ], "texture": "#texture" },
				"north": { "uv": [ 7.125, 11.5, 8.875, 15.125 ], "texture": "#texture" },
				"south": { "uv": [ 7.125, 11.5, 8.875, 15.125 ], "texture": "#texture" },
				"west": { "uv": [ 15.5, 11.5, 16, 15.125 ], "texture": "#texture" },
				"east": { "uv": [ 0, 11.5, 0.5, 15.125 ], "texture": "#texture" }
			}
		},
		{
			"__comment": "Box4",
			"from": [ 7.125, 16.875, 17.875 ],
			"to": [ 8.875, 19.625, 20 ],
			"faces": {
				"down": { "uv": [ 7.125, 12, 8.875, 14.125 ], "texture": "#texture" },
				"up": { "uv": [ 7.125, 1.875, 8.875, 4 ], "texture": "#texture" },
				"north": { "uv": [ 7.125, 12.375, 8.875, 15.125 ], "texture": "#texture" },
				"south": { "uv": [ 7.125, 12.375, 8.875, 15.125 ], "texture": "#texture" },
				"west": { "uv": [ 1.875, 12.375, 4, 15.125 ], "texture": "#texture" },
				"east": { "uv": [ 12, 12.375, 14.125, 15.125 ], "texture": "#texture" }
			}
		},
		{
			"__comment": "Box5",
			"from": [ 7.125, 17, 20 ],
			"to": [ 8.875, 19, 22 ],
			"faces": {
				"down": { "uv": [ 7.125, 10, 8.875, 12 ], "texture": "#texture" },
				"up": { "uv": [ 7.125, 4, 8.875, 6 ], "texture": "#texture" },
				"north": { "uv": [ 7.125, 13, 8.875, 15 ], "texture": "#texture" },
				"south": { "uv": [ 7.125, 13, 8.875, 15 ], "texture": "#texture" },
				"west": { "uv": [ 4, 13, 6, 15 ], "texture": "#texture" },
				"east": { "uv": [ 10, 13, 12, 15 ], "texture": "#texture" }
			}
		},
		{
			"__comment": "Box6",
			"from": [ 7.125, 17.5, 22.75 ],
			"to": [ 8.875, 18.75, 23.875 ],
			"rotation": { "origin": [ 7.125, 17.5, 22.75 ], "axis": "x", "angle": 45 },
			"faces": {
				"down": { "uv": [ 7.25, 6.625, 8.75, 8.875 ], "texture": "#texture" },
				"up": { "uv": [ 7.25, 7.125, 8.75, 9.375 ], "texture": "#texture" },
				"north": { "uv": [ 7.25, 13.875, 8.75, 15.125 ], "texture": "#texture" },
				"south": { "uv": [ 7.25, 13.875, 8.75, 15.125 ], "texture": "#texture" },
				"west": { "uv": [ 7.125, 13.875, 9.375, 15.125 ], "texture": "#texture" },
				"east": { "uv": [ 6.625, 13.875, 8.875, 15.125 ], "texture": "#texture" }
			}
		},
		{
			"__comment": "Box7",
			"from": [ 7.8375, 20.052, -9.5 ],
			"to": [ 8.162499, 20.402, 6 ],
			"faces": {
				"down": { "uv": [ 7.849999, 10, 8.15, 16 ], "texture": "#texture" },
				"up": { "uv": [ 7.849999, 0, 8.15, 6 ], "texture": "#texture" },
				"north": { "uv": [ 7.85, 11.5067, 8.150001, 13.1067 ], "texture": "#texture" },
				"south": { "uv": [ 7.849999, 11.5067, 8.15, 13.1067 ], "texture": "#texture" },
				"west": { "uv": [ 0, 11.5067, 6, 13.1067 ], "texture": "#texture" },
				"east": { "uv": [ 10, 11.5067, 16, 13.1067 ], "texture": "#texture" }
			}
		},
		{
			"__comment": "Box7",
			"from": [ 7.8375, 20.052, -9.5 ],
			"to": [ 8.162499, 20.402, 6 ],
			"rotation": { "origin": [ 8, 19.6, -9.5 ], "axis": "z", "angle": -22.5 },
			"faces": {
				"down": { "uv": [ 16, 13.1067, 10, 11.5067 ], "texture": "#texture", "rotation": 270 },
				"up": { "uv": [ 0, 11.5067, 6, 13.1067 ], "texture": "#texture", "rotation": 90 },
				"north": { "uv": [ 8.150001, 13.1067, 7.85, 11.5067 ], "texture": "#texture", "rotation": 90 },
				"south": { "uv": [ 8.15, 13.1067, 7.849999, 11.5067 ], "texture": "#texture", "rotation": 270 },
				"west": { "uv": [ 7.849999, 10, 8.15, 16 ], "texture": "#texture", "rotation": 90 },
				"east": { "uv": [ 8.15, 6, 7.849999, 0 ], "texture": "#texture", "rotation": 270 }
			}
		},
		{
			"__comment": "Box7",
			"from": [ 7.8375, 20.052, -9.5 ],
			"to": [ 8.162499, 20.402, 6 ],
			"rotation": { "origin": [ 8, 19.6, -9.5 ], "axis": "z", "angle": -45 },
			"faces": {
				"down": { "uv": [ 16, 13.1067, 10, 11.5067 ], "texture": "#texture", "rotation": 270 },
				"up": { "uv": [ 0, 11.5067, 6, 13.1067 ], "texture": "#texture", "rotation": 90 },
				"north": { "uv": [ 8.150001, 13.1067, 7.85, 11.5067 ], "texture": "#texture", "rotation": 90 },
				"south": { "uv": [ 8.15, 13.1067, 7.849999, 11.5067 ], "texture": "#texture", "rotation": 270 },
				"west": { "uv": [ 7.849999, 10, 8.15, 16 ], "texture": "#texture", "rotation": 90 },
				"east": { "uv": [ 8.15, 6, 7.849999, 0 ], "texture": "#texture", "rotation": 270 }
			}
		},
		{
			"__comment": "Box7",
			"from": [ 7.198, 19.4375, -9.5 ],
			"to": [ 7.548, 19.7625, 6 ],
			"rotation": { "origin": [ 8, 19.6, -9.5 ], "axis": "z", "angle": 22.5 },
			"faces": {
				"down": { "uv": [ 16, 13.1067, 10, 11.5067 ], "texture": "#texture", "rotation": 270 },
				"up": { "uv": [ 0, 11.5067, 6, 13.1067 ], "texture": "#texture", "rotation": 90 },
				"north": { "uv": [ 8.150001, 13.1067, 7.85, 11.5067 ], "texture": "#texture", "rotation": 90 },
				"south": { "uv": [ 8.15, 13.1067, 7.849999, 11.5067 ], "texture": "#texture", "rotation": 270 },
				"west": { "uv": [ 7.849999, 10, 8.15, 16 ], "texture": "#texture", "rotation": 90 },
				"east": { "uv": [ 8.15, 6, 7.849999, 0 ], "texture": "#texture", "rotation": 270 }
			}
		},
		{
			"__comment": "Box7",
			"from": [ 7.198, 19.4375, -9.5 ],
			"to": [ 7.548, 19.7625, 6 ],
			"faces": {
				"down": { "uv": [ 16, 13.1067, 10, 11.5067 ], "texture": "#texture", "rotation": 270 },
				"up": { "uv": [ 0, 11.5067, 6, 13.1067 ], "texture": "#texture", "rotation": 90 },
				"north": { "uv": [ 8.150001, 13.1067, 7.85, 11.5067 ], "texture": "#texture", "rotation": 90 },
				"south": { "uv": [ 8.15, 13.1067, 7.849999, 11.5067 ], "texture": "#texture", "rotation": 270 },
				"west": { "uv": [ 7.849999, 10, 8.15, 16 ], "texture": "#texture", "rotation": 90 },
				"east": { "uv": [ 8.15, 6, 7.849999, 0 ], "texture": "#texture", "rotation": 270 }
			}
		},
		{
			"__comment": "Box7",
			"from": [ 7.198, 19.4375, -9.5 ],
			"to": [ 7.548, 19.7625, 6 ],
			"rotation": { "origin": [ 8, 19.6, -9.5 ], "axis": "z", "angle": -22.5 },
			"faces": {
				"down": { "uv": [ 16, 13.1067, 10, 11.5067 ], "texture": "#texture", "rotation": 270 },
				"up": { "uv": [ 0, 11.5067, 6, 13.1067 ], "texture": "#texture", "rotation": 90 },
				"north": { "uv": [ 8.150001, 13.1067, 7.85, 11.5067 ], "texture": "#texture", "rotation": 90 },
				"south": { "uv": [ 8.15, 13.1067, 7.849999, 11.5067 ], "texture": "#texture", "rotation": 270 },
				"west": { "uv": [ 7.849999, 10, 8.15, 16 ], "texture": "#texture", "rotation": 90 },
				"east": { "uv": [ 8.15, 6, 7.849999, 0 ], "texture": "#texture", "rotation": 270 }
			}
		},
		{
			"__comment": "Box7",
			"from": [ 8.452, 19.4375, -9.5 ],
			"to": [ 8.802, 19.7625, 6 ],
			"rotation": { "origin": [ 8, 19.6, -9.5 ], "axis": "z", "angle": -45 },
			"faces": {
				"down": { "uv": [ 16, 13.1067, 10, 11.5067 ], "texture": "#texture", "rotation": 270 },
				"up": { "uv": [ 0, 11.5067, 6, 13.1067 ], "texture": "#texture", "rotation": 90 },
				"north": { "uv": [ 8.150001, 13.1067, 7.85, 11.5067 ], "texture": "#texture", "rotation": 90 },
				"south": { "uv": [ 8.15, 13.1067, 7.849999, 11.5067 ], "texture": "#texture", "rotation": 270 },
				"west": { "uv": [ 7.849999, 10, 8.15, 16 ], "texture": "#texture", "rotation": 90 },
				"east": { "uv": [ 8.15, 6, 7.849999, 0 ], "texture": "#texture", "rotation": 270 }
			}
		},
		{
			"__comment": "Box7",
			"from": [ 7.8375, 18.798, -9.5 ],
			"to": [ 8.162499, 19.148, 6 ],
			"rotation": { "origin": [ 8, 19.6, -9.5 ], "axis": "z", "angle": 22.5 },
			"faces": {
				"down": { "uv": [ 16, 13.1067, 10, 11.5067 ], "texture": "#texture", "rotation": 270 },
				"up": { "uv": [ 0, 11.5067, 6, 13.1067 ], "texture": "#texture", "rotation": 90 },
				"north": { "uv": [ 8.150001, 13.1067, 7.85, 11.5067 ], "texture": "#texture", "rotation": 90 },
				"south": { "uv": [ 8.15, 13.1067, 7.849999, 11.5067 ], "texture": "#texture", "rotation": 270 },
				"west": { "uv": [ 7.849999, 10, 8.15, 16 ], "texture": "#texture", "rotation": 90 },
				"east": { "uv": [ 8.15, 6, 7.849999, 0 ], "texture": "#texture", "rotation": 270 }
			}
		},
		{
			"__comment": "Box7",
			"from": [ 7.8375, 18.798, -9.5 ],
			"to": [ 8.162499, 19.148, 6 ],
			"faces": {
				"down": { "uv": [ 16, 13.1067, 10, 11.5067 ], "texture": "#texture", "rotation": 270 },
				"up": { "uv": [ 0, 11.5067, 6, 13.1067 ], "texture": "#texture", "rotation": 90 },
				"north": { "uv": [ 8.150001, 13.1067, 7.85, 11.5067 ], "texture": "#texture", "rotation": 90 },
				"south": { "uv": [ 8.15, 13.1067, 7.849999, 11.5067 ], "texture": "#texture", "rotation": 270 },
				"west": { "uv": [ 7.849999, 10, 8.15, 16 ], "texture": "#texture", "rotation": 90 },
				"east": { "uv": [ 8.15, 6, 7.849999, 0 ], "texture": "#texture", "rotation": 270 }
			}
		},
		{
			"__comment": "Box7",
			"from": [ 7.8375, 20.052, -9.5 ],
			"to": [ 8.162499, 20.402, 6 ],
			"rotation": { "origin": [ 8, 19.6, -9.5 ], "axis": "z", "angle": 22.5 },
			"faces": {
				"down": { "uv": [ 16, 13.1067, 10, 11.5067 ], "texture": "#texture", "rotation": 270 },
				"up": { "uv": [ 0, 11.5067, 6, 13.1067 ], "texture": "#texture", "rotation": 90 },
				"north": { "uv": [ 8.150001, 13.1067, 7.85, 11.5067 ], "texture": "#texture", "rotation": 90 },
				"south": { "uv": [ 8.15, 13.1067, 7.849999, 11.5067 ], "texture": "#texture", "rotation": 270 },
				"west": { "uv": [ 7.849999, 10, 8.15, 16 ], "texture": "#texture", "rotation": 90 },
				"east": { "uv": [ 8.15, 6, 7.849999, 0 ], "texture": "#texture", "rotation": 270 }
			}
		},
		{
			"__comment": "Box7",
			"from": [ 7.8375, 20.052, -9.5 ],
			"to": [ 8.162499, 20.402, 6 ],
			"rotation": { "origin": [ 8, 19.6, -9.5 ], "axis": "z", "angle": 45 },
			"faces": {
				"down": { "uv": [ 16, 13.1067, 10, 11.5067 ], "texture": "#texture", "rotation": 270 },
				"up": { "uv": [ 0, 11.5067, 6, 13.1067 ], "texture": "#texture", "rotation": 90 },
				"north": { "uv": [ 8.150001, 13.1067, 7.85, 11.5067 ], "texture": "#texture", "rotation": 90 },
				"south": { "uv": [ 8.15, 13.1067, 7.849999, 11.5067 ], "texture": "#texture", "rotation": 270 },
				"west": { "uv": [ 7.849999, 10, 8.15, 16 ], "texture": "#texture", "rotation": 90 },
				"east": { "uv": [ 8.15, 6, 7.849999, 0 ], "texture": "#texture", "rotation": 270 }
			}
		},
		{
			"__comment": "Box7",
			"from": [ 8.452, 19.4375, -9.5 ],
			"to": [ 8.802, 19.7625, 6 ],
			"rotation": { "origin": [ 8, 19.6, -9.5 ], "axis": "z", "angle": -22.5 },
			"faces": {
				"down": { "uv": [ 16, 13.1067, 10, 11.5067 ], "texture": "#texture", "rotation": 270 },
				"up": { "uv": [ 0, 11.5067, 6, 13.1067 ], "texture": "#texture", "rotation": 90 },
				"north": { "uv": [ 8.150001, 13.1067, 7.85, 11.5067 ], "texture": "#texture", "rotation": 90 },
				"south": { "uv": [ 8.15, 13.1067, 7.849999, 11.5067 ], "texture": "#texture", "rotation": 270 },
				"west": { "uv": [ 7.849999, 10, 8.15, 16 ], "texture": "#texture", "rotation": 90 },
				"east": { "uv": [ 8.15, 6, 7.849999, 0 ], "texture": "#texture", "rotation": 270 }
			}
		},
		{
			"__comment": "Box7",
			"from": [ 8.452, 19.4375, -9.5 ],
			"to": [ 8.802, 19.7625, 6 ],
			"faces": {
				"down": { "uv": [ 16, 13.1067, 10, 11.5067 ], "texture": "#texture", "rotation": 270 },
				"up": { "uv": [ 0, 11.5067, 6, 13.1067 ], "texture": "#texture", "rotation": 90 },
				"north": { "uv": [ 8.150001, 13.1067, 7.85, 11.5067 ], "texture": "#texture", "rotation": 90 },
				"south": { "uv": [ 8.15, 13.1067, 7.849999, 11.5067 ], "texture": "#texture", "rotation": 270 },
				"west": { "uv": [ 7.849999, 10, 8.15, 16 ], "texture": "#texture", "rotation": 90 },
				"east": { "uv": [ 8.15, 6, 7.849999, 0 ], "texture": "#texture", "rotation": 270 }
			}
		},
		{
			"__comment": "Box7",
			"from": [ 8.452, 19.4375, -9.5 ],
			"to": [ 8.802, 19.7625, 6 ],
			"rotation": { "origin": [ 8, 19.6, -9.5 ], "axis": "z", "angle": 22.5 },
			"faces": {
				"down": { "uv": [ 16, 13.1067, 10, 11.5067 ], "texture": "#texture", "rotation": 270 },
				"up": { "uv": [ 0, 11.5067, 6, 13.1067 ], "texture": "#texture", "rotation": 90 },
				"north": { "uv": [ 8.150001, 13.1067, 7.85, 11.5067 ], "texture": "#texture", "rotation": 90 },
				"south": { "uv": [ 8.15, 13.1067, 7.849999, 11.5067 ], "texture": "#texture", "rotation": 270 },
				"west": { "uv": [ 7.849999, 10, 8.15, 16 ], "texture": "#texture", "rotation": 90 },
				"east": { "uv": [ 8.15, 6, 7.849999, 0 ], "texture": "#texture", "rotation": 270 }
			}
		},
		{
			"__comment": "Box7",
			"from": [ 7.8375, 18.798, -9.5 ],
			"to": [ 8.162499, 19.148, 6 ],
			"rotation": { "origin": [ 8, 19.6, -9.5 ], "axis": "z", "angle": -45 },
			"faces": {
				"down": { "uv": [ 16, 13.1067, 10, 11.5067 ], "texture": "#texture", "rotation": 270 },
				"up": { "uv": [ 0, 11.5067, 6, 13.1067 ], "texture": "#texture", "rotation": 90 },
				"north": { "uv": [ 8.150001, 13.1067, 7.85, 11.5067 ], "texture": "#texture", "rotation": 90 },
				"south": { "uv": [ 8.15, 13.1067, 7.849999, 11.5067 ], "texture": "#texture", "rotation": 270 },
				"west": { "uv": [ 7.849999, 10, 8.15, 16 ], "texture": "#texture", "rotation": 90 },
				"east": { "uv": [ 8.15, 6, 7.849999, 0 ], "texture": "#texture", "rotation": 270 }
			}
		},
		{
			"__comment": "Box7",
			"from": [ 7.8375, 18.798, -9.5 ],
			"to": [ 8.162499, 19.148, 6 ],
			"rotation": { "origin": [ 8, 19.6, -9.5 ], "axis": "z", "angle": -22.5 },
			"faces": {
				"down": { "uv": [ 16, 13.1067, 10, 11.5067 ], "texture": "#texture", "rotation": 270 },
				"up": { "uv": [ 0, 11.5067, 6, 13.1067 ], "texture": "#texture", "rotation": 90 },
				"north": { "uv": [ 8.150001, 13.1067, 7.85, 11.5067 ], "texture": "#texture", "rotation": 90 },
				"south": { "uv": [ 8.15, 13.1067, 7.849999, 11.5067 ], "texture": "#texture", "rotation": 270 },
				"west": { "uv": [ 7.849999, 10, 8.15, 16 ], "texture": "#texture", "rotation": 90 },
				"east": { "uv": [ 8.15, 6, 7.849999, 0 ], "texture": "#texture", "rotation": 270 }
			}
		},
		{
			"__comment": "Box36",
			"from": [ 7, 18.875, 20.375 ],
			"to": [ 9, 19.875, 23.75 ],
			"rotation": { "origin": [ 7, 18.875, 20.375 ], "axis": "x", "angle": 22.5 },
			"faces": {
				"down": { "uv": [ 7.5, 10.5, 8.5, 11.5 ], "texture": "#texture2" },
				"up": { "uv": [ 7.5, 4.5, 8.5, 5.5 ], "texture": "#texture2" },
				"north": { "uv": [ 7.5, 12.75, 8.5, 13.75 ], "texture": "#texture2" },
				"south": { "uv": [ 7.5, 12.75, 8.5, 13.75 ], "texture": "#texture2" },
				"west": { "uv": [ 4.5, 12.75, 5.5, 13.75 ], "texture": "#texture2" },
				"east": { "uv": [ 10.5, 12.75, 11.5, 13.75 ], "texture": "#texture2" }
			}
		},
		{
			"__comment": "Box36",
			"from": [ 7, 16.5, 20.375 ],
			"to": [ 9, 18.875, 22.75 ],
			"faces": {
				"down": { "uv": [ 7.5, 10.5, 8.5, 11.5 ], "texture": "#texture2" },
				"up": { "uv": [ 7.5, 4.5, 8.5, 5.5 ], "texture": "#texture2" },
				"north": { "uv": [ 7.5, 12.75, 8.5, 13.75 ], "texture": "#texture2" },
				"south": { "uv": [ 7.5, 12.75, 8.5, 13.75 ], "texture": "#texture2" },
				"west": { "uv": [ 4.5, 12.75, 5.5, 13.75 ], "texture": "#texture2" },
				"east": { "uv": [ 10.5, 12.75, 11.5, 13.75 ], "texture": "#texture2" }
			}
		},
		{
			"__comment": "Box36",
			"from": [ 7, 17.125, 21.75 ],
			"to": [ 9, 18.5, 23.875 ],
			"faces": {
				"down": { "uv": [ 7.5, 10.5, 8.5, 11.5 ], "texture": "#texture2" },
				"up": { "uv": [ 7.5, 4.5, 8.5, 5.5 ], "texture": "#texture2" },
				"north": { "uv": [ 7.5, 12.75, 8.5, 13.75 ], "texture": "#texture2" },
				"south": { "uv": [ 7.5, 12.75, 8.5, 13.75 ], "texture": "#texture2" },
				"west": { "uv": [ 4.5, 12.75, 5.5, 13.75 ], "texture": "#texture2" },
				"east": { "uv": [ 10.5, 12.75, 11.5, 13.75 ], "texture": "#texture2" }
			}
		},
		{
			"__comment": "Box36",
			"from": [ 7, 16.5, 19.75 ],
			"to": [ 9, 18.375, 20.751 ],
			"rotation": { "origin": [ 7, 16.5, 19.75 ], "axis": "x", "angle": 22.5 },
			"faces": {
				"down": { "uv": [ 7.5, 10.5, 8.5, 11.5 ], "texture": "#texture2" },
				"up": { "uv": [ 7.5, 4.5, 8.5, 5.5 ], "texture": "#texture2" },
				"north": { "uv": [ 7.5, 12.75, 8.5, 13.75 ], "texture": "#texture2" },
				"south": { "uv": [ 7.5, 12.75, 8.5, 13.75 ], "texture": "#texture2" },
				"west": { "uv": [ 4.5, 12.75, 5.5, 13.75 ], "texture": "#texture2" },
				"east": { "uv": [ 10.5, 12.75, 11.5, 13.75 ], "texture": "#texture2" }
			}
		},
		{
			"__comment": "Box36",
			"from": [ 7, 16.125, 19.75 ],
			"to": [ 9, 16.626, 23.25 ],
			"faces": {
				"down": { "uv": [ 7.5, 10.5, 8.5, 11.5 ], "texture": "#texture2" },
				"up": { "uv": [ 7.5, 4.5, 8.5, 5.5 ], "texture": "#texture2" },
				"north": { "uv": [ 7.5, 12.75, 8.5, 13.75 ], "texture": "#texture2" },
				"south": { "uv": [ 7.5, 12.75, 8.5, 13.75 ], "texture": "#texture2" },
				"west": { "uv": [ 4.5, 12.75, 5.5, 13.75 ], "texture": "#texture2" },
				"east": { "uv": [ 10.5, 12.75, 11.5, 13.75 ], "texture": "#texture2" }
			}
		},
		{
			"__comment": "Box6",
			"from": [ 7.125, 17.08, 23.94 ],
			"to": [ 8.875, 17.58, 24.44 ],
			"faces": {
				"down": { "uv": [ 7.25, 6.625, 8.75, 8.875 ], "texture": "#texture" },
				"up": { "uv": [ 7.25, 7.125, 8.75, 9.375 ], "texture": "#texture" },
				"north": { "uv": [ 7.25, 13.875, 8.75, 15.125 ], "texture": "#texture" },
				"south": { "uv": [ 7.25, 13.875, 8.75, 15.125 ], "texture": "#texture" },
				"west": { "uv": [ 7.125, 13.875, 9.375, 15.125 ], "texture": "#texture" },
				"east": { "uv": [ 6.625, 13.875, 8.875, 15.125 ], "texture": "#texture" }
			}
		},
		{
			"__comment": "Box36",
			"from": [ 7, 16.25, 23 ],
			"to": [ 9, 17.125, 24.25 ],
			"rotation": { "origin": [ 7, 16.25, 23 ], "axis": "x", "angle": -45 },
			"faces": {
				"down": { "uv": [ 7.5, 10.5, 8.5, 11.5 ], "texture": "#texture2" },
				"up": { "uv": [ 7.5, 4.5, 8.5, 5.5 ], "texture": "#texture2" },
				"north": { "uv": [ 7.5, 12.75, 8.5, 13.75 ], "texture": "#texture2" },
				"south": { "uv": [ 7.5, 12.75, 8.5, 13.75 ], "texture": "#texture2" },
				"west": { "uv": [ 4.5, 12.75, 5.5, 13.75 ], "texture": "#texture2" },
				"east": { "uv": [ 10.5, 12.75, 11.5, 13.75 ], "texture": "#texture2" }
			}
		},
		{
			"__comment": "Box6",
			"from": [ 7.125, 16.9965, 23.1215 ],
			"to": [ 8.875, 17.9965, 23.9965 ],
			"rotation": { "origin": [ 7.125, 17, 23.125 ], "axis": "x", "angle": 45 },
			"faces": {
				"down": { "uv": [ 7.25, 6.625, 8.75, 8.875 ], "texture": "#texture" },
				"up": { "uv": [ 7.25, 7.125, 8.75, 9.375 ], "texture": "#texture" },
				"north": { "uv": [ 7.25, 13.875, 8.75, 15.125 ], "texture": "#texture" },
				"south": { "uv": [ 7.25, 13.875, 8.75, 15.125 ], "texture": "#texture" },
				"west": { "uv": [ 7.125, 13.875, 9.375, 15.125 ], "texture": "#texture" },
				"east": { "uv": [ 6.625, 13.875, 8.875, 15.125 ], "texture": "#texture" }
			}
		},
		{
			"__comment": "Box6",
			"from": [ 7.125, 16.3729, 23.132 ],
			"to": [ 8.875, 16.8729, 23.757 ],
			"rotation": { "origin": [ 7.125, 16.375, 23.755 ], "axis": "x", "angle": -22.5 },
			"faces": {
				"down": { "uv": [ 8.75, 15.125, 7.25, 13.875 ], "texture": "#texture" },
				"up": { "uv": [ 7.25, 13.875, 8.75, 15.125 ], "texture": "#texture" },
				"north": { "uv": [ 8.75, 9.375, 7.25, 7.125 ], "texture": "#texture" },
				"south": { "uv": [ 7.25, 6.625, 8.75, 8.875 ], "texture": "#texture" },
				"west": { "uv": [ 7.125, 13.875, 9.375, 15.125 ], "texture": "#texture", "rotation": 270 },
				"east": { "uv": [ 6.625, 13.875, 8.875, 15.125 ], "texture": "#texture", "rotation": 90 }
			}
		},
		{
			"__comment": "Box4",
			"from": [ 7.125, 19.4212, 18.7309 ],
			"to": [ 8.875999, 20.2962, 21.2309 ],
			"rotation": { "origin": [ 7.125, 20.25, 18.75 ], "axis": "x", "angle": 22.5 },
			"faces": {
				"down": { "uv": [ 8.875, 15.125, 7.125, 12.25 ], "texture": "#texture" },
				"up": { "uv": [ 7.125, 12.25, 8.875, 15.125 ], "texture": "#texture" },
				"north": { "uv": [ 8.875, 4, 7.125, 1.875 ], "texture": "#texture" },
				"south": { "uv": [ 7.125, 12, 8.875, 14.125 ], "texture": "#texture" },
				"west": { "uv": [ 1.875, 12.25, 4, 15.125 ], "texture": "#texture", "rotation": 270 },
				"east": { "uv": [ 12, 12.25, 14.125, 15.125 ], "texture": "#texture", "rotation": 90 }
			}
		},
		{
			"__comment": "Box4",
			"from": [ 7.125, 19.625, 16.625 ],
			"to": [ 8.875, 20.315, 18.75 ],
			"faces": {
				"down": { "uv": [ 7.125, 1.875, 8.875, 4 ], "texture": "#texture" },
				"up": { "uv": [ 7.125, 12, 8.875, 14.125 ], "texture": "#texture" },
				"north": { "uv": [ 8.875, 15.125, 7.125, 12.25 ], "texture": "#texture" },
				"south": { "uv": [ 8.875, 15.125, 7.125, 12.25 ], "texture": "#texture" },
				"west": { "uv": [ 1.875, 12.25, 4, 15.125 ], "texture": "#texture", "rotation": 180 },
				"east": { "uv": [ 12, 12.25, 14.125, 15.125 ], "texture": "#texture", "rotation": 180 }
			}
		},
		{
			"__comment": "Box4",
			"from": [ 7.75, 20.375, 16.625 ],
			"to": [ 8.25, 21, 18.5 ],
			"rotation": { "origin": [ 7.75, 21, 16.625 ], "axis": "x", "angle": 22.5 },
			"faces": {
				"down": { "uv": [ 8.875, 15.125, 7.125, 12.25 ], "texture": "#texture" },
				"up": { "uv": [ 7.125, 12.25, 8.875, 15.125 ], "texture": "#texture" },
				"north": { "uv": [ 8.875, 4, 7.125, 1.875 ], "texture": "#texture" },
				"south": { "uv": [ 7.125, 12, 8.875, 14.125 ], "texture": "#texture" },
				"west": { "uv": [ 1.875, 12.25, 4, 15.125 ], "texture": "#texture", "rotation": 270 },
				"east": { "uv": [ 12, 12.25, 14.125, 15.125 ], "texture": "#texture", "rotation": 90 }
			}
		},
		{
			"__comment": "Box4",
			"from": [ 7.625, 20, 2.75 ],
			"to": [ 8.375, 20.75, 6 ],
			"faces": {
				"down": { "uv": [ 7.125, 1.875, 8.875, 4 ], "texture": "#texture" },
				"up": { "uv": [ 7.125, 12, 8.875, 14.125 ], "texture": "#texture" },
				"north": { "uv": [ 8.875, 15.125, 7.125, 12.25 ], "texture": "#texture" },
				"south": { "uv": [ 8.875, 15.125, 7.125, 12.25 ], "texture": "#texture" },
				"west": { "uv": [ 1.875, 12.25, 4, 15.125 ], "texture": "#texture", "rotation": 180 },
				"east": { "uv": [ 12, 12.25, 14.125, 15.125 ], "texture": "#texture", "rotation": 180 }
			}
		},
		{
			"__comment": "Box4",
			"from": [ 7.625, 20.124, 1.875 ],
			"to": [ 8.375, 20.75, 2.75 ],
			"rotation": { "origin": [ 7.625, 20.75, 2.75 ], "axis": "x", "angle": -22.5 },
			"faces": {
				"down": { "uv": [ 7.125, 12, 8.875, 14.125 ], "texture": "#texture" },
				"up": { "uv": [ 7.125, 1.875, 8.875, 4 ], "texture": "#texture" },
				"north": { "uv": [ 7.125, 12.25, 8.875, 15.125 ], "texture": "#texture" },
				"south": { "uv": [ 7.125, 12.25, 8.875, 15.125 ], "texture": "#texture" },
				"west": { "uv": [ 1.875, 12.25, 4, 15.125 ], "texture": "#texture" },
				"east": { "uv": [ 12, 12.25, 14.125, 15.125 ], "texture": "#texture" }
			}
		},
		{
			"__comment": "Box4",
			"from": [ 7.625, 19.875, 0 ],
			"to": [ 8.375, 20.625, 3.25 ],
			"faces": {
				"down": { "uv": [ 7.125, 12, 8.875, 14.125 ], "texture": "#texture" },
				"up": { "uv": [ 7.125, 1.875, 8.875, 4 ], "texture": "#texture" },
				"north": { "uv": [ 7.125, 12.25, 8.875, 15.125 ], "texture": "#texture" },
				"south": { "uv": [ 7.125, 12.25, 8.875, 15.125 ], "texture": "#texture" },
				"west": { "uv": [ 1.875, 12.25, 4, 15.125 ], "texture": "#texture" },
				"east": { "uv": [ 12, 12.25, 14.125, 15.125 ], "texture": "#texture" }
			}
		},
		{
			"__comment": "Box4",
			"from": [ 7.625, 19.75, -5 ],
			"to": [ 8.375, 20.5, 0 ],
			"faces": {
				"down": { "uv": [ 7.125, 12, 8.875, 14.125 ], "texture": "#texture" },
				"up": { "uv": [ 7.125, 1.875, 8.875, 4 ], "texture": "#texture" },
				"north": { "uv": [ 7.125, 12.25, 8.875, 15.125 ], "texture": "#texture" },
				"south": { "uv": [ 7.125, 12.25, 8.875, 15.125 ], "texture": "#texture" },
				"west": { "uv": [ 1.875, 12.25, 4, 15.125 ], "texture": "#texture" },
				"east": { "uv": [ 12, 12.25, 14.125, 15.125 ], "texture": "#texture" }
			}
		},
		{
			"__comment": "Box4",
			"from": [ 7.625, 19.8, -2.375 ],
			"to": [ 8.375, 20.55, 0.875 ],
			"faces": {
				"down": { "uv": [ 7.125, 12, 8.875, 14.125 ], "texture": "#texture" },
				"up": { "uv": [ 7.125, 1.875, 8.875, 4 ], "texture": "#texture" },
				"north": { "uv": [ 7.125, 12.25, 8.875, 15.125 ], "texture": "#texture" },
				"south": { "uv": [ 7.125, 12.25, 8.875, 15.125 ], "texture": "#texture" },
				"west": { "uv": [ 1.875, 12.25, 4, 15.125 ], "texture": "#texture" },
				"east": { "uv": [ 12, 12.25, 14.125, 15.125 ], "texture": "#texture" }
			}
		},
		{
			"__comment": "Box4",
			"from": [ 7.875, 20.25, -9.5 ],
			"to": [ 8.125, 21, -7.125 ],
			"faces": {
				"down": { "uv": [ 7.125, 12, 8.875, 14.125 ], "texture": "#texture" },
				"up": { "uv": [ 7.125, 1.875, 8.875, 4 ], "texture": "#texture" },
				"north": { "uv": [ 7.125, 12.25, 8.875, 15.125 ], "texture": "#texture" },
				"south": { "uv": [ 7.125, 12.25, 8.875, 15.125 ], "texture": "#texture" },
				"west": { "uv": [ 1.875, 12.25, 4, 15.125 ], "texture": "#texture" },
				"east": { "uv": [ 12, 12.25, 14.125, 15.125 ], "texture": "#texture" }
			}
		},
		{
			"__comment": "Box4",
			"from": [ 7.875, 20.75, -7.25 ],
			"to": [ 8.125, 21, 6 ],
			"faces": {
				"down": { "uv": [ 7.125, 12, 8.875, 14.125 ], "texture": "#texture" },
				"up": { "uv": [ 7.125, 1.875, 8.875, 4 ], "texture": "#texture" },
				"north": { "uv": [ 7.125, 12.25, 8.875, 15.125 ], "texture": "#texture" },
				"south": { "uv": [ 7.125, 12.25, 8.875, 15.125 ], "texture": "#texture" },
				"west": { "uv": [ 1.875, 12.25, 4, 15.125 ], "texture": "#texture" },
				"east": { "uv": [ 12, 12.25, 14.125, 15.125 ], "texture": "#texture" }
			}
		},
		{
			"__comment": "Box4",
			"from": [ 7.875, 20.375, -4.625 ],
			"to": [ 8.125, 20.75, -3.874 ],
			"faces": {
				"down": { "uv": [ 7.125, 12, 8.875, 14.125 ], "texture": "#texture" },
				"up": { "uv": [ 7.125, 1.875, 8.875, 4 ], "texture": "#texture" },
				"north": { "uv": [ 7.125, 12.25, 8.875, 15.125 ], "texture": "#texture" },
				"south": { "uv": [ 7.125, 12.25, 8.875, 15.125 ], "texture": "#texture" },
				"west": { "uv": [ 1.875, 12.25, 4, 15.125 ], "texture": "#texture" },
				"east": { "uv": [ 12, 12.25, 14.125, 15.125 ], "texture": "#texture" }
			}
		},
		{
			"__comment": "Box4",
			"from": [ 7.875, 20.5, -1.375 ],
			"to": [ 8.125, 20.75, -0.75 ],
			"faces": {
				"down": { "uv": [ 7.125, 12, 8.875, 14.125 ], "texture": "#texture" },
				"up": { "uv": [ 7.125, 1.875, 8.875, 4 ], "texture": "#texture" },
				"north": { "uv": [ 7.125, 12.25, 8.875, 15.125 ], "texture": "#texture" },
				"south": { "uv": [ 7.125, 12.25, 8.875, 15.125 ], "texture": "#texture" },
				"west": { "uv": [ 1.875, 12.25, 4, 15.125 ], "texture": "#texture" },
				"east": { "uv": [ 12, 12.25, 14.125, 15.125 ], "texture": "#texture" }
			}
		},
		{
			"__comment": "Box4",
			"from": [ 7.875, 20.375, 1.75 ],
			"to": [ 8.125, 20.75, 2.375 ],
			"faces": {
				"down": { "uv": [ 7.125, 12, 8.875, 14.125 ], "texture": "#texture" },
				"up": { "uv": [ 7.125, 1.875, 8.875, 4 ], "texture": "#texture" },
				"north": { "uv": [ 7.125, 12.25, 8.875, 15.125 ], "texture": "#texture" },
				"south": { "uv": [ 7.125, 12.25, 8.875, 15.125 ], "texture": "#texture" },
				"west": { "uv": [ 1.875, 12.25, 4, 15.125 ], "texture": "#texture" },
				"east": { "uv": [ 12, 12.25, 14.125, 15.125 ], "texture": "#texture" }
			}
		},
		{
			"__comment": "Box4",
			"from": [ 7.875, 20.5, -9.375 ],
			"to": [ 8.125, 21.25, -9.124 ],
			"faces": {
				"down": { "uv": [ 7.125, 12, 8.875, 14.125 ], "texture": "#texture" },
				"up": { "uv": [ 7.125, 1.875, 8.875, 4 ], "texture": "#texture" },
				"north": { "uv": [ 7.125, 12.25, 8.875, 15.125 ], "texture": "#texture" },
				"south": { "uv": [ 7.125, 12.25, 8.875, 15.125 ], "texture": "#texture" },
				"west": { "uv": [ 1.875, 12.25, 4, 15.125 ], "texture": "#texture" },
				"east": { "uv": [ 12, 12.25, 14.125, 15.125 ], "texture": "#texture" }
			}
		},
		{
			"__comment": "Box7",
			"from": [ 7.8375, 16.448, -9.625 ],
			"to": [ 8.162499, 16.798, 5.875 ],
			"rotation": { "origin": [ 8, 17.25, -9.625 ], "axis": "z", "angle": -22.5 },
			"faces": {
				"down": { "uv": [ 7.849999, 0, 8.15, 6 ], "texture": "#texture", "rotation": 180 },
				"up": { "uv": [ 7.849999, 10, 8.15, 16 ], "texture": "#texture", "rotation": 180 },
				"north": { "uv": [ 8.150001, 13.1067, 7.85, 11.5067 ], "texture": "#texture" },
				"south": { "uv": [ 8.15, 13.1067, 7.849999, 11.5067 ], "texture": "#texture" },
				"west": { "uv": [ 10, 11.5067, 16, 13.1067 ], "texture": "#texture", "rotation": 180 },
				"east": { "uv": [ 0, 11.5067, 6, 13.1067 ], "texture": "#texture", "rotation": 180 }
			}
		},
		{
			"__comment": "Box7",
			"from": [ 7.8375, 17.702, -9.625 ],
			"to": [ 8.162499, 18.052, 5.875 ],
			"faces": {
				"down": { "uv": [ 7.849999, 10, 8.15, 16 ], "texture": "#texture" },
				"up": { "uv": [ 7.849999, 0, 8.15, 6 ], "texture": "#texture" },
				"north": { "uv": [ 7.85, 11.5067, 8.150001, 13.1067 ], "texture": "#texture" },
				"south": { "uv": [ 7.849999, 11.5067, 8.15, 13.1067 ], "texture": "#texture" },
				"west": { "uv": [ 0, 11.5067, 6, 13.1067 ], "texture": "#texture" },
				"east": { "uv": [ 10, 11.5067, 16, 13.1067 ], "texture": "#texture" }
			}
		},
		{
			"__comment": "Box7",
			"from": [ 7.8375, 17.702, -9.625 ],
			"to": [ 8.162499, 18.052, 5.875 ],
			"rotation": { "origin": [ 8, 17.25, -9.625 ], "axis": "z", "angle": -22.5 },
			"faces": {
				"down": { "uv": [ 7.849999, 10, 8.15, 16 ], "texture": "#texture" },
				"up": { "uv": [ 7.849999, 0, 8.15, 6 ], "texture": "#texture" },
				"north": { "uv": [ 7.85, 11.5067, 8.150001, 13.1067 ], "texture": "#texture" },
				"south": { "uv": [ 7.849999, 11.5067, 8.15, 13.1067 ], "texture": "#texture" },
				"west": { "uv": [ 0, 11.5067, 6, 13.1067 ], "texture": "#texture" },
				"east": { "uv": [ 10, 11.5067, 16, 13.1067 ], "texture": "#texture" }
			}
		},
		{
			"__comment": "Box7",
			"from": [ 7.8375, 17.702, -9.625 ],
			"to": [ 8.162499, 18.052, 5.875 ],
			"rotation": { "origin": [ 8, 17.25, -9.625 ], "axis": "z", "angle": -45 },
			"faces": {
				"down": { "uv": [ 7.849999, 10, 8.15, 16 ], "texture": "#texture" },
				"up": { "uv": [ 7.849999, 0, 8.15, 6 ], "texture": "#texture" },
				"north": { "uv": [ 7.85, 11.5067, 8.150001, 13.1067 ], "texture": "#texture" },
				"south": { "uv": [ 7.849999, 11.5067, 8.15, 13.1067 ], "texture": "#texture" },
				"west": { "uv": [ 0, 11.5067, 6, 13.1067 ], "texture": "#texture" },
				"east": { "uv": [ 10, 11.5067, 16, 13.1067 ], "texture": "#texture" }
			}
		},
		{
			"__comment": "Box7",
			"from": [ 7.198, 17.0875, -9.625 ],
			"to": [ 7.548, 17.4125, 5.875 ],
			"rotation": { "origin": [ 8, 17.25, -9.625 ], "axis": "z", "angle": 22.5 },
			"faces": {
				"down": { "uv": [ 6, 13.1067, 0, 11.5067 ], "texture": "#texture", "rotation": 90 },
				"up": { "uv": [ 10, 11.5067, 16, 13.1067 ], "texture": "#texture", "rotation": 270 },
				"north": { "uv": [ 7.85, 11.5067, 8.150001, 13.1067 ], "texture": "#texture", "rotation": 90 },
				"south": { "uv": [ 7.849999, 11.5067, 8.15, 13.1067 ], "texture": "#texture", "rotation": 270 },
				"west": { "uv": [ 7.849999, 0, 8.15, 6 ], "texture": "#texture", "rotation": 270 },
				"east": { "uv": [ 8.15, 16, 7.849999, 10 ], "texture": "#texture", "rotation": 90 }
			}
		},
		{
			"__comment": "Box7",
			"from": [ 7.198, 17.0875, -9.625 ],
			"to": [ 7.548, 17.4125, 5.875 ],
			"faces": {
				"down": { "uv": [ 6, 13.1067, 0, 11.5067 ], "texture": "#texture", "rotation": 90 },
				"up": { "uv": [ 10, 11.5067, 16, 13.1067 ], "texture": "#texture", "rotation": 270 },
				"north": { "uv": [ 7.85, 11.5067, 8.150001, 13.1067 ], "texture": "#texture", "rotation": 90 },
				"south": { "uv": [ 7.849999, 11.5067, 8.15, 13.1067 ], "texture": "#texture", "rotation": 270 },
				"west": { "uv": [ 7.849999, 0, 8.15, 6 ], "texture": "#texture", "rotation": 270 },
				"east": { "uv": [ 8.15, 16, 7.849999, 10 ], "texture": "#texture", "rotation": 90 }
			}
		},
		{
			"__comment": "Box7",
			"from": [ 7.198, 17.0875, -9.625 ],
			"to": [ 7.548, 17.4125, 5.875 ],
			"rotation": { "origin": [ 8, 17.25, -9.625 ], "axis": "z", "angle": -22.5 },
			"faces": {
				"down": { "uv": [ 6, 13.1067, 0, 11.5067 ], "texture": "#texture", "rotation": 90 },
				"up": { "uv": [ 10, 11.5067, 16, 13.1067 ], "texture": "#texture", "rotation": 270 },
				"north": { "uv": [ 7.85, 11.5067, 8.150001, 13.1067 ], "texture": "#texture", "rotation": 90 },
				"south": { "uv": [ 7.849999, 11.5067, 8.15, 13.1067 ], "texture": "#texture", "rotation": 270 },
				"west": { "uv": [ 7.849999, 0, 8.15, 6 ], "texture": "#texture", "rotation": 270 },
				"east": { "uv": [ 8.15, 16, 7.849999, 10 ], "texture": "#texture", "rotation": 90 }
			}
		},
		{
			"__comment": "Box7",
			"from": [ 8.452, 17.0875, -9.625 ],
			"to": [ 8.802, 17.4125, 5.875 ],
			"rotation": { "origin": [ 8, 17.25, -9.625 ], "axis": "z", "angle": -45 },
			"faces": {
				"down": { "uv": [ 10, 11.5067, 16, 13.1067 ], "texture": "#texture", "rotation": 90 },
				"up": { "uv": [ 6, 13.1067, 0, 11.5067 ], "texture": "#texture", "rotation": 270 },
				"north": { "uv": [ 8.150001, 13.1067, 7.85, 11.5067 ], "texture": "#texture", "rotation": 90 },
				"south": { "uv": [ 8.15, 13.1067, 7.849999, 11.5067 ], "texture": "#texture", "rotation": 270 },
				"west": { "uv": [ 8.15, 16, 7.849999, 10 ], "texture": "#texture", "rotation": 270 },
				"east": { "uv": [ 7.849999, 0, 8.15, 6 ], "texture": "#texture", "rotation": 90 }
			}
		},
		{
			"__comment": "Box7",
			"from": [ 7.8375, 16.448, -9.625 ],
			"to": [ 8.162499, 16.798, 5.875 ],
			"rotation": { "origin": [ 8, 17.25, -9.625 ], "axis": "z", "angle": 22.5 },
			"faces": {
				"down": { "uv": [ 7.849999, 0, 8.15, 6 ], "texture": "#texture", "rotation": 180 },
				"up": { "uv": [ 7.849999, 10, 8.15, 16 ], "texture": "#texture", "rotation": 180 },
				"north": { "uv": [ 8.150001, 13.1067, 7.85, 11.5067 ], "texture": "#texture" },
				"south": { "uv": [ 8.15, 13.1067, 7.849999, 11.5067 ], "texture": "#texture" },
				"west": { "uv": [ 10, 11.5067, 16, 13.1067 ], "texture": "#texture", "rotation": 180 },
				"east": { "uv": [ 0, 11.5067, 6, 13.1067 ], "texture": "#texture", "rotation": 180 }
			}
		},
		{
			"__comment": "Box7",
			"from": [ 7.8375, 16.448, -9.625 ],
			"to": [ 8.162499, 16.798, 5.875 ],
			"faces": {
				"down": { "uv": [ 7.849999, 0, 8.15, 6 ], "texture": "#texture", "rotation": 180 },
				"up": { "uv": [ 7.849999, 10, 8.15, 16 ], "texture": "#texture", "rotation": 180 },
				"north": { "uv": [ 8.150001, 13.1067, 7.85, 11.5067 ], "texture": "#texture" },
				"south": { "uv": [ 8.15, 13.1067, 7.849999, 11.5067 ], "texture": "#texture" },
				"west": { "uv": [ 10, 11.5067, 16, 13.1067 ], "texture": "#texture", "rotation": 180 },
				"east": { "uv": [ 0, 11.5067, 6, 13.1067 ], "texture": "#texture", "rotation": 180 }
			}
		},
		{
			"__comment": "Box7",
			"from": [ 7.8375, 17.702, -9.625 ],
			"to": [ 8.162499, 18.052, 5.875 ],
			"rotation": { "origin": [ 8, 17.25, -9.625 ], "axis": "z", "angle": 22.5 },
			"faces": {
				"down": { "uv": [ 7.849999, 10, 8.15, 16 ], "texture": "#texture" },
				"up": { "uv": [ 7.849999, 0, 8.15, 6 ], "texture": "#texture" },
				"north": { "uv": [ 7.85, 11.5067, 8.150001, 13.1067 ], "texture": "#texture" },
				"south": { "uv": [ 7.849999, 11.5067, 8.15, 13.1067 ], "texture": "#texture" },
				"west": { "uv": [ 0, 11.5067, 6, 13.1067 ], "texture": "#texture" },
				"east": { "uv": [ 10, 11.5067, 16, 13.1067 ], "texture": "#texture" }
			}
		},
		{
			"__comment": "Box7",
			"from": [ 7.8375, 17.702, -9.625 ],
			"to": [ 8.162499, 18.052, 5.875 ],
			"rotation": { "origin": [ 8, 17.25, -9.625 ], "axis": "z", "angle": 45 },
			"faces": {
				"down": { "uv": [ 7.849999, 10, 8.15, 16 ], "texture": "#texture" },
				"up": { "uv": [ 7.849999, 0, 8.15, 6 ], "texture": "#texture" },
				"north": { "uv": [ 7.85, 11.5067, 8.150001, 13.1067 ], "texture": "#texture" },
				"south": { "uv": [ 7.849999, 11.5067, 8.15, 13.1067 ], "texture": "#texture" },
				"west": { "uv": [ 0, 11.5067, 6, 13.1067 ], "texture": "#texture" },
				"east": { "uv": [ 10, 11.5067, 16, 13.1067 ], "texture": "#texture" }
			}
		},
		{
			"__comment": "Box7",
			"from": [ 8.452, 17.0875, -9.625 ],
			"to": [ 8.802, 17.4125, 5.875 ],
			"rotation": { "origin": [ 8, 17.25, -9.625 ], "axis": "z", "angle": -22.5 },
			"faces": {
				"down": { "uv": [ 10, 11.5067, 16, 13.1067 ], "texture": "#texture", "rotation": 90 },
				"up": { "uv": [ 6, 13.1067, 0, 11.5067 ], "texture": "#texture", "rotation": 270 },
				"north": { "uv": [ 7.85, 11.5067, 8.150001, 13.1067 ], "texture": "#texture", "rotation": 270 },
				"south": { "uv": [ 7.849999, 11.5067, 8.15, 13.1067 ], "texture": "#texture", "rotation": 90 },
				"west": { "uv": [ 7.849999, 10, 8.15, 16 ], "texture": "#texture", "rotation": 90 },
				"east": { "uv": [ 8.15, 6, 7.849999, 0 ], "texture": "#texture", "rotation": 270 }
			}
		},
		{
			"__comment": "Box7",
			"from": [ 8.452, 17.0875, -9.625 ],
			"to": [ 8.802, 17.4125, 5.875 ],
			"faces": {
				"down": { "uv": [ 10, 11.5067, 16, 13.1067 ], "texture": "#texture", "rotation": 90 },
				"up": { "uv": [ 6, 13.1067, 0, 11.5067 ], "texture": "#texture", "rotation": 270 },
				"north": { "uv": [ 7.85, 11.5067, 8.150001, 13.1067 ], "texture": "#texture", "rotation": 270 },
				"south": { "uv": [ 7.849999, 11.5067, 8.15, 13.1067 ], "texture": "#texture", "rotation": 90 },
				"west": { "uv": [ 7.849999, 10, 8.15, 16 ], "texture": "#texture", "rotation": 90 },
				"east": { "uv": [ 8.15, 6, 7.849999, 0 ], "texture": "#texture", "rotation": 270 }
			}
		},
		{
			"__comment": "Box7",
			"from": [ 8.452, 17.0875, -9.625 ],
			"to": [ 8.802, 17.4125, 5.875 ],
			"rotation": { "origin": [ 8, 17.25, -9.625 ], "axis": "z", "angle": 22.5 },
			"faces": {
				"down": { "uv": [ 10, 11.5067, 16, 13.1067 ], "texture": "#texture", "rotation": 90 },
				"up": { "uv": [ 6, 13.1067, 0, 11.5067 ], "texture": "#texture", "rotation": 270 },
				"north": { "uv": [ 7.85, 11.5067, 8.150001, 13.1067 ], "texture": "#texture", "rotation": 270 },
				"south": { "uv": [ 7.849999, 11.5067, 8.15, 13.1067 ], "texture": "#texture", "rotation": 90 },
				"west": { "uv": [ 7.849999, 10, 8.15, 16 ], "texture": "#texture", "rotation": 90 },
				"east": { "uv": [ 8.15, 6, 7.849999, 0 ], "texture": "#texture", "rotation": 270 }
			}
		},
		{
			"__comment": "Box7",
			"from": [ 7.8375, 16.448, -9.625 ],
			"to": [ 8.162499, 16.798, 5.875 ],
			"rotation": { "origin": [ 8, 17.25, -9.625 ], "axis": "z", "angle": -45 },
			"faces": {
				"down": { "uv": [ 7.849999, 0, 8.15, 6 ], "texture": "#texture", "rotation": 180 },
				"up": { "uv": [ 7.849999, 10, 8.15, 16 ], "texture": "#texture", "rotation": 180 },
				"north": { "uv": [ 8.150001, 13.1067, 7.85, 11.5067 ], "texture": "#texture" },
				"south": { "uv": [ 8.15, 13.1067, 7.849999, 11.5067 ], "texture": "#texture" },
				"west": { "uv": [ 10, 11.5067, 16, 13.1067 ], "texture": "#texture", "rotation": 180 },
				"east": { "uv": [ 0, 11.5067, 6, 13.1067 ], "texture": "#texture", "rotation": 180 }
			}
		},
		{
			"__comment": "Box78",
			"from": [ 7.375, 16.375, 12.5 ],
			"to": [ 8.625, 17, 19.875 ],
			"faces": {
				"down": { "uv": [ 7.375, 0, 8.625, 3.5 ], "texture": "#texture" },
				"up": { "uv": [ 7.375, 12.5, 8.625, 16 ], "texture": "#texture" },
				"north": { "uv": [ 7.375, 15, 8.625, 15.625 ], "texture": "#texture" },
				"south": { "uv": [ 7.375, 15, 8.625, 15.625 ], "texture": "#texture" },
				"west": { "uv": [ 12.5, 15, 16, 15.625 ], "texture": "#texture" },
				"east": { "uv": [ 0, 15, 3.5, 15.625 ], "texture": "#texture" }
			}
		},
		{
			"__comment": "Box79",
			"from": [ 7.125, 16.25, 5.875 ],
			"to": [ 8.875, 17.25, 6.875 ],
			"faces": {
				"down": { "uv": [ 7.125, 9.125, 8.875, 10.125 ], "texture": "#texture" },
				"up": { "uv": [ 7.125, 5.875, 8.875, 6.875 ], "texture": "#texture" },
				"north": { "uv": [ 7.125, 14.75, 8.875, 15.75 ], "texture": "#texture" },
				"south": { "uv": [ 7.125, 14.75, 8.875, 15.75 ], "texture": "#texture" },
				"west": { "uv": [ 5.875, 14.75, 6.875, 15.75 ], "texture": "#texture" },
				"east": { "uv": [ 9.125, 14.75, 10.125, 15.75 ], "texture": "#texture" }
			}
		},
		{
			"__comment": "Box80",
			"from": [ 7.125, 20.375, 5.875 ],
			"to": [ 7.5, 21.25, 16.625 ],
			"rotation": { "origin": [ 7.125, 20.375, 5.875 ], "axis": "z", "angle": -45 },
			"faces": {
				"down": { "uv": [ 7.125, 0.5, 8.125, 10.125 ], "texture": "#texture" },
				"up": { "uv": [ 7.125, 5.875, 8.125, 15.5 ], "texture": "#texture" },
				"north": { "uv": [ 7.875, 11, 8.875, 12 ], "texture": "#texture" },
				"south": { "uv": [ 7.125, 11, 8.125, 12 ], "texture": "#texture" },
				"west": { "uv": [ 5.875, 11, 15.5, 12 ], "texture": "#texture" },
				"east": { "uv": [ 0.5, 11, 10.125, 12 ], "texture": "#texture" }
			}
		},
		{
			"__comment": "Box80",
			"from": [ 8, 20, 5.875 ],
			"to": [ 8.875, 20.375, 16.625 ],
			"rotation": { "origin": [ 8.875, 20.375, 5.875 ], "axis": "z", "angle": -45 },
			"faces": {
				"down": { "uv": [ 7.125, 5.875, 8.125, 15.5 ], "texture": "#texture", "rotation": 180 },
				"up": { "uv": [ 7.125, 0.5, 8.125, 10.125 ], "texture": "#texture", "rotation": 180 },
				"north": { "uv": [ 8.875, 12, 7.875, 11 ], "texture": "#texture" },
				"south": { "uv": [ 8.125, 12, 7.125, 11 ], "texture": "#texture" },
				"west": { "uv": [ 0.5, 11, 10.125, 12 ], "texture": "#texture", "rotation": 180 },
				"east": { "uv": [ 5.875, 11, 15.5, 12 ], "texture": "#texture", "rotation": 180 }
			}
		},
		{
			"__comment": "Box80",
			"from": [ 7.75, 20.375, 5.875 ],
			"to": [ 8.25, 21, 16.625 ],
			"faces": {
				"down": { "uv": [ 7.125, 5.875, 8.125, 15.5 ], "texture": "#texture", "rotation": 180 },
				"up": { "uv": [ 7.125, 0.5, 8.125, 10.125 ], "texture": "#texture", "rotation": 180 },
				"north": { "uv": [ 8.875, 12, 7.875, 11 ], "texture": "#texture" },
				"south": { "uv": [ 8.125, 12, 7.125, 11 ], "texture": "#texture" },
				"west": { "uv": [ 0.5, 11, 10.125, 12 ], "texture": "#texture", "rotation": 180 },
				"east": { "uv": [ 5.875, 11, 15.5, 12 ], "texture": "#texture", "rotation": 180 }
			}
		},
		{
			"__comment": "Box4",
			"from": [ 7.125, 18.9473, 20.0219 ],
			"to": [ 8.876, 19.6973, 20.7719 ],
			"rotation": { "origin": [ 7.125, 19.75, 20 ], "axis": "x", "angle": 22.5 },
			"faces": {
				"down": { "uv": [ 7.125, 12, 8.875, 14.125 ], "texture": "#texture" },
				"up": { "uv": [ 7.125, 1.875, 8.875, 4 ], "texture": "#texture" },
				"north": { "uv": [ 7.125, 12.25, 8.875, 15.125 ], "texture": "#texture" },
				"south": { "uv": [ 7.125, 12.25, 8.875, 15.125 ], "texture": "#texture" },
				"west": { "uv": [ 1.875, 12.25, 4, 15.125 ], "texture": "#texture" },
				"east": { "uv": [ 12, 12.25, 14.125, 15.125 ], "texture": "#texture" }
			}
		},
		{
			"__comment": "Box75",
			"from": [ 7.375, 18.875, 18.75 ],
			"to": [ 8.625, 19.875, 19.75 ],
			"faces": {
				"down": { "uv": [ 7.375, 12.25, 8.625, 13.25 ], "texture": "#texture" },
				"up": { "uv": [ 7.375, 2.75, 8.625, 3.75 ], "texture": "#texture" },
				"north": { "uv": [ 7.375, 12.125, 8.625, 13.125 ], "texture": "#texture" },
				"south": { "uv": [ 7.375, 12.125, 8.625, 13.125 ], "texture": "#texture" },
				"west": { "uv": [ 2.75, 12.125, 3.75, 13.125 ], "texture": "#texture" },
				"east": { "uv": [ 12.25, 12.125, 13.25, 13.125 ], "texture": "#texture" }
			}
		},
		{
			"__comment": "Box4",
			"from": [ 7.25, 19.75, 16.625 ],
			"to": [ 8.75, 20.44, 17.875 ],
			"faces": {
				"down": { "uv": [ 7.125, 1.875, 8.875, 4 ], "texture": "#texture" },
				"up": { "uv": [ 7.125, 12, 8.875, 14.125 ], "texture": "#texture" },
				"north": { "uv": [ 8.875, 15.125, 7.125, 12.25 ], "texture": "#texture" },
				"south": { "uv": [ 8.875, 15.125, 7.125, 12.25 ], "texture": "#texture" },
				"west": { "uv": [ 1.875, 12.25, 4, 15.125 ], "texture": "#texture", "rotation": 180 },
				"east": { "uv": [ 12, 12.25, 14.125, 15.125 ], "texture": "#texture", "rotation": 180 }
			}
		},
		{
			"__comment": "Box80",
			"from": [ 7.375, 20.125, 16.625 ],
			"to": [ 7.75, 20.625, 17.25 ],
			"rotation": { "origin": [ 7.75, 20.125, 16.625 ], "axis": "z", "angle": -45 },
			"faces": {
				"down": { "uv": [ 15.5, 12, 5.875, 11 ], "texture": "#texture", "rotation": 90 },
				"up": { "uv": [ 0.5, 11, 10.125, 12 ], "texture": "#texture", "rotation": 270 },
				"north": { "uv": [ 7.875, 11, 8.875, 12 ], "texture": "#texture", "rotation": 90 },
				"south": { "uv": [ 7.125, 11, 8.125, 12 ], "texture": "#texture", "rotation": 270 },
				"west": { "uv": [ 7.125, 5.875, 8.125, 15.5 ], "texture": "#texture", "rotation": 270 },
				"east": { "uv": [ 8.125, 10.125, 7.125, 0.5 ], "texture": "#texture", "rotation": 90 }
			}
		},
		{
			"__comment": "Box80",
			"from": [ 7.75, 20.25, 16.625 ],
			"to": [ 8.25, 20.75, 17.25 ],
			"rotation": { "origin": [ 8.25, 20.75, 16.625 ], "axis": "z", "angle": 45 },
			"faces": {
				"down": { "uv": [ 7.125, 5.875, 8.125, 15.5 ], "texture": "#texture", "rotation": 180 },
				"up": { "uv": [ 7.125, 0.5, 8.125, 10.125 ], "texture": "#texture", "rotation": 180 },
				"north": { "uv": [ 8.875, 12, 7.875, 11 ], "texture": "#texture" },
				"south": { "uv": [ 8.125, 12, 7.125, 11 ], "texture": "#texture" },
				"west": { "uv": [ 0.5, 11, 10.125, 12 ], "texture": "#texture", "rotation": 180 },
				"east": { "uv": [ 5.875, 11, 15.5, 12 ], "texture": "#texture", "rotation": 180 }
			}
		},
		{
			"__comment": "Box80",
			"from": [ 7.25, 14, 19.875 ],
			"to": [ 8.75, 16.125, 22.375 ],
			"faces": {
				"down": { "uv": [ 7.25, 9.625, 8.75, 12.125 ], "texture": "#texture" },
				"up": { "uv": [ 7.25, 3.875, 8.75, 6.375 ], "texture": "#texture" },
				"north": { "uv": [ 7.25, 0, 8.75, 2 ], "texture": "#texture" },
				"south": { "uv": [ 7.25, 0, 8.75, 2 ], "texture": "#texture" },
				"west": { "uv": [ 3.875, 0, 6.375, 2 ], "texture": "#texture" },
				"east": { "uv": [ 9.625, 0, 12.125, 2 ], "texture": "#texture" }
			}
		},
		{
			"__comment": "Box81",
			"from": [ 7.25, 12.375, 20.5 ],
			"to": [ 8.75, 13.875, 21.875 ],
			"rotation": { "origin": [ 7.25, 12.375, 20.5 ], "axis": "x", "angle": 22.5 },
			"faces": {
				"down": { "uv": [ 7.5, 10.75, 8.5, 11.75 ], "texture": "#texture" },
				"up": { "uv": [ 7.5, 4.25, 8.5, 5.25 ], "texture": "#texture" },
				"north": { "uv": [ 7.5, 1, 8.5, 2 ], "texture": "#texture" },
				"south": { "uv": [ 7.5, 1, 8.5, 2 ], "texture": "#texture" },
				"west": { "uv": [ 4.25, 1, 5.25, 2 ], "texture": "#texture" },
				"east": { "uv": [ 10.75, 1, 11.75, 2 ], "texture": "#texture" }
			}
		},
		{
			"__comment": "Box82",
			"from": [ 7.125, 9, 22.25 ],
			"to": [ 8.875, 9.875, 25.875 ],
			"rotation": { "origin": [ 7.125, 9, 22.25 ], "axis": "x", "angle": -22.5 },
			"faces": {
				"down": { "uv": [ 7.5, 7.875, 8.5, 8.875 ], "texture": "#texture" },
				"up": { "uv": [ 7.5, 7.125, 8.5, 8.125 ], "texture": "#texture" },
				"north": { "uv": [ 7.5, 5.625, 8.5, 6.625 ], "texture": "#texture" },
				"south": { "uv": [ 7.5, 5.625, 8.5, 6.625 ], "texture": "#texture" },
				"west": { "uv": [ 7.125, 5.625, 8.125, 6.625 ], "texture": "#texture" },
				"east": { "uv": [ 7.875, 5.625, 8.875, 6.625 ], "texture": "#texture" }
			}
		},
		{
			"__comment": "Box83",
			"from": [ 7.25, 9.5, 22.5 ],
			"to": [ 8.75, 15.25, 24.625 ],
			"rotation": { "origin": [ 7.25, 9.5, 22.5 ], "axis": "x", "angle": -22.5 },
			"faces": {
				"down": { "uv": [ 7.5, 8.875, 8.5, 9.875 ], "texture": "#texture" },
				"up": { "uv": [ 7.5, 6.125, 8.5, 7.125 ], "texture": "#texture" },
				"north": { "uv": [ 7.5, 0.25, 8.5, 5.5 ], "texture": "#texture" },
				"south": { "uv": [ 7.5, 0.25, 8.5, 5.5 ], "texture": "#texture" },
				"west": { "uv": [ 6.125, 0.25, 7.125, 5.5 ], "texture": "#texture" },
				"east": { "uv": [ 8.875, 0.25, 9.875, 5.5 ], "texture": "#texture" }
			}
		},
		{
			"__comment": "Box84",
			"from": [ 7.25, 12.125, 20.25 ],
			"to": [ 8.75, 14, 21.375 ],
			"rotation": { "origin": [ 7.25, 14, 20.25 ], "axis": "x", "angle": -22.5 },
			"faces": {
				"down": { "uv": [ 7.5, 1, 8.5, 2 ], "texture": "#texture" },
				"up": { "uv": [ 8.5, 2, 7.5, 1 ], "texture": "#texture" },
				"north": { "uv": [ 8.5, 11.75, 7.5, 10.75 ], "texture": "#texture" },
				"south": { "uv": [ 7.5, 4.25, 8.5, 5.25 ], "texture": "#texture" },
				"west": { "uv": [ 4.25, 1, 5.25, 2 ], "texture": "#texture", "rotation": 90 },
				"east": { "uv": [ 10.75, 1, 11.75, 2 ], "texture": "#texture", "rotation": 270 }
			}
		},
		{
			"__comment": "Box77",
			"from": [ 7.25, 11.875, 23.25 ],
			"to": [ 8.75, 12.875, 26 ],
			"rotation": { "origin": [ 7.25, 12.875, 23.25 ], "axis": "x", "angle": 45 },
			"faces": {
				"down": { "uv": [ 7.5, 1.875, 8.5, 2.875 ], "texture": "#texture" },
				"up": { "uv": [ 8.5, 2.875, 7.5, 1.875 ], "texture": "#texture" },
				"north": { "uv": [ 8.5, 9, 7.5, 8 ], "texture": "#texture" },
				"south": { "uv": [ 7.5, 7, 8.5, 8 ], "texture": "#texture" },
				"west": { "uv": [ 7, 1.875, 8, 2.875 ], "texture": "#texture", "rotation": 90 },
				"east": { "uv": [ 8, 1.875, 9, 2.875 ], "texture": "#texture", "rotation": 270 }
			}
		},
		{
			"__comment": "Box78",
			"from": [ 7.25, 14, 21.75 ],
			"to": [ 8.75, 15, 22.75 ],
			"rotation": { "origin": [ 7.25, 14, 21.75 ], "axis": "x", "angle": 45 },
			"faces": {
				"down": { "uv": [ 7.5, 9.125, 8.5, 10.125 ], "texture": "#texture" },
				"up": { "uv": [ 7.5, 5.875, 8.5, 6.875 ], "texture": "#texture" },
				"north": { "uv": [ 7.5, 1.375, 8.5, 2.375 ], "texture": "#texture" },
				"south": { "uv": [ 7.5, 1.375, 8.5, 2.375 ], "texture": "#texture" },
				"west": { "uv": [ 5.875, 1.375, 6.875, 2.375 ], "texture": "#texture" },
				"east": { "uv": [ 9.125, 1.375, 10.125, 2.375 ], "texture": "#texture" }
			}
		},
		{
			"__comment": "Box79",
			"from": [ 7.25, 11.75, 22.125 ],
			"to": [ 8.75, 14, 23.125 ],
			"rotation": { "origin": [ 7.25, 14, 23.125 ], "axis": "x", "angle": -22.5 },
			"faces": {
				"down": { "uv": [ 7.5, 7.25, 8.5, 8.25 ], "texture": "#texture" },
				"up": { "uv": [ 7.5, 7.75, 8.5, 8.75 ], "texture": "#texture" },
				"north": { "uv": [ 8.5, 2, 7.5, 1 ], "texture": "#texture" },
				"south": { "uv": [ 8.5, 2, 7.5, 1 ], "texture": "#texture" },
				"west": { "uv": [ 7.25, 1, 8.25, 2 ], "texture": "#texture", "rotation": 180 },
				"east": { "uv": [ 7.75, 1, 8.75, 2 ], "texture": "#texture", "rotation": 180 }
			}
		},
		{
			"__comment": "Box80",
			"from": [ 7.25, 11, 23.25 ],
			"to": [ 8.75, 12.5, 24.25 ],
			"rotation": { "origin": [ 7.25, 12.5, 24.25 ], "axis": "x", "angle": -22.5 },
			"faces": {
				"down": { "uv": [ 7.5, 6.625, 8.5, 7.625 ], "texture": "#texture" },
				"up": { "uv": [ 7.5, 8.375, 8.5, 9.375 ], "texture": "#texture" },
				"north": { "uv": [ 8.5, 3.125, 7.5, 2.125 ], "texture": "#texture" },
				"south": { "uv": [ 8.5, 3.125, 7.5, 2.125 ], "texture": "#texture" },
				"west": { "uv": [ 6.625, 2.125, 7.625, 3.125 ], "texture": "#texture", "rotation": 180 },
				"east": { "uv": [ 8.375, 2.125, 9.375, 3.125 ], "texture": "#texture", "rotation": 180 }
			}
		},
		{
			"__comment": "Box81",
			"from": [ 7.25, 11.875, 22.875 ],
			"to": [ 8.75, 12.5, 24.25 ],
			"rotation": { "origin": [ 7.25, 12.5, 24.25 ], "axis": "x", "angle": 45 },
			"faces": {
				"down": { "uv": [ 7.5, 6.75, 8.5, 7.75 ], "texture": "#texture" },
				"up": { "uv": [ 7.5, 8.25, 8.5, 9.25 ], "texture": "#texture" },
				"north": { "uv": [ 8.5, 3.25, 7.5, 2.25 ], "texture": "#texture" },
				"south": { "uv": [ 8.5, 3.25, 7.5, 2.25 ], "texture": "#texture" },
				"west": { "uv": [ 6.75, 2.25, 7.75, 3.25 ], "texture": "#texture", "rotation": 180 },
				"east": { "uv": [ 8.25, 2.25, 9.25, 3.25 ], "texture": "#texture", "rotation": 180 }
			}
		},
		{
			"__comment": "Box82",
			"from": [ 7.25, 13.75, 19.25 ],
			"to": [ 8.75, 14.75, 19.75 ],
			"faces": {
				"down": { "uv": [ 7.5, 11.625, 8.5, 12.625 ], "texture": "#texture" },
				"up": { "uv": [ 7.5, 3.375, 8.5, 4.375 ], "texture": "#texture" },
				"north": { "uv": [ 7.5, 1.25, 8.5, 2.25 ], "texture": "#texture" },
				"south": { "uv": [ 7.5, 1.25, 8.5, 2.25 ], "texture": "#texture" },
				"west": { "uv": [ 3.375, 1.25, 4.375, 2.25 ], "texture": "#texture" },
				"east": { "uv": [ 11.625, 1.25, 12.625, 2.25 ], "texture": "#texture" }
			}
		},
		{
			"__comment": "Box83",
			"from": [ 7.25, 13.75, 19.25 ],
			"to": [ 8.75, 14.625, 19.75 ],
			"rotation": { "origin": [ 7.25, 13.75, 19.25 ], "axis": "x", "angle": -22.5 },
			"faces": {
				"down": { "uv": [ 7.5, 11.75, 8.5, 12.75 ], "texture": "#texture" },
				"up": { "uv": [ 7.5, 3.25, 8.5, 4.25 ], "texture": "#texture" },
				"north": { "uv": [ 7.5, 1.25, 8.5, 2.25 ], "texture": "#texture" },
				"south": { "uv": [ 7.5, 1.25, 8.5, 2.25 ], "texture": "#texture" },
				"west": { "uv": [ 3.25, 1.25, 4.25, 2.25 ], "texture": "#texture" },
				"east": { "uv": [ 11.75, 1.25, 12.75, 2.25 ], "texture": "#texture" }
			}
		},
		{
			"__comment": "Box84",
			"from": [ 7.25, 14.25, 19.125 ],
			"to": [ 8.75, 16.375, 20 ],
			"faces": {
				"down": { "uv": [ 7.25, 12, 8.75, 12.875 ], "texture": "#texture" },
				"up": { "uv": [ 7.25, 3.125, 8.75, 4 ], "texture": "#texture" },
				"north": { "uv": [ 7.25, 0, 8.75, 1.75 ], "texture": "#texture" },
				"south": { "uv": [ 7.25, 0, 8.75, 1.75 ], "texture": "#texture" },
				"west": { "uv": [ 3.125, 0, 4, 1.75 ], "texture": "#texture" },
				"east": { "uv": [ 12, 0, 12.875, 1.75 ], "texture": "#texture" }
			}
		},
		{
			"__comment": "Box85",
			"from": [ 7.375, 15.875, 18.875 ],
			"to": [ 8.375, 16.375, 19.375 ],
			"faces": {
				"down": { "uv": [ 7.375, 12.5, 8.375, 13.5 ], "texture": "#texture" },
				"up": { "uv": [ 7.375, 2.5, 8.375, 3.5 ], "texture": "#texture" },
				"north": { "uv": [ 7.625, 0, 8.625, 0.75 ], "texture": "#texture" },
				"south": { "uv": [ 7.375, 0, 8.375, 0.75 ], "texture": "#texture" },
				"west": { "uv": [ 2.5, 0, 3.5, 0.75 ], "texture": "#texture" },
				"east": { "uv": [ 12.5, 0, 13.5, 0.75 ], "texture": "#texture" }
			}
		},
		{
			"__comment": "Box86",
			"from": [ 7.5, 16.375, 17.75 ],
			"to": [ 8.5, 17.125, 19.5 ],
			"rotation": { "origin": [ 7.5, 16.375, 17.75 ], "axis": "x", "angle": 22.5 },
			"faces": {
				"down": { "uv": [ 7.5, 13.25, 8.5, 14.25 ], "texture": "#texture" },
				"up": { "uv": [ 7.5, 1.75, 8.5, 2.75 ], "texture": "#texture" },
				"north": { "uv": [ 7.5, 14.625, 8.5, 15.625 ], "texture": "#texture" },
				"south": { "uv": [ 7.5, 14.625, 8.5, 15.625 ], "texture": "#texture" },
				"west": { "uv": [ 1.75, 14.625, 2.75, 15.625 ], "texture": "#texture" },
				"east": { "uv": [ 13.25, 14.625, 14.25, 15.625 ], "texture": "#texture" }
			}
		},
		{
			"__comment": "Box87",
			"from": [ 7.5, 14.75, 18.5 ],
			"to": [ 8.5, 16.375, 19 ],
			"rotation": { "origin": [ 7.5, 16.375, 18.5 ], "axis": "x", "angle": -22.5 },
			"faces": {
				"down": { "uv": [ 7.5, 15, 8.5, 16 ], "texture": "#texture" },
				"up": { "uv": [ 8.5, 16, 7.5, 15 ], "texture": "#texture" },
				"north": { "uv": [ 8.5, 13.25, 7.5, 12.25 ], "texture": "#texture" },
				"south": { "uv": [ 7.5, 2.75, 8.5, 3.75 ], "texture": "#texture" },
				"west": { "uv": [ 2.75, 15, 3.75, 16 ], "texture": "#texture", "rotation": 90 },
				"east": { "uv": [ 12.25, 15, 13.25, 16 ], "texture": "#texture", "rotation": 270 }
			}
		},
		{
			"__comment": "Box88",
			"from": [ 7.25, 14.5, 19 ],
			"to": [ 8.75, 15.625, 20 ],
			"faces": {
				"down": { "uv": [ 7.25, 12, 8.75, 13 ], "texture": "#texture" },
				"up": { "uv": [ 7.25, 3, 8.75, 4 ], "texture": "#texture" },
				"north": { "uv": [ 7.25, 0.375, 8.75, 1.5 ], "texture": "#texture" },
				"south": { "uv": [ 7.25, 0.375, 8.75, 1.5 ], "texture": "#texture" },
				"west": { "uv": [ 3, 0.375, 4, 1.5 ], "texture": "#texture" },
				"east": { "uv": [ 12, 0.375, 13, 1.5 ], "texture": "#texture" }
			}
		},
		{
			"__comment": "Box89",
			"from": [ 7.5, 14, 18.375 ],
			"to": [ 8.5, 14.375, 19.5 ],
			"rotation": { "origin": [ 7.5, 14, 18.375 ], "axis": "x", "angle": -22.5 },
			"faces": {
				"down": { "uv": [ 7.5, 12.5, 8.5, 13.5 ], "texture": "#texture" },
				"up": { "uv": [ 7.5, 2.5, 8.5, 3.5 ], "texture": "#texture" },
				"north": { "uv": [ 7.5, 1.25, 8.5, 2.25 ], "texture": "#texture" },
				"south": { "uv": [ 7.5, 1.25, 8.5, 2.25 ], "texture": "#texture" },
				"west": { "uv": [ 2.5, 1.25, 3.5, 2.25 ], "texture": "#texture" },
				"east": { "uv": [ 12.5, 1.25, 13.5, 2.25 ], "texture": "#texture" }
			}
		},
		{
			"__comment": "Box90",
			"from": [ 7.5, 14, 16.75 ],
			"to": [ 8.5, 14.375, 18.375 ],
			"faces": {
				"down": { "uv": [ 7.5, 13.625, 8.5, 15.25 ], "texture": "#texture" },
				"up": { "uv": [ 7.5, 0.75, 8.5, 2.375 ], "texture": "#texture" },
				"north": { "uv": [ 7.5, 1.625, 8.5, 2 ], "texture": "#texture" },
				"south": { "uv": [ 7.5, 1.625, 8.5, 2 ], "texture": "#texture" },
				"west": { "uv": [ 0.75, 1.625, 2.375, 2 ], "texture": "#texture" },
				"east": { "uv": [ 13.625, 1.625, 15.25, 2 ], "texture": "#texture" }
			}
		},
		{
			"__comment": "Box91",
			"from": [ 7.5, 14, 15.75 ],
			"to": [ 8.5, 14.375, 16.75 ],
			"rotation": { "origin": [ 7.5, 14, 16.75 ], "axis": "x", "angle": 22.5 },
			"faces": {
				"down": { "uv": [ 8.5, 2, 7.5, 1 ], "texture": "#texture" },
				"up": { "uv": [ 7.5, 1, 8.5, 2 ], "texture": "#texture" },
				"north": { "uv": [ 8.5, 1.5, 7.5, 0.5 ], "texture": "#texture" },
				"south": { "uv": [ 7.5, 14.5, 8.5, 15.5 ], "texture": "#texture" },
				"west": { "uv": [ 0.5, 1, 1.5, 2 ], "texture": "#texture", "rotation": 270 },
				"east": { "uv": [ 14.5, 1, 15.5, 2 ], "texture": "#texture", "rotation": 90 }
			}
		},
		{
			"__comment": "Box92",
			"from": [ 7.5, 14.3997, 15.8503 ],
			"to": [ 8.5, 15.7747, 16.2253 ],
			"rotation": { "origin": [ 7.5, 14.375, 15.875 ], "axis": "x", "angle": -45 },
			"faces": {
				"down": { "uv": [ 7.5, 0, 8.5, 0.125 ], "texture": "#texture" },
				"up": { "uv": [ 7.5, 15.875, 8.5, 16 ], "texture": "#texture" },
				"north": { "uv": [ 7.5, 0.625, 8.5, 1.625 ], "texture": "#texture" },
				"south": { "uv": [ 7.5, 0.625, 8.5, 1.625 ], "texture": "#texture" },
				"west": { "uv": [ 15.875, 0.625, 16, 1.625 ], "texture": "#texture" },
				"east": { "uv": [ 0, 0.625, 0.125, 1.625 ], "texture": "#texture" }
			}
		},
		{
			"__comment": "Box93",
			"from": [ 7.5, 16.375, 15.5 ],
			"to": [ 8.5, 17, 16.5 ],
			"rotation": { "origin": [ 7.5, 16.375, 16.5 ], "axis": "x", "angle": -22.5 },
			"faces": {
				"down": { "uv": [ 8.5, 1, 7.5, 0 ], "texture": "#texture" },
				"up": { "uv": [ 7.5, 0, 8.5, 1 ], "texture": "#texture" },
				"north": { "uv": [ 8.5, 16, 7.5, 15.25 ], "texture": "#texture" },
				"south": { "uv": [ 7.5, 0, 8.5, 0.75 ], "texture": "#texture" },
				"west": { "uv": [ 15.25, 0, 16, 1 ], "texture": "#texture", "rotation": 270 },
				"east": { "uv": [ 0, 0, 0.75, 1 ], "texture": "#texture", "rotation": 90 }
			}
		},
		{
			"__comment": "Box94",
			"from": [ 7.5, 15, 12.5 ],
			"to": [ 8.5, 16.375, 16 ],
			"rotation": { "origin": [ 7.5, 16.375, 16 ], "axis": "x", "angle": 22.5 },
			"faces": {
				"down": { "uv": [ 7.5, 15.5, 8.5, 16 ], "texture": "#texture" },
				"up": { "uv": [ 7.5, 0, 8.5, 0.5 ], "texture": "#texture" },
				"north": { "uv": [ 8.5, 1, 7.5, 0 ], "texture": "#texture" },
				"south": { "uv": [ 8.5, 1, 7.5, 0 ], "texture": "#texture" },
				"west": { "uv": [ 15.5, 0, 16, 1 ], "texture": "#texture", "rotation": 180 },
				"east": { "uv": [ 0, 0, 0.5, 1 ], "texture": "#texture", "rotation": 180 }
			}
		},
		{
			"__comment": "Box96",
			"from": [ 7.5, 16.375, 10.375 ],
			"to": [ 8.5, 17.375, 12.625 ],
			"faces": {
				"down": { "uv": [ 7.5, 3.375, 8.5, 5.625 ], "texture": "#texture" },
				"up": { "uv": [ 7.5, 10.375, 8.5, 12.625 ], "texture": "#texture" },
				"north": { "uv": [ 7.5, 14.625, 8.5, 15.625 ], "texture": "#texture" },
				"south": { "uv": [ 7.5, 14.625, 8.5, 15.625 ], "texture": "#texture" },
				"west": { "uv": [ 10.375, 14.625, 12.625, 15.625 ], "texture": "#texture" },
				"east": { "uv": [ 3.375, 14.625, 5.625, 15.625 ], "texture": "#texture" }
			}
		},
		{
			"__comment": "Box97",
			"from": [ 7.5, 14.5, 17.25 ],
			"to": [ 8.5, 15.26, 17.625 ],
			"rotation": { "origin": [ 7.5, 14.5, 17.625 ], "axis": "x", "angle": 22.5 },
			"faces": {
				"down": { "uv": [ 8.5, 1, 7.5, 0 ], "texture": "#texture" },
				"up": { "uv": [ 7.5, 0, 8.5, 1 ], "texture": "#texture" },
				"north": { "uv": [ 8.5, 3.25, 7.5, 2.25 ], "texture": "#texture" },
				"south": { "uv": [ 7.5, 12.75, 8.5, 13.75 ], "texture": "#texture" },
				"west": { "uv": [ 2.25, 0, 3.25, 1 ], "texture": "#texture", "rotation": 270 },
				"east": { "uv": [ 12.75, 0, 13.75, 1 ], "texture": "#texture", "rotation": 90 }
			}
		},
		{
			"__comment": "Box98",
			"from": [ 7.5, 15.625, 17.5 ],
			"to": [ 8.5, 16.875, 17.875 ],
			"rotation": { "origin": [ 7.5, 15.625, 17.5 ], "axis": "x", "angle": -45 },
			"faces": {
				"down": { "uv": [ 7.5, 12.5, 8.5, 13.5 ], "texture": "#texture" },
				"up": { "uv": [ 7.5, 2.5, 8.5, 3.5 ], "texture": "#texture" },
				"north": { "uv": [ 7.5, 0, 8.5, 0.75 ], "texture": "#texture" },
				"south": { "uv": [ 7.5, 0, 8.5, 0.75 ], "texture": "#texture" },
				"west": { "uv": [ 2.5, 0, 3.5, 0.75 ], "texture": "#texture" },
				"east": { "uv": [ 12.5, 0, 13.5, 0.75 ], "texture": "#texture" }
			}
		},
		{
			"__comment": "Box99",
			"from": [ 7.5, 15, 17.5 ],
			"to": [ 8.5, 16.5, 17.75 ],
			"faces": {
				"down": { "uv": [ 7.5, 14.25, 8.5, 14.5 ], "texture": "#texture" },
				"up": { "uv": [ 7.5, 1.5, 8.5, 1.75 ], "texture": "#texture" },
				"north": { "uv": [ 7.5, 0, 8.5, 1 ], "texture": "#texture" },
				"south": { "uv": [ 7.5, 0, 8.5, 1 ], "texture": "#texture" },
				"west": { "uv": [ 1.5, 0, 1.75, 1 ], "texture": "#texture" },
				"east": { "uv": [ 14.25, 0, 14.5, 1 ], "texture": "#texture" }
			}
		},
		{
			"__comment": "Box100",
			"from": [ 7.5, 16, 17.375 ],
			"to": [ 8.5, 16.5, 17.875 ],
			"rotation": { "origin": [ 7.5, 16, 17.375 ], "axis": "x", "angle": -45 },
			"faces": {
				"down": { "uv": [ 7.5, 13.5, 8.5, 14.5 ], "texture": "#texture" },
				"up": { "uv": [ 7.5, 1.5, 8.5, 2.5 ], "texture": "#texture" },
				"north": { "uv": [ 7.5, 15, 8.5, 16 ], "texture": "#texture" },
				"south": { "uv": [ 7.5, 15, 8.5, 16 ], "texture": "#texture" },
				"west": { "uv": [ 1.5, 15, 2.5, 16 ], "texture": "#texture" },
				"east": { "uv": [ 13.5, 15, 14.5, 16 ], "texture": "#texture" }
			}
		},
		{
			"__comment": "Box101",
			"from": [ 7.5, 15.25, 17.5 ],
			"to": [ 8.5, 16.125, 17.75 ],
			"rotation": { "origin": [ 7.5, 15.25, 17.5 ], "axis": "x", "angle": -22.5 },
			"faces": {
				"down": { "uv": [ 7.5, 13.5, 8.5, 14.5 ], "texture": "#texture" },
				"up": { "uv": [ 7.5, 1.5, 8.5, 2.5 ], "texture": "#texture" },
				"north": { "uv": [ 7.5, 0, 8.5, 1 ], "texture": "#texture" },
				"south": { "uv": [ 7.5, 0, 8.5, 1 ], "texture": "#texture" },
				"west": { "uv": [ 1.5, 0, 2.5, 1 ], "texture": "#texture" },
				"east": { "uv": [ 13.5, 0, 14.5, 1 ], "texture": "#texture" }
			}
		},
		{
			"__comment": "Box102",
			"from": [ 7.5, 15.615, 17.499 ],
			"to": [ 8.5, 16.375, 17.625 ],
			"rotation": { "origin": [ 7.5, 16.375, 17.625 ], "axis": "x", "angle": -22.5 },
			"faces": {
				"down": { "uv": [ 7.5, 1.75, 8.5, 2.75 ], "texture": "#texture" },
				"up": { "uv": [ 7.5, 13.25, 8.5, 14.25 ], "texture": "#texture" },
				"north": { "uv": [ 8.5, 1, 7.5, 0 ], "texture": "#texture" },
				"south": { "uv": [ 8.5, 1, 7.5, 0 ], "texture": "#texture" },
				"west": { "uv": [ 1.75, 0, 2.75, 1 ], "texture": "#texture", "rotation": 180 },
				"east": { "uv": [ 13.25, 0, 14.25, 1 ], "texture": "#texture", "rotation": 180 }
			}
		},
		{
			"__comment": "Box103",
			"from": [ 7.5, 15.2, 17.8 ],
			"to": [ 8.5, 15.7, 17.925 ],
			"faces": {
				"down": { "uv": [ 7.5, 13.25, 8.5, 14.25 ], "texture": "#texture" },
				"up": { "uv": [ 7.5, 1.75, 8.5, 2.75 ], "texture": "#texture" },
				"north": { "uv": [ 7.5, 0, 8.5, 1 ], "texture": "#texture" },
				"south": { "uv": [ 7.5, 0, 8.5, 1 ], "texture": "#texture" },
				"west": { "uv": [ 1.75, 0, 2.75, 1 ], "texture": "#texture" },
				"east": { "uv": [ 13.25, 0, 14.25, 1 ], "texture": "#texture" }
			}
		},
		{
			"__comment": "Box104",
			"from": [ 7.5, 15.125, 17.5 ],
			"to": [ 8.5, 15.75, 17.875 ],
			"faces": {
				"down": { "uv": [ 7.5, 14.125, 8.5, 14.5 ], "texture": "#texture" },
				"up": { "uv": [ 7.5, 1.5, 8.5, 1.875 ], "texture": "#texture" },
				"north": { "uv": [ 7.5, 0.25, 8.5, 0.875 ], "texture": "#texture" },
				"south": { "uv": [ 7.5, 0.25, 8.5, 0.875 ], "texture": "#texture" },
				"west": { "uv": [ 1.5, 0.25, 1.875, 0.875 ], "texture": "#texture" },
				"east": { "uv": [ 14.125, 0.25, 14.5, 0.875 ], "texture": "#texture" }
			}
		},
		{
			"__comment": "Box105",
			"from": [ 7.5, 15.75, 17.625 ],
			"to": [ 8.5, 16.5, 17.875 ],
			"faces": {
				"down": { "uv": [ 8.5, 16, 7.5, 15 ], "texture": "#texture" },
				"up": { "uv": [ 7.5, 15, 8.5, 16 ], "texture": "#texture" },
				"north": { "uv": [ 8.5, 3, 7.5, 2 ], "texture": "#texture" },
				"south": { "uv": [ 7.5, 13, 8.5, 14 ], "texture": "#texture" },
				"west": { "uv": [ 2, 15, 3, 16 ], "texture": "#texture", "rotation": 270 },
				"east": { "uv": [ 13, 15, 14, 16 ], "texture": "#texture", "rotation": 90 }
			}
		},
		{
			"__comment": "Box105",
			"from": [ 7.75, 18, -9.25 ],
			"to": [ 8.25, 18.875, 5.875 ],
			"faces": {
				"down": { "uv": [ 7.5, 8.25, 8.5, 9.25 ], "texture": "#texture" },
				"up": { "uv": [ 7.5, 6.75, 8.5, 7.75 ], "texture": "#texture" },
				"north": { "uv": [ 7.5, 13.125, 8.5, 14 ], "texture": "#texture" },
				"south": { "uv": [ 7.5, 13.125, 8.5, 14 ], "texture": "#texture" },
				"west": { "uv": [ 6.75, 13.125, 7.75, 14 ], "texture": "#texture" },
				"east": { "uv": [ 8.25, 13.125, 9.25, 14 ], "texture": "#texture" }
			}
		},
		{
			"__comment": "Box107",
			"from": [ 7.5, 16.75, -10.125 ],
			"to": [ 8.5, 17.75, -9.999 ],
			"faces": {
				"down": { "uv": [ 6, 10.125, 7, 11.125 ], "texture": "#texture" },
				"up": { "uv": [ 6, 4.875, 7, 5.875 ], "texture": "#texture" },
				"north": { "uv": [ 9, 14, 10, 15.25 ], "texture": "#texture" },
				"south": { "uv": [ 6, 14, 7, 15.25 ], "texture": "#texture" },
				"west": { "uv": [ 4.875, 14, 5.875, 15.25 ], "texture": "#texture" },
				"east": { "uv": [ 10.125, 14, 11.125, 15.25 ], "texture": "#texture" }
			}
		},
		{
			"__comment": "Box106",
			"from": [ 7.75, 16, -10 ],
			"to": [ 8.25, 18.5, -9.625 ],
			"faces": {
				"down": { "uv": [ 7.5, 9.5, 8.5, 10 ], "texture": "#texture" },
				"up": { "uv": [ 7.5, 6, 8.5, 6.5 ], "texture": "#texture" },
				"north": { "uv": [ 7.5, 13.5, 8.5, 16 ], "texture": "#texture" },
				"south": { "uv": [ 7.5, 13.5, 8.5, 16 ], "texture": "#texture" },
				"west": { "uv": [ 6, 13.5, 6.5, 16 ], "texture": "#texture" },
				"east": { "uv": [ 9.5, 13.5, 10, 16 ], "texture": "#texture" }
			}
		},
		{
			"__comment": "Box106",
			"from": [ 7.75, 16, -10 ],
			"to": [ 8.25, 18.5, -9.625 ],
			"rotation": { "origin": [ 8, 17.25, -10 ], "axis": "z", "angle": -22.5 },
			"faces": {
				"down": { "uv": [ 7.5, 9.5, 8.5, 10 ], "texture": "#texture" },
				"up": { "uv": [ 7.5, 6, 8.5, 6.5 ], "texture": "#texture" },
				"north": { "uv": [ 7.5, 13.5, 8.5, 16 ], "texture": "#texture" },
				"south": { "uv": [ 7.5, 13.5, 8.5, 16 ], "texture": "#texture" },
				"west": { "uv": [ 6, 13.5, 6.5, 16 ], "texture": "#texture" },
				"east": { "uv": [ 9.5, 13.5, 10, 16 ], "texture": "#texture" }
			}
		},
		{
			"__comment": "Box106",
			"from": [ 6.75, 17, -10 ],
			"to": [ 9.25, 17.5, -9.625 ],
			"rotation": { "origin": [ 8, 17.25, -10 ], "axis": "z", "angle": 22.5 },
			"faces": {
				"down": { "uv": [ 7.5, 9.5, 8.5, 10 ], "texture": "#texture" },
				"up": { "uv": [ 7.5, 6, 8.5, 6.5 ], "texture": "#texture" },
				"north": { "uv": [ 7.5, 13.5, 8.5, 16 ], "texture": "#texture" },
				"south": { "uv": [ 7.5, 13.5, 8.5, 16 ], "texture": "#texture" },
				"west": { "uv": [ 6, 13.5, 6.5, 16 ], "texture": "#texture" },
				"east": { "uv": [ 9.5, 13.5, 10, 16 ], "texture": "#texture" }
			}
		},
		{
			"__comment": "Box106",
			"from": [ 6.75, 17, -10 ],
			"to": [ 9.25, 17.5, -9.625 ],
			"rotation": { "origin": [ 8, 17.25, -10 ], "axis": "z", "angle": -22.5 },
			"faces": {
				"down": { "uv": [ 7.5, 9.5, 8.5, 10 ], "texture": "#texture" },
				"up": { "uv": [ 7.5, 6, 8.5, 6.5 ], "texture": "#texture" },
				"north": { "uv": [ 7.5, 13.5, 8.5, 16 ], "texture": "#texture" },
				"south": { "uv": [ 7.5, 13.5, 8.5, 16 ], "texture": "#texture" },
				"west": { "uv": [ 6, 13.5, 6.5, 16 ], "texture": "#texture" },
				"east": { "uv": [ 9.5, 13.5, 10, 16 ], "texture": "#texture" }
			}
		},
		{
			"__comment": "Box106",
			"from": [ 7.75, 16, -10 ],
			"to": [ 8.25, 18.5, -9.625 ],
			"rotation": { "origin": [ 8, 17.25, -10 ], "axis": "z", "angle": -45 },
			"faces": {
				"down": { "uv": [ 7.5, 9.5, 8.5, 10 ], "texture": "#texture" },
				"up": { "uv": [ 7.5, 6, 8.5, 6.5 ], "texture": "#texture" },
				"north": { "uv": [ 7.5, 13.5, 8.5, 16 ], "texture": "#texture" },
				"south": { "uv": [ 7.5, 13.5, 8.5, 16 ], "texture": "#texture" },
				"west": { "uv": [ 6, 13.5, 6.5, 16 ], "texture": "#texture" },
				"east": { "uv": [ 9.5, 13.5, 10, 16 ], "texture": "#texture" }
			}
		},
		{
			"__comment": "Box106",
			"from": [ 7.75, 16, -10 ],
			"to": [ 8.25, 18.5, -9.625 ],
			"rotation": { "origin": [ 8, 17.25, -10 ], "axis": "z", "angle": 22.5 },
			"faces": {
				"down": { "uv": [ 7.5, 9.5, 8.5, 10 ], "texture": "#texture" },
				"up": { "uv": [ 7.5, 6, 8.5, 6.5 ], "texture": "#texture" },
				"north": { "uv": [ 7.5, 13.5, 8.5, 16 ], "texture": "#texture" },
				"south": { "uv": [ 7.5, 13.5, 8.5, 16 ], "texture": "#texture" },
				"west": { "uv": [ 6, 13.5, 6.5, 16 ], "texture": "#texture" },
				"east": { "uv": [ 9.5, 13.5, 10, 16 ], "texture": "#texture" }
			}
		},
		{
			"__comment": "Box106",
			"from": [ 6.75, 17, -10 ],
			"to": [ 9.25, 17.5, -9.625 ],
			"faces": {
				"down": { "uv": [ 7.5, 9.5, 8.5, 10 ], "texture": "#texture" },
				"up": { "uv": [ 7.5, 6, 8.5, 6.5 ], "texture": "#texture" },
				"north": { "uv": [ 7.5, 13.5, 8.5, 16 ], "texture": "#texture" },
				"south": { "uv": [ 7.5, 13.5, 8.5, 16 ], "texture": "#texture" },
				"west": { "uv": [ 6, 13.5, 6.5, 16 ], "texture": "#texture" },
				"east": { "uv": [ 9.5, 13.5, 10, 16 ], "texture": "#texture" }
			}
		},
		{
			"__comment": "Box106",
			"from": [ 6.75, 17, -10 ],
			"to": [ 9.25, 17.5, -9.625 ],
			"rotation": { "origin": [ 8, 17.25, -10 ], "axis": "z", "angle": -45 },
			"faces": {
				"down": { "uv": [ 7.5, 9.5, 8.5, 10 ], "texture": "#texture" },
				"up": { "uv": [ 7.5, 6, 8.5, 6.5 ], "texture": "#texture" },
				"north": { "uv": [ 7.5, 13.5, 8.5, 16 ], "texture": "#texture" },
				"south": { "uv": [ 7.5, 13.5, 8.5, 16 ], "texture": "#texture" },
				"west": { "uv": [ 6, 13.5, 6.5, 16 ], "texture": "#texture" },
				"east": { "uv": [ 9.5, 13.5, 10, 16 ], "texture": "#texture" }
			}
		},
		{
			"__comment": "Box117",
			"from": [ 7.6875, 15.5, -8.5 ],
			"to": [ 8.3125, 16.5, 2.5 ],
			"faces": {
				"down": { "uv": [ 7.625, 13.5, 8.375, 16 ], "texture": "#texture" },
				"up": { "uv": [ 7.625, 0, 8.375, 2.5 ], "texture": "#texture" },
				"north": { "uv": [ 7.625, 0, 8.375, 0.5 ], "texture": "#texture" },
				"south": { "uv": [ 7.625, 0, 8.375, 0.5 ], "texture": "#texture" },
				"west": { "uv": [ 0, 0, 2.5, 0.5 ], "texture": "#texture" },
				"east": { "uv": [ 13.5, 0, 16, 0.5 ], "texture": "#texture" }
			}
		},
		{
			"__comment": "Box117",
			"from": [ 7.5076, 18.1995, -8.5 ],
			"to": [ 9.0076, 19.1995, 2.5 ],
			"rotation": { "origin": [ 7.5076, 18.1995, -8 ], "axis": "z", "angle": -45 },
			"faces": {
				"down": { "uv": [ 7.625, 0, 8.375, 2.5 ], "texture": "#texture", "rotation": 180 },
				"up": { "uv": [ 7.625, 13.5, 8.375, 16 ], "texture": "#texture", "rotation": 180 },
				"north": { "uv": [ 8.375, 0.5, 7.625, 0 ], "texture": "#texture" },
				"south": { "uv": [ 8.375, 0.5, 7.625, 0 ], "texture": "#texture" },
				"west": { "uv": [ 13.5, 0, 16, 0.5 ], "texture": "#texture", "rotation": 180 },
				"east": { "uv": [ 0, 0, 2.5, 0.5 ], "texture": "#texture", "rotation": 180 }
			}
		},
		{
			"__comment": "Box117",
			"from": [ 6.5, 16.6875, -8.5 ],
			"to": [ 7.5, 17.3125, 2.5 ],
			"faces": {
				"down": { "uv": [ 13.5, 0, 16, 0.5 ], "texture": "#texture", "rotation": 90 },
				"up": { "uv": [ 2.5, 0.5, 0, 0 ], "texture": "#texture", "rotation": 270 },
				"north": { "uv": [ 7.625, 0, 8.375, 0.5 ], "texture": "#texture", "rotation": 270 },
				"south": { "uv": [ 7.625, 0, 8.375, 0.5 ], "texture": "#texture", "rotation": 90 },
				"west": { "uv": [ 7.625, 13.5, 8.375, 16 ], "texture": "#texture", "rotation": 90 },
				"east": { "uv": [ 8.375, 2.5, 7.625, 0 ], "texture": "#texture", "rotation": 270 }
			}
		},
		{
			"__comment": "Box117",
			"from": [ 6.5, 16.6875, -8.5 ],
			"to": [ 7.5, 17.3125, 2.5 ],
			"rotation": { "origin": [ 8, 17, -8 ], "axis": "z", "angle": -22.5 },
			"faces": {
				"down": { "uv": [ 13.5, 0, 16, 0.5 ], "texture": "#texture", "rotation": 90 },
				"up": { "uv": [ 2.5, 0.5, 0, 0 ], "texture": "#texture", "rotation": 270 },
				"north": { "uv": [ 7.625, 0, 8.375, 0.5 ], "texture": "#texture", "rotation": 270 },
				"south": { "uv": [ 7.625, 0, 8.375, 0.5 ], "texture": "#texture", "rotation": 90 },
				"west": { "uv": [ 7.625, 13.5, 8.375, 16 ], "texture": "#texture", "rotation": 90 },
				"east": { "uv": [ 8.375, 2.5, 7.625, 0 ], "texture": "#texture", "rotation": 270 }
			}
		},
		{
			"__comment": "Box117",
			"from": [ 6.5, 16.6875, -8.5 ],
			"to": [ 7.5, 17.3125, 2.5 ],
			"rotation": { "origin": [ 8, 17, -8 ], "axis": "z", "angle": 22.5 },
			"faces": {
				"down": { "uv": [ 13.5, 0, 16, 0.5 ], "texture": "#texture", "rotation": 90 },
				"up": { "uv": [ 2.5, 0.5, 0, 0 ], "texture": "#texture", "rotation": 270 },
				"north": { "uv": [ 7.625, 0, 8.375, 0.5 ], "texture": "#texture", "rotation": 270 },
				"south": { "uv": [ 7.625, 0, 8.375, 0.5 ], "texture": "#texture", "rotation": 90 },
				"west": { "uv": [ 7.625, 13.5, 8.375, 16 ], "texture": "#texture", "rotation": 90 },
				"east": { "uv": [ 8.375, 2.5, 7.625, 0 ], "texture": "#texture", "rotation": 270 }
			}
		},
		{
			"__comment": "Box117",
			"from": [ 7.6875, 15.5, -8.5 ],
			"to": [ 8.3125, 16.5, 2.5 ],
			"rotation": { "origin": [ 8, 17, -8 ], "axis": "z", "angle": 45 },
			"faces": {
				"down": { "uv": [ 7.625, 13.5, 8.375, 16 ], "texture": "#texture" },
				"up": { "uv": [ 7.625, 0, 8.375, 2.5 ], "texture": "#texture" },
				"north": { "uv": [ 7.625, 0, 8.375, 0.5 ], "texture": "#texture" },
				"south": { "uv": [ 7.625, 0, 8.375, 0.5 ], "texture": "#texture" },
				"west": { "uv": [ 0, 0, 2.5, 0.5 ], "texture": "#texture" },
				"east": { "uv": [ 13.5, 0, 16, 0.5 ], "texture": "#texture" }
			}
		},
		{
			"__comment": "Box117",
			"from": [ 7.6875, 15.5, -8.5 ],
			"to": [ 8.3125, 16.5, 2.5 ],
			"rotation": { "origin": [ 8, 17, -8 ], "axis": "z", "angle": -22.5 },
			"faces": {
				"down": { "uv": [ 7.625, 13.5, 8.375, 16 ], "texture": "#texture" },
				"up": { "uv": [ 7.625, 0, 8.375, 2.5 ], "texture": "#texture" },
				"north": { "uv": [ 7.625, 0, 8.375, 0.5 ], "texture": "#texture" },
				"south": { "uv": [ 7.625, 0, 8.375, 0.5 ], "texture": "#texture" },
				"west": { "uv": [ 0, 0, 2.5, 0.5 ], "texture": "#texture" },
				"east": { "uv": [ 13.5, 0, 16, 0.5 ], "texture": "#texture" }
			}
		},
		{
			"__comment": "Box117",
			"from": [ 7.6875, 15.5, -8.5 ],
			"to": [ 8.3125, 16.5, 2.5 ],
			"rotation": { "origin": [ 8, 17, -8 ], "axis": "z", "angle": -45 },
			"faces": {
				"down": { "uv": [ 7.625, 13.5, 8.375, 16 ], "texture": "#texture" },
				"up": { "uv": [ 7.625, 0, 8.375, 2.5 ], "texture": "#texture" },
				"north": { "uv": [ 7.625, 0, 8.375, 0.5 ], "texture": "#texture" },
				"south": { "uv": [ 7.625, 0, 8.375, 0.5 ], "texture": "#texture" },
				"west": { "uv": [ 0, 0, 2.5, 0.5 ], "texture": "#texture" },
				"east": { "uv": [ 13.5, 0, 16, 0.5 ], "texture": "#texture" }
			}
		},
		{
			"__comment": "Box117",
			"from": [ 8.5, 16.6875, -8.5 ],
			"to": [ 9.5, 17.3125, 2.5 ],
			"rotation": { "origin": [ 8, 17, -8 ], "axis": "z", "angle": 22.5 },
			"faces": {
				"down": { "uv": [ 2.5, 0.5, 0, 0 ], "texture": "#texture", "rotation": 90 },
				"up": { "uv": [ 13.5, 0, 16, 0.5 ], "texture": "#texture", "rotation": 270 },
				"north": { "uv": [ 7.625, 0, 8.375, 0.5 ], "texture": "#texture", "rotation": 90 },
				"south": { "uv": [ 7.625, 0, 8.375, 0.5 ], "texture": "#texture", "rotation": 270 },
				"west": { "uv": [ 7.625, 0, 8.375, 2.5 ], "texture": "#texture", "rotation": 270 },
				"east": { "uv": [ 8.375, 16, 7.625, 13.5 ], "texture": "#texture", "rotation": 90 }
			}
		},
		{
			"__comment": "Box117",
			"from": [ 7.6875, 15.5, -8.5 ],
			"to": [ 8.3125, 16.5, 2.5 ],
			"rotation": { "origin": [ 8, 17, -8 ], "axis": "z", "angle": 22.5 },
			"faces": {
				"down": { "uv": [ 7.625, 13.5, 8.375, 16 ], "texture": "#texture" },
				"up": { "uv": [ 7.625, 0, 8.375, 2.5 ], "texture": "#texture" },
				"north": { "uv": [ 7.625, 0, 8.375, 0.5 ], "texture": "#texture" },
				"south": { "uv": [ 7.625, 0, 8.375, 0.5 ], "texture": "#texture" },
				"west": { "uv": [ 0, 0, 2.5, 0.5 ], "texture": "#texture" },
				"east": { "uv": [ 13.5, 0, 16, 0.5 ], "texture": "#texture" }
			}
		},
		{
			"__comment": "Box117",
			"from": [ 8.5, 16.6875, -8.5 ],
			"to": [ 9.5, 17.3125, 2.5 ],
			"rotation": { "origin": [ 8, 17, -8 ], "axis": "z", "angle": -45 },
			"faces": {
				"down": { "uv": [ 2.5, 0.5, 0, 0 ], "texture": "#texture", "rotation": 90 },
				"up": { "uv": [ 13.5, 0, 16, 0.5 ], "texture": "#texture", "rotation": 270 },
				"north": { "uv": [ 7.625, 0, 8.375, 0.5 ], "texture": "#texture", "rotation": 90 },
				"south": { "uv": [ 7.625, 0, 8.375, 0.5 ], "texture": "#texture", "rotation": 270 },
				"west": { "uv": [ 7.625, 0, 8.375, 2.5 ], "texture": "#texture", "rotation": 270 },
				"east": { "uv": [ 8.375, 16, 7.625, 13.5 ], "texture": "#texture", "rotation": 90 }
			}
		},
		{
			"__comment": "Box117",
			"from": [ 8.5, 16.6875, -8.5 ],
			"to": [ 9.5, 17.3125, 2.5 ],
			"rotation": { "origin": [ 8, 17, -8 ], "axis": "z", "angle": -22.5 },
			"faces": {
				"down": { "uv": [ 2.5, 0.5, 0, 0 ], "texture": "#texture", "rotation": 90 },
				"up": { "uv": [ 13.5, 0, 16, 0.5 ], "texture": "#texture", "rotation": 270 },
				"north": { "uv": [ 7.625, 0, 8.375, 0.5 ], "texture": "#texture", "rotation": 90 },
				"south": { "uv": [ 7.625, 0, 8.375, 0.5 ], "texture": "#texture", "rotation": 270 },
				"west": { "uv": [ 7.625, 0, 8.375, 2.5 ], "texture": "#texture", "rotation": 270 },
				"east": { "uv": [ 8.375, 16, 7.625, 13.5 ], "texture": "#texture", "rotation": 90 }
			}
		},
		{
			"__comment": "Box117",
			"from": [ 8.5, 16.6875, -8.5 ],
			"to": [ 9.5, 17.3125, 2.5 ],
			"faces": {
				"down": { "uv": [ 2.5, 0.5, 0, 0 ], "texture": "#texture", "rotation": 90 },
				"up": { "uv": [ 13.5, 0, 16, 0.5 ], "texture": "#texture", "rotation": 270 },
				"north": { "uv": [ 7.625, 0, 8.375, 0.5 ], "texture": "#texture", "rotation": 90 },
				"south": { "uv": [ 7.625, 0, 8.375, 0.5 ], "texture": "#texture", "rotation": 270 },
				"west": { "uv": [ 7.625, 0, 8.375, 2.5 ], "texture": "#texture", "rotation": 270 },
				"east": { "uv": [ 8.375, 16, 7.625, 13.5 ], "texture": "#texture", "rotation": 90 }
			}
		},
		{
			"__comment": "Box117",
			"from": [ 6.75, 17.875, -8.5 ],
			"to": [ 7.375, 19.375, 2.5 ],
			"rotation": { "origin": [ 6.75, 17.875, -8 ], "axis": "z", "angle": -45 },
			"faces": {
				"down": { "uv": [ 7.625, 0, 8.375, 2.5 ], "texture": "#texture", "rotation": 180 },
				"up": { "uv": [ 7.625, 13.5, 8.375, 16 ], "texture": "#texture", "rotation": 180 },
				"north": { "uv": [ 8.375, 0.5, 7.625, 0 ], "texture": "#texture" },
				"south": { "uv": [ 8.375, 0.5, 7.625, 0 ], "texture": "#texture" },
				"west": { "uv": [ 13.5, 0, 16, 0.5 ], "texture": "#texture", "rotation": 180 },
				"east": { "uv": [ 0, 0, 2.5, 0.5 ], "texture": "#texture", "rotation": 180 }
			}
		}
	],
	"display": {
		"thirdperson_righthand": {
			"translation":  [ 0, -2.782, -2.782 ],
			"scale":  [ 0.35, 0.35, 0.35 ]
		},
		"thirdperson_lefthand": {
			"translation":  [ 0, -2.782, -2.782 ],
			"scale":  [ 0.35, 0.35, 0.35 ]
		},
		"firstperson_righthand": {
			"rotation":  [ 0, -8, 0 ],
			"translation":  [ -0.694, -2.086, -2.086 ],
			"scale":  [ 0.5, 0.5, 0.5 ]
		},
		"firstperson_lefthand": {
			"translation":  [ -8.97, -4.95, 3.4782 ],
			"scale":  [ 0.7565, 1, 0.5913 ]
		},
		"gui": {
			"rotation":  [ 90, 45, -90 ],
			"translation":  [ -2.782, -2.086, 0 ],
			"scale":  [ 0.45, 0.45, 0.45 ]
		},
		"ground": {
			"rotation":  [ 0, 0, 90 ],
			"translation":  [ 3.4782, -1.39, 0.0003 ],
			"scale":  [ 0.4, 0.4, 0.4 ]
		},
		"fixed": {
			"rotation":  [ 0, -90, 0 ],
			"translation":  [ -15, -3, -20 ],
			"scale":  [ 0.8, 0.8, 0.8 ]
		}
	}
}